{
  "_id": "en3iH9cxZtYQNd08",
  "name": "Deadly Stroke",
  "type": "feat",
  "img": "systems/pf1/icons/feats/deadly-stroke.jpg",
  "data": {
    "description": {
      "value": "\n                <i>With a well-placed strike, you can bring a swift and painful end to most foes.</i>\n                <br />\n                <br />\n                \n                <p><b>Prerequisites</b></p>\n                <p> Dazzling Display, Greater Weapon Focus, Shatter Defenses, Weapon Focus, proficiency with the selected weapon, base attack bonus +11.</p>\n                \n            <br />\n                <p><b>Benefits</b></p>\n                <p><p class=\"stat-block-1\"> As a standard action, make a single attack with the weapon for which you have Greater Weapon Focus against a stunned or flat-footed opponent. If you hit, you deal double the normal damage and the target takes 1 point of Constitution bleed (see Conditions). The additional damage and bleed is not multiplied on a critical hit.</p></p>\n                \n            \n            "
    },
    "tags": [
      [
        "Combat"
      ],
      [
        "Offensive"
      ]
    ],
    "measureTemplate": {
      "size": "0"
    },
    "actionType": "",
    "damage": {
      "parts": [],
      "critParts": [],
      "nonCritParts": []
    },
    "attackParts": [],
    "effectNotes": [],
    "attackNotes": [],
    "changes": [],
    "contextNotes": [],
    "links": {
      "children": [],
      "charges": []
    },
    "armorProf": {
      "value": []
    },
    "weaponProf": {
      "value": []
    },
    "flags": {
      "boolean": [],
      "dictionary": []
    },
    "scriptCalls": [],
    "associations": {
      "classes": []
    }
  },
  "effects": [],
  "folder": null,
  "sort": 0,
  "permission": {
    "default": 0
  },
  "flags": {}
}