{
  "_id": "fgHBgdHD34u0pHnj",
  "name": "Large Magma Elemental",
  "type": "npc",
  "img": "systems/pf1/icons/races/creature-types/outsider.png",
  "data": {
    "abilities": {
      "str": {
        "value": 18
      },
      "dex": {
        "value": 8
      },
      "con": {
        "value": 15
      },
      "int": {
        "value": 6
      },
      "wis": {
        "value": 11
      },
      "cha": {
        "value": 11
      }
    },
    "attributes": {
      "naturalAC": "+8",
      "hp": {
        "value": 70
      },
      "speed": {
        "land": {
          "base": 20
        },
        "burrow": {
          "base": 20
        }
      },
      "spells": {
        "usedSpellbooks": []
      }
    },
    "details": {
      "cr": {
        "base": 5
      }
    },
    "skills": {
      "clm": {
        "rank": 11
      },
      "kdu": {
        "rank": 11
      },
      "per": {
        "rank": 8
      },
      "ste": {
        "rank": 8
      }
    },
    "traits": {
      "size": "lg",
      "senses": "darkvision 60 ft.; Perception +11",
      "dr": "5/-",
      "languages": {
        "value": []
      },
      "di": {
        "value": [
          "fire"
        ]
      },
      "dv": {
        "value": [
          "cold"
        ]
      },
      "ci": {
        "value": [],
        "custom": "Elemental Traits;"
      },
      "stature": ""
    }
  },
  "token": {
    "name": "Large Magma Elemental",
    "displayName": 20,
    "actorLink": false,
    "width": 2,
    "height": 2,
    "scale": 1,
    "mirrorX": false,
    "mirrorY": false,
    "lockRotation": false,
    "rotation": 0,
    "alpha": 1,
    "vision": false,
    "dimSight": 0,
    "brightSight": "60",
    "dimLight": 0,
    "brightLight": 0,
    "sightAngle": 0,
    "lightAngle": 0,
    "lightAlpha": 0.25,
    "lightAnimation": {
      "speed": 5,
      "intensity": 5
    },
    "disposition": -1,
    "displayBars": 20,
    "bar1": {
      "attribute": null
    },
    "bar2": {
      "attribute": null
    },
    "flags": {},
    "randomImg": false,
    "img": "systems/pf1/icons/races/creature-types/outsider.png"
  },
  "items": [
    {
      "_id": "cV7yHt8i5YCV0ZTd",
      "name": "Outsider (Earth, Elemental, Extraplanar, Fire)",
      "type": "class",
      "img": "systems/pf1/icons/skills/yellow_40.jpg",
      "data": {
        "description": {
          "value": "<p>An outsider is at least partially composed of the essence (but not necessarily the material) of some plane other than the Material Plane. Some creatures start out as some other type and become outsiders when they attain a higher (or lower) state of spiritual existence.</p>\n<h2><span id=\"Features\">Features</span></h2>\n<p>An outsider has the following features.</p>\n<ul>\n<li>d10 Hit Dice.</li>\n<li>Base attack bonus equal to total Hit Dice (fast progression).</li>\n<li>Two good saving throws, usually&nbsp;<a href=\"https://www.d20pfsrd.com/gamemastering/combat#TOC-Reflex\" rel=\"nofollow\">Reflex</a>&nbsp;and Will.</li>\n<li>Skill points equal to 6 + Int modifier (minimum 1) per Hit Die. The following are class skills for outsiders: <a href=\"https://www.d20pfsrd.com/skills/bluff\" rel=\"nofollow\">Bluff</a>, <a href=\"https://www.d20pfsrd.com/skills/craft\" rel=\"nofollow\">Craft</a>, <a href=\"https://www.d20pfsrd.com/skills/knowledge\" rel=\"nofollow\">Knowledge</a>&nbsp;(planes), <a href=\"https://www.d20pfsrd.com/skills/perception\" rel=\"nofollow\">Perception</a>, <a href=\"https://www.d20pfsrd.com/skills/sense-motive\" rel=\"nofollow\">Sense Motive</a>, and <a href=\"https://www.d20pfsrd.com/skills/stealth\" rel=\"nofollow\">Stealth</a>. Due to their varied nature, outsiders also receive 4 additional class skills determined by the creature’s theme.</li>\n</ul>\n<h2><span id=\"Traits\">Traits</span></h2>\n<p>An outsider possesses the following traits (unless otherwise noted in a creature’s entry).</p>\n<ul>\n<li>Darkvision 60 feet.</li>\n<li>Unlike most living creatures, an outsider does not have a dual nature—its soul and body form one unit. When an outsider is slain, no soul is set loose. Spells that restore souls to their bodies, such as&nbsp;<a href=\"https://www.d20pfsrd.com/magic/all-spells/r/raise-dead\" rel=\"nofollow\">raise dead</a>,&nbsp;<a href=\"https://www.d20pfsrd.com/magic/all-spells/r/reincarnate\" rel=\"nofollow\">reincarnate</a>,&nbsp;and&nbsp;<a href=\"https://www.d20pfsrd.com/magic/all-spells/r/resurrection\" rel=\"nofollow\">resurrection</a>,&nbsp;don’t work on an outsider. It takes a different magical effect, such as&nbsp;<a href=\"https://www.d20pfsrd.com/magic/all-spells/l/limited-wish\" rel=\"nofollow\">limited wish</a>,&nbsp;<a href=\"https://www.d20pfsrd.com/magic/all-spells/w/wish\" rel=\"nofollow\">wish</a>,&nbsp;<a href=\"https://www.d20pfsrd.com/magic/all-spells/m/miracle\" rel=\"nofollow\">miracle</a>,&nbsp;or&nbsp;<a href=\"https://www.d20pfsrd.com/magic/all-spells/t/true-resurrection\" rel=\"nofollow\">true resurrection</a>&nbsp;to restore it to life. An outsider with the native subtype can be raised, reincarnated, or resurrected just as other living creatures can be.</li>\n<li>Proficient with all simple and martial weapons and any weapons mentioned in its entry.</li>\n<li>Proficient with whatever type of armor (light, medium, or heavy) it is described as wearing, as well as all lighter types. Outsiders not indicated as wearing armor are not proficient with armor. Outsiders are proficient with shields if they are proficient with any form of armor.</li>\n<li>Outsiders breathe, but do not need to eat or sleep (although they can do so if they wish). Native outsiders breathe, eat, and sleep.</li>\n</ul>"
        },
        "tags": [],
        "changes": [],
        "links": "",
        "tag": "outsider",
        "useCustomTag": true,
        "armorProf": {
          "value": []
        },
        "weaponProf": {
          "value": []
        },
        "flags": {
          "boolean": [],
          "dictionary": []
        },
        "scriptCalls": [],
        "classType": "racial",
        "level": 8,
        "hd": 10,
        "hp": 54,
        "bab": "high",
        "skillsPerLevel": 6,
        "savingThrows": {
          "ref": {
            "value": "high"
          },
          "will": {
            "value": "high"
          }
        },
        "classSkills": {
          "acr": false,
          "apr": false,
          "art": false,
          "blf": true,
          "clm": false,
          "crf": true,
          "dip": false,
          "dev": false,
          "dis": false,
          "esc": false,
          "fly": false,
          "han": false,
          "hea": false,
          "int": false,
          "kar": false,
          "kdu": false,
          "ken": false,
          "kge": false,
          "khi": false,
          "klo": false,
          "kna": false,
          "kno": false,
          "kpl": true,
          "kre": false,
          "lin": false,
          "lor": false,
          "per": true,
          "prf": false,
          "pro": false,
          "rid": false,
          "sen": true,
          "slt": false,
          "spl": false,
          "ste": true,
          "sur": false,
          "swm": false,
          "umd": false
        }
      },
      "effects": [],
      "folder": null,
      "sort": 0,
      "permission": {
        "default": 0
      },
      "flags": {}
    },
    {
      "_id": "11c0fk4114mkrpij",
      "name": "Race: Outsider",
      "type": "race",
      "img": "systems/pf1/icons/skills/yellow_40.jpg",
      "data": {
        "description": {
          "value": "sbc | As no playable race was found a placeholder was generated."
        },
        "tags": [],
        "changes": [],
        "contextNotes": [],
        "links": {
          "children": []
        },
        "armorProf": {
          "value": []
        },
        "weaponProf": {
          "value": []
        },
        "flags": {
          "boolean": [],
          "dictionary": []
        },
        "scriptCalls": [],
        "creatureType": "outsider",
        "subTypes": [
          [
            "earth"
          ],
          [
            "elemental"
          ],
          [
            "extraplanar"
          ],
          [
            "fire"
          ]
        ]
      },
      "effects": [],
      "folder": null,
      "sort": 0,
      "permission": {
        "default": 0
      },
      "flags": {}
    },
    {
      "_id": "cl1m5e3g864ls9vp",
      "name": "Sense: Darkvision 60ft.",
      "type": "feat",
      "img": "systems/pf1/icons/skills/shadow_12.jpg",
      "data": {
        "description": {
          "value": "Darkvision is the extraordinary ability to see with no light source at all, out to a range specified for the creature. Darkvision is black-and-white only (colors cannot be discerned). It does not allow characters to see anything that they could not see otherwise—invisible objects are still invisible, and illusions are still visible as what they seem to be. Likewise, darkvision subjects a creature to gaze attacks normally. The presence of light does not spoil darkvision."
        },
        "tags": [],
        "damage": {
          "parts": [],
          "critParts": [],
          "nonCritParts": []
        },
        "attackParts": [],
        "effectNotes": [],
        "attackNotes": [],
        "changes": [],
        "contextNotes": [],
        "links": {
          "children": [],
          "charges": []
        },
        "tag": "senseDarkvision60ft",
        "armorProf": {
          "value": []
        },
        "weaponProf": {
          "value": []
        },
        "flags": {
          "boolean": [],
          "dictionary": []
        },
        "scriptCalls": [],
        "featType": "racial",
        "associations": {
          "classes": []
        },
        "abilityType": "ex"
      },
      "effects": [],
      "folder": null,
      "sort": 0,
      "permission": {
        "default": 0
      },
      "flags": {}
    },
    {
      "_id": "Zeq6RWYv5otvg8q7",
      "name": "Cleave",
      "type": "feat",
      "img": "systems/pf1/icons/feats/cleave.jpg",
      "data": {
        "description": {
          "value": "\n                <i>You can strike two adjacent foes with a single swing.</i>\n                <br />\n                <br />\n                \n                <p><b>Prerequisites</b></p>\n                <p> Str 13, Power Attack, base attack bonus +1.</p>\n                \n            <br />\n                <p><b>Benefits</b></p>\n                <p><p class=\"stat-block-1\"> As a standard action, you can make a single attack at your full base attack bonus against a foe within reach. If you hit, you deal damage normally and can make an additional attack (using your full base attack bonus) against a foe that is adjacent to the first and also within reach. You can only make one additional attack per round with this feat. When you use this feat, you take a &ndash;2 penalty to your Armor Class until your next turn.</p></p>\n                \n            \n            "
        },
        "tags": [
          [
            "Combat"
          ],
          [
            "Offensive"
          ]
        ],
        "measureTemplate": {
          "size": "0"
        },
        "actionType": "",
        "damage": {
          "parts": [],
          "critParts": [],
          "nonCritParts": []
        },
        "attackParts": [],
        "effectNotes": [],
        "attackNotes": [],
        "changes": [],
        "contextNotes": [],
        "links": {
          "children": [],
          "charges": []
        },
        "tag": "cleave",
        "armorProf": {
          "value": []
        },
        "weaponProf": {
          "value": []
        },
        "flags": {
          "boolean": [],
          "dictionary": []
        },
        "scriptCalls": [],
        "associations": {
          "classes": []
        }
      },
      "effects": [],
      "folder": null,
      "sort": 0,
      "permission": {
        "default": 0
      },
      "flags": {}
    },
    {
      "_id": "dn2KgHFQRbuoNRx0",
      "name": "Improved Bull Rush",
      "type": "feat",
      "img": "systems/pf1/icons/feats/improved-bull-rush.jpg",
      "data": {
        "description": {
          "value": "\n                <i>You are skilled at pushing your foes around.</i>\n                <br />\n                <br />\n                \n                <p><b>Prerequisites</b></p>\n                <p> Str 13, Power Attack, base attack bonus +1.</p>\n                \n            <br />\n                <p><b>Benefits</b></p>\n                <p><p class=\"stat-block-1\"> You do not provoke an attack of opportunity when performing a bull rush combat maneuver. In addition, you receive a +2 bonus on checks made to bull rush a foe. You also receive a +2 bonus to your Combat Maneuver Defense whenever an opponent tries to bull rush you.</p></p>\n                \n            <br />\n                <p><b>Normal</b></p>\n                <p><p class=\"stat-block-1\"> You provoke an attack of opportunity when performing a bull rush combat maneuver.</p></p>\n                \n            \n            "
        },
        "tags": [
          [
            "Combat"
          ],
          [
            "Combat Maneuver"
          ],
          [
            "Offensive"
          ]
        ],
        "measureTemplate": {
          "size": "0"
        },
        "actionType": "",
        "damage": {
          "parts": [],
          "critParts": [],
          "nonCritParts": []
        },
        "attackParts": [],
        "effectNotes": [],
        "attackNotes": [],
        "changes": [],
        "contextNotes": [],
        "links": {
          "children": [],
          "charges": []
        },
        "tag": "improvedBullRush",
        "armorProf": {
          "value": []
        },
        "weaponProf": {
          "value": []
        },
        "flags": {
          "boolean": [],
          "dictionary": []
        },
        "scriptCalls": [],
        "associations": {
          "classes": []
        }
      },
      "effects": [],
      "folder": null,
      "sort": 0,
      "permission": {
        "default": 0
      },
      "flags": {}
    },
    {
      "_id": "Uuiu3p982omhMEPj",
      "name": "Improved Initiative",
      "type": "feat",
      "img": "systems/pf1/icons/feats/improved-initiative.jpg",
      "data": {
        "description": {
          "value": "\n                <i>Your quick reflexes allow you to react rapidly to danger.</i>\n                <br />\n                <br />\n                \n                <p><b>Benefits</b></p>\n                <p><p class=\"stat-block-1\"> You get a +4 bonus on initiative checks.</p></p>\n                \n            \n            "
        },
        "tags": [
          [
            "Combat"
          ]
        ],
        "measureTemplate": {
          "size": "0"
        },
        "actionType": "",
        "damage": {
          "parts": [],
          "critParts": [],
          "nonCritParts": []
        },
        "attackParts": [],
        "effectNotes": [],
        "attackNotes": [],
        "changes": [
          {
            "_id": "ign7okhi",
            "formula": "4",
            "operator": "add",
            "subTarget": "init",
            "modifier": "untyped",
            "priority": 0,
            "value": 0,
            "target": "misc"
          }
        ],
        "contextNotes": [],
        "links": {
          "children": [],
          "charges": []
        },
        "tag": "improvedInitiative",
        "armorProf": {
          "value": []
        },
        "weaponProf": {
          "value": []
        },
        "flags": {
          "boolean": [],
          "dictionary": []
        },
        "scriptCalls": [],
        "associations": {
          "classes": []
        }
      },
      "effects": [],
      "folder": null,
      "sort": 0,
      "permission": {
        "default": 0
      },
      "flags": {}
    },
    {
      "_id": "FUW5mIXHNBBIQ1Sq",
      "name": "Power Attack",
      "type": "feat",
      "img": "systems/pf1/icons/feats/power-attack.jpg",
      "data": {
        "description": {
          "value": "\n                <i>You can make exceptionally deadly melee attacks by sacrificing accuracy for strength.</i>\n                <br />\n                <br />\n                \n                <p><b>Prerequisites</b></p>\n                <p> Str 13, base attack bonus +1.</p>\n                \n            <br />\n                <p><b>Benefits</b></p>\n                <p><p class=\"stat-block-1\"> You can choose to take a &ndash;1 penalty on all melee attack rolls and combat maneuver checks to gain a +2 bonus on all melee damage rolls. This bonus to damage is increased by half (+50%) if you are making an attack with a two-handed weapon, a one handed weapon using two hands, or a primary natural weapon that adds 1-1/2 times your Strength modifier on damage rolls. This bonus to damage is halved (&ndash;50%) if you are making an attack with an off-hand weapon or secondary natural weapon. When your base attack bonus reaches +4, and every 4 points thereafter, the penalty increases by &ndash;1 and the bonus to damage increases by +2. You must choose to use this feat before making an attack roll, and its effects last until your next turn. The bonus damage does not apply to touch attacks or effects that do not deal hit point damage.</p></p>\n                \n            \n            "
        },
        "tags": [
          [
            "Combat"
          ],
          [
            "Offensive"
          ]
        ],
        "measureTemplate": {
          "size": "0"
        },
        "actionType": "",
        "damage": {
          "parts": [],
          "critParts": [],
          "nonCritParts": []
        },
        "attackParts": [],
        "effectNotes": [],
        "attackNotes": [],
        "changes": [],
        "contextNotes": [],
        "links": {
          "children": [],
          "charges": []
        },
        "tag": "powerAttack",
        "armorProf": {
          "value": []
        },
        "weaponProf": {
          "value": []
        },
        "flags": {
          "boolean": [],
          "dictionary": []
        },
        "scriptCalls": [],
        "associations": {
          "classes": []
        }
      },
      "effects": [],
      "folder": null,
      "sort": 0,
      "permission": {
        "default": 0
      },
      "flags": {}
    },
    {
      "_id": "lui1kn5xk582mxrb",
      "name": "Special Quality: Earth Glide",
      "type": "feat",
      "img": "systems/pf1/icons/skills/yellow_36.jpg",
      "data": {
        "description": {
          "value": "sbc | Placeholder for Special Qualities, which in most statblocks are listed under SQ in the statistics block, but described in the Special Abilities. Remove duplicates as needed!"
        },
        "tags": [],
        "damage": {
          "parts": [],
          "critParts": [],
          "nonCritParts": []
        },
        "attackParts": [],
        "effectNotes": [],
        "attackNotes": [],
        "changes": [],
        "contextNotes": [],
        "links": {
          "children": [],
          "charges": []
        },
        "armorProf": {
          "value": []
        },
        "weaponProf": {
          "value": []
        },
        "flags": {
          "boolean": [],
          "dictionary": []
        },
        "scriptCalls": [],
        "featType": "misc",
        "associations": {
          "classes": []
        }
      },
      "effects": [],
      "folder": null,
      "sort": 0,
      "permission": {
        "default": 0
      },
      "flags": {}
    },
    {
      "_id": "apmh8dgq9d8duqqo",
      "name": "Slams",
      "type": "attack",
      "img": "systems/pf1/icons/items/inventory/monster-forearm.jpg",
      "data": {
        "tags": [],
        "activation": {
          "type": "attack"
        },
        "unchainedAction": {
          "activation": {
            "type": "attack"
          }
        },
        "duration": {
          "units": "inst"
        },
        "range": {
          "value": "",
          "units": "melee"
        },
        "attackName": "Slams",
        "actionType": "mwak",
        "attackBonus": "0",
        "damage": {
          "parts": [
            [
              "1d8+0",
              "B"
            ]
          ],
          "critParts": [],
          "nonCritParts": []
        },
        "attackParts": [
          [
            "0",
            "Slams: 1"
          ]
        ],
        "ability": {
          "attack": "str",
          "damage": "str"
        },
        "effectNotes": [
          "burn"
        ],
        "attackNotes": [
          "2 slams +11 (1d8+4 plus burn)"
        ],
        "links": {
          "children": [],
          "charges": [],
          "ammunition": []
        },
        "flags": {
          "boolean": [],
          "dictionary": []
        },
        "scriptCalls": [],
        "attackType": "natural",
        "conditionals": []
      },
      "effects": [],
      "folder": null,
      "sort": 0,
      "permission": {
        "default": 0
      },
      "flags": {}
    },
    {
      "_id": "wkxb96zrnyhjye9w",
      "name": "Special Attack: Lava Puddle",
      "type": "attack",
      "img": "systems/pf1/icons/skills/yellow_36.jpg",
      "data": {
        "description": {
          "value": "sbc | Placeholder for Special Attacks, which in most statblocks are listed under 'Special Attacks' in the statistics block, but are described in the 'Special Abilities' block. Remove duplicates as needed!"
        },
        "tags": [],
        "damage": {
          "parts": [],
          "critParts": [],
          "nonCritParts": []
        },
        "attackParts": [],
        "effectNotes": [],
        "attackNotes": [],
        "links": {
          "children": [],
          "charges": [],
          "ammunition": []
        },
        "flags": {
          "boolean": [],
          "dictionary": []
        },
        "scriptCalls": [],
        "attackType": "misc",
        "conditionals": []
      },
      "effects": [],
      "folder": null,
      "sort": 0,
      "permission": {
        "default": 0
      },
      "flags": {}
    },
    {
      "_id": "kqs2dtuzvkcuxcly",
      "name": "Special Attack: Burn (1d6, Dc 14)",
      "type": "attack",
      "img": "systems/pf1/icons/skills/yellow_36.jpg",
      "data": {
        "description": {
          "value": "sbc | Placeholder for Special Attacks, which in most statblocks are listed under 'Special Attacks' in the statistics block, but are described in the 'Special Abilities' block. Remove duplicates as needed!"
        },
        "tags": [],
        "damage": {
          "parts": [],
          "critParts": [],
          "nonCritParts": []
        },
        "attackParts": [],
        "effectNotes": [],
        "attackNotes": [],
        "links": {
          "children": [],
          "charges": [],
          "ammunition": []
        },
        "flags": {
          "boolean": [],
          "dictionary": []
        },
        "scriptCalls": [],
        "attackType": "misc",
        "conditionals": []
      },
      "effects": [],
      "folder": null,
      "sort": 0,
      "permission": {
        "default": 0
      },
      "flags": {}
    },
    {
      "_id": "nmwqrv508aag8st8",
      "name": "Ecology",
      "type": "feat",
      "img": "icons/environment/wilderness/tree-oak.webp",
      "data": {
        "description": {
          "value": "<div><strong>Environment</strong>:  any (Plane of Fire)</div><div><strong>Organization</strong>:  solitary, pair, or gang (3-8)</div><div><strong>Treasure</strong>:  none</div>"
        },
        "tags": [],
        "damage": {
          "parts": [],
          "critParts": [],
          "nonCritParts": []
        },
        "attackParts": [],
        "effectNotes": [],
        "attackNotes": [],
        "changes": [],
        "contextNotes": [],
        "links": {
          "children": [],
          "charges": []
        },
        "armorProf": {
          "value": []
        },
        "weaponProf": {
          "value": []
        },
        "flags": {
          "boolean": [],
          "dictionary": []
        },
        "scriptCalls": [],
        "featType": "misc",
        "associations": {
          "classes": []
        }
      },
      "effects": [],
      "folder": null,
      "sort": 0,
      "permission": {
        "default": 0
      },
      "flags": {}
    },
    {
      "_id": "m6bo5zkHGX5S0Klx",
      "name": "sbc | Conversion Buff",
      "type": "buff",
      "img": "systems/pf1/icons/skills/yellow_36.jpg",
      "data": {
        "description": {
          "value": "<h2>sbc | Conversion Buff</h2>\n                        This Buff was created by <strong>sbc</strong> to compensate for differences between the input and the values FoundryVTT calculates automatically.\n                        <br><br>\n                        Especially when the pathfinder system gets upgraded, entries in compendiums get updated or foundry changes in some way, this buff may become outdated.\n                        <br><br>\n                        For most mooks the conversion should more or less work, but for important NPCs or creatures it is adviced to double check the conversion manually."
        },
        "tags": [],
        "changes": [
          {
            "formula": "-10",
            "modifier": "untypedPerm",
            "operator": "add",
            "priority": 0,
            "subTarget": "mhp",
            "target": "misc",
            "value": -10,
            "id": "ixa5uc4u"
          },
          {
            "formula": "4",
            "modifier": "untypedPerm",
            "operator": "add",
            "priority": 0,
            "subTarget": "fort",
            "target": "savingThrows",
            "value": 4,
            "id": "pnh29vep"
          },
          {
            "formula": "-4",
            "modifier": "untypedPerm",
            "operator": "add",
            "priority": 0,
            "subTarget": "will",
            "target": "savingThrows",
            "value": -4,
            "id": "m0p3n523"
          }
        ],
        "contextNotes": [],
        "links": {
          "children": []
        },
        "tag": "sbcConversionBuff",
        "useCustomTag": true,
        "flags": {
          "boolean": [],
          "dictionary": []
        },
        "scriptCalls": [],
        "buffType": "perm",
        "active": true,
        "hideFromToken": true
      },
      "effects": [],
      "folder": null,
      "sort": 0,
      "permission": {
        "default": 0,
        "iM1ACTqH0Ml6HJtd": 3
      },
      "flags": {}
    }
  ],
  "effects": [],
  "folder": null,
  "sort": 0,
  "permission": {
    "default": 0
  },
  "flags": {}
}