{
  "_id": "PHwrconPrI4S9U3K",
  "name": "Feargaunt",
  "type": "npc",
  "img": "systems/pf1/icons/skills/yellow_40.jpg",
  "data": {
    "abilities": {
      "str": {
        "value": 0
      },
      "dex": {
        "value": 21
      },
      "con": {
        "value": 17
      },
      "int": {
        "value": 12
      },
      "wis": {
        "value": 16
      },
      "cha": {
        "value": 19
      }
    },
    "attributes": {
      "hp": {
        "value": 112
      },
      "speed": {
        "land": {
          "base": 40
        },
        "fly": {
          "base": 40,
          "maneuverability": "perfect"
        }
      },
      "spells": {
        "usedSpellbooks": [
          "spelllike"
        ],
        "spellbooks": {
          "spelllike": {
            "altName": "Spell-like Abilities",
            "concentrationNotes": "sbc | Total in statblock was +16, adjust as needed.",
            "clNotes": "sbc | Total in statblock was CL 12, adjust as needed.",
            "autoSpellLevelCalculation": false,
            "autoSpellLevels": false,
            "arcaneSpellFailure": false,
            "domainSlotValue": 0
          }
        }
      }
    },
    "details": {
      "alignment": "ce",
      "cr": {
        "base": 9
      }
    },
    "skills": {
      "blf": {
        "rank": 12
      },
      "fly": {
        "rank": 23
      },
      "int": {
        "rank": 15
      },
      "kpl": {
        "rank": 12
      },
      "per": {
        "rank": 12
      },
      "sen": {
        "rank": 12
      },
      "ste": {
        "rank": 18
      }
    },
    "traits": {
      "size": "lg",
      "senses": "darkvision 60 ft.; Perception +18",
      "languages": {
        "value": [
          null
        ],
        "custom": "telepathy 100 ft."
      },
      "di": {
        "value": []
      },
      "dv": {
        "value": []
      },
      "ci": {
        "value": []
      },
      "stature": ""
    }
  },
  "token": {
    "name": "Feargaunt",
    "displayName": 20,
    "actorLink": false,
    "width": 2,
    "height": 2,
    "scale": 1,
    "mirrorX": false,
    "mirrorY": false,
    "lockRotation": false,
    "rotation": 0,
    "alpha": 1,
    "vision": false,
    "dimSight": 0,
    "brightSight": "60",
    "dimLight": 0,
    "brightLight": 0,
    "sightAngle": 0,
    "lightAngle": 0,
    "lightAlpha": 0.25,
    "lightAnimation": {
      "speed": 5,
      "intensity": 5
    },
    "disposition": -1,
    "displayBars": 20,
    "bar1": {
      "attribute": null
    },
    "bar2": {
      "attribute": null
    },
    "flags": {},
    "randomImg": false,
    "img": "systems/pf1/icons/skills/yellow_40.jpg"
  },
  "items": [
    {
      "_id": "cV7yHt8i5YCV0ZTd",
      "name": "Outsider (Extraplanar, Incorporeal)",
      "type": "class",
      "img": "systems/pf1/icons/skills/yellow_40.jpg",
      "data": {
        "description": {
          "value": "<p>An outsider is at least partially composed of the essence (but not necessarily the material) of some plane other than the Material Plane. Some creatures start out as some other type and become outsiders when they attain a higher (or lower) state of spiritual existence.</p>\n<h2><span id=\"Features\">Features</span></h2>\n<p>An outsider has the following features.</p>\n<ul>\n<li>d10 Hit Dice.</li>\n<li>Base attack bonus equal to total Hit Dice (fast progression).</li>\n<li>Two good saving throws, usually&nbsp;<a href=\"https://www.d20pfsrd.com/gamemastering/combat#TOC-Reflex\" rel=\"nofollow\">Reflex</a>&nbsp;and Will.</li>\n<li>Skill points equal to 6 + Int modifier (minimum 1) per Hit Die. The following are class skills for outsiders: <a href=\"https://www.d20pfsrd.com/skills/bluff\" rel=\"nofollow\">Bluff</a>, <a href=\"https://www.d20pfsrd.com/skills/craft\" rel=\"nofollow\">Craft</a>, <a href=\"https://www.d20pfsrd.com/skills/knowledge\" rel=\"nofollow\">Knowledge</a>&nbsp;(planes), <a href=\"https://www.d20pfsrd.com/skills/perception\" rel=\"nofollow\">Perception</a>, <a href=\"https://www.d20pfsrd.com/skills/sense-motive\" rel=\"nofollow\">Sense Motive</a>, and <a href=\"https://www.d20pfsrd.com/skills/stealth\" rel=\"nofollow\">Stealth</a>. Due to their varied nature, outsiders also receive 4 additional class skills determined by the creature’s theme.</li>\n</ul>\n<h2><span id=\"Traits\">Traits</span></h2>\n<p>An outsider possesses the following traits (unless otherwise noted in a creature’s entry).</p>\n<ul>\n<li>Darkvision 60 feet.</li>\n<li>Unlike most living creatures, an outsider does not have a dual nature—its soul and body form one unit. When an outsider is slain, no soul is set loose. Spells that restore souls to their bodies, such as&nbsp;<a href=\"https://www.d20pfsrd.com/magic/all-spells/r/raise-dead\" rel=\"nofollow\">raise dead</a>,&nbsp;<a href=\"https://www.d20pfsrd.com/magic/all-spells/r/reincarnate\" rel=\"nofollow\">reincarnate</a>,&nbsp;and&nbsp;<a href=\"https://www.d20pfsrd.com/magic/all-spells/r/resurrection\" rel=\"nofollow\">resurrection</a>,&nbsp;don’t work on an outsider. It takes a different magical effect, such as&nbsp;<a href=\"https://www.d20pfsrd.com/magic/all-spells/l/limited-wish\" rel=\"nofollow\">limited wish</a>,&nbsp;<a href=\"https://www.d20pfsrd.com/magic/all-spells/w/wish\" rel=\"nofollow\">wish</a>,&nbsp;<a href=\"https://www.d20pfsrd.com/magic/all-spells/m/miracle\" rel=\"nofollow\">miracle</a>,&nbsp;or&nbsp;<a href=\"https://www.d20pfsrd.com/magic/all-spells/t/true-resurrection\" rel=\"nofollow\">true resurrection</a>&nbsp;to restore it to life. An outsider with the native subtype can be raised, reincarnated, or resurrected just as other living creatures can be.</li>\n<li>Proficient with all simple and martial weapons and any weapons mentioned in its entry.</li>\n<li>Proficient with whatever type of armor (light, medium, or heavy) it is described as wearing, as well as all lighter types. Outsiders not indicated as wearing armor are not proficient with armor. Outsiders are proficient with shields if they are proficient with any form of armor.</li>\n<li>Outsiders breathe, but do not need to eat or sleep (although they can do so if they wish). Native outsiders breathe, eat, and sleep.</li>\n</ul>"
        },
        "tags": [],
        "changes": [],
        "links": "",
        "tag": "outsider",
        "useCustomTag": true,
        "armorProf": {
          "value": []
        },
        "weaponProf": {
          "value": []
        },
        "flags": {
          "boolean": [],
          "dictionary": []
        },
        "scriptCalls": [],
        "classType": "racial",
        "level": 12,
        "hd": 10,
        "hp": 76,
        "bab": "high",
        "skillsPerLevel": 6,
        "savingThrows": {
          "ref": {
            "value": "high"
          },
          "will": {
            "value": "high"
          }
        },
        "classSkills": {
          "acr": false,
          "apr": false,
          "art": false,
          "blf": true,
          "clm": false,
          "crf": true,
          "dip": false,
          "dev": false,
          "dis": false,
          "esc": false,
          "fly": false,
          "han": false,
          "hea": false,
          "int": false,
          "kar": false,
          "kdu": false,
          "ken": false,
          "kge": false,
          "khi": false,
          "klo": false,
          "kna": false,
          "kno": false,
          "kpl": true,
          "kre": false,
          "lin": false,
          "lor": false,
          "per": true,
          "prf": false,
          "pro": false,
          "rid": false,
          "sen": true,
          "slt": false,
          "spl": false,
          "ste": true,
          "sur": false,
          "swm": false,
          "umd": false
        }
      },
      "effects": [],
      "folder": null,
      "sort": 0,
      "permission": {
        "default": 0
      },
      "flags": {}
    },
    {
      "_id": "fv4ejs0lzn8ta742",
      "name": "Race: Outsider",
      "type": "race",
      "img": "systems/pf1/icons/skills/yellow_40.jpg",
      "data": {
        "description": {
          "value": "sbc | As no playable race was found a placeholder was generated."
        },
        "tags": [],
        "changes": [],
        "contextNotes": [],
        "links": {
          "children": []
        },
        "armorProf": {
          "value": []
        },
        "weaponProf": {
          "value": []
        },
        "flags": {
          "boolean": [],
          "dictionary": []
        },
        "scriptCalls": [],
        "creatureType": "outsider",
        "subTypes": [
          [
            "extraplanar"
          ],
          [
            "incorporeal"
          ]
        ]
      },
      "effects": [],
      "folder": null,
      "sort": 0,
      "permission": {
        "default": 0
      },
      "flags": {}
    },
    {
      "_id": "oc9k2moyzlhath8j",
      "name": "Sense: Darkvision 60ft.",
      "type": "feat",
      "img": "systems/pf1/icons/skills/shadow_12.jpg",
      "data": {
        "description": {
          "value": "Darkvision is the extraordinary ability to see with no light source at all, out to a range specified for the creature. Darkvision is black-and-white only (colors cannot be discerned). It does not allow characters to see anything that they could not see otherwise—invisible objects are still invisible, and illusions are still visible as what they seem to be. Likewise, darkvision subjects a creature to gaze attacks normally. The presence of light does not spoil darkvision."
        },
        "tags": [],
        "damage": {
          "parts": [],
          "critParts": [],
          "nonCritParts": []
        },
        "attackParts": [],
        "effectNotes": [],
        "attackNotes": [],
        "changes": [],
        "contextNotes": [],
        "links": {
          "children": [],
          "charges": []
        },
        "tag": "senseDarkvision60ft",
        "armorProf": {
          "value": []
        },
        "weaponProf": {
          "value": []
        },
        "flags": {
          "boolean": [],
          "dictionary": []
        },
        "scriptCalls": [],
        "featType": "racial",
        "associations": {
          "classes": []
        },
        "abilityType": "ex"
      },
      "effects": [],
      "folder": null,
      "sort": 0,
      "permission": {
        "default": 0
      },
      "flags": {}
    },
    {
      "_id": "k26xjb45qphpyx83",
      "name": "Aura: Nightmare",
      "type": "feat",
      "img": "systems/pf1/icons/spells/runes-blue-3.jpg",
      "data": {
        "tags": [],
        "activation": {
          "cost": null,
          "type": "passive"
        },
        "unchainedAction": {
          "activation": {
            "cost": null,
            "type": "passive"
          }
        },
        "duration": {
          "units": "perm"
        },
        "target": {
          "value": "centered on self"
        },
        "range": {
          "value": "60",
          "units": "ft"
        },
        "measureTemplate": {
          "type": "circle",
          "size": "60"
        },
        "actionType": "save",
        "damage": {
          "parts": [],
          "critParts": [],
          "nonCritParts": []
        },
        "attackParts": [],
        "save": {
          "dc": "20"
        },
        "effectNotes": [],
        "attackNotes": [],
        "changes": [],
        "contextNotes": [],
        "links": {
          "children": [],
          "charges": []
        },
        "tag": "auraNightmare",
        "armorProf": {
          "value": []
        },
        "weaponProf": {
          "value": []
        },
        "flags": {
          "boolean": [],
          "dictionary": []
        },
        "scriptCalls": [],
        "featType": "racial",
        "associations": {
          "classes": []
        }
      },
      "effects": [],
      "folder": null,
      "sort": 0,
      "permission": {
        "default": 0
      },
      "flags": {}
    },
    {
      "_id": "pmAO1Sni8xx71pLF",
      "name": "Blind-Fight",
      "type": "feat",
      "img": "systems/pf1/icons/feats/blind-fight.jpg",
      "data": {
        "description": {
          "value": "\n                <i>You are skilled at attacking opponents that you cannot clearly perceive.</i>\n                <br />\n                <br />\n                \n                <p><b>Benefits</b></p>\n                <p><p class=\"stat-block-1\"> In melee, every time you miss because of concealment (see Combat), you can reroll your miss chance percentile roll one time to see if you actually hit.</p><p class=\"stat-block-2\">An invisible attacker gets no advantages related to hitting you in melee. That is, you don't lose your Dexterity bonus to Armor Class, and the attacker doesn't get the usual +2 bonus for being invisible. The invisible attacker's bonuses do still apply for ranged attacks, however.</p><p class=\"stat-block-2\">You do not need to make Acrobatics skill checks to move at full speed while blinded.</p></p>\n                \n            <br />\n                <p><b>Normal</b></p>\n                <p><p class=\"stat-block-1\"> Regular attack roll modifiers for invisible attackers trying to hit you apply, and you lose your Dexterity bonus to AC. The speed reduction for darkness and poor visibility also applies.</p></p>\n                \n            <br />\n                <p><b>Special</b></p>\n                <p><p class=\"stat-block-1\"> The Blind-Fight feat is of no use against a character who is the subject of a <i>blink</i> spell.</p></p>\n                \n            \n            "
        },
        "tags": [
          [
            "Combat"
          ],
          [
            "Offensive"
          ],
          [
            "Defensive"
          ]
        ],
        "measureTemplate": {
          "size": "0"
        },
        "actionType": "",
        "damage": {
          "parts": [],
          "critParts": [],
          "nonCritParts": []
        },
        "attackParts": [],
        "effectNotes": [],
        "attackNotes": [],
        "changes": [],
        "contextNotes": [],
        "links": {
          "children": [],
          "charges": []
        },
        "tag": "blindfight",
        "armorProf": {
          "value": []
        },
        "weaponProf": {
          "value": []
        },
        "flags": {
          "boolean": [],
          "dictionary": []
        },
        "scriptCalls": [],
        "associations": {
          "classes": []
        }
      },
      "effects": [],
      "folder": null,
      "sort": 0,
      "permission": {
        "default": 0
      },
      "flags": {}
    },
    {
      "_id": "JreaiTHdyWFNj3Tb",
      "name": "Dodge",
      "type": "feat",
      "img": "systems/pf1/icons/feats/dodge.jpg",
      "data": {
        "description": {
          "value": "\n                <i>Your training and reflexes allow you to react swiftly to avoid an opponents' attacks.</i>\n                <br />\n                <br />\n                \n                <p><b>Prerequisites</b></p>\n                <p> Dex 13.</p>\n                \n            <br />\n                <p><b>Benefits</b></p>\n                <p><p class=\"stat-block-1\"> You gain a +1 dodge bonus to your AC. A condition that makes you lose your Dex bonus to AC also makes you lose the benefits of this feat.</p></p>\n                \n            \n            "
        },
        "tags": [
          [
            "Combat"
          ],
          [
            "Defensive"
          ]
        ],
        "measureTemplate": {
          "size": "0"
        },
        "actionType": "",
        "damage": {
          "parts": [],
          "critParts": [],
          "nonCritParts": []
        },
        "attackParts": [],
        "effectNotes": [],
        "attackNotes": [],
        "changes": [
          {
            "_id": "9onhsept",
            "formula": "1",
            "operator": "add",
            "subTarget": "ac",
            "modifier": "dodge",
            "priority": 0,
            "value": 0,
            "target": "ac"
          }
        ],
        "contextNotes": [],
        "links": {
          "children": [],
          "charges": []
        },
        "tag": "dodge",
        "armorProf": {
          "value": []
        },
        "weaponProf": {
          "value": []
        },
        "flags": {
          "boolean": [],
          "dictionary": []
        },
        "scriptCalls": [],
        "associations": {
          "classes": []
        }
      },
      "effects": [],
      "folder": null,
      "sort": 0,
      "permission": {
        "default": 0
      },
      "flags": {}
    },
    {
      "_id": "q20z7ooczznilxj4",
      "name": "Flyby Attack",
      "type": "feat",
      "img": "systems/pf1/icons/skills/yellow_36.jpg",
      "data": {
        "description": {
          "value": "sbc | As Flyby Attack could not be found in any compendium, a placeholder was generated."
        },
        "tags": [],
        "damage": {
          "parts": [],
          "critParts": [],
          "nonCritParts": []
        },
        "attackParts": [],
        "effectNotes": [],
        "attackNotes": [],
        "changes": [],
        "contextNotes": [],
        "links": {
          "children": [],
          "charges": []
        },
        "armorProf": {
          "value": []
        },
        "weaponProf": {
          "value": []
        },
        "flags": {
          "boolean": [],
          "dictionary": []
        },
        "scriptCalls": [],
        "associations": {
          "classes": []
        }
      },
      "effects": [],
      "folder": null,
      "sort": 0,
      "permission": {
        "default": 0
      },
      "flags": {}
    },
    {
      "_id": "Uuiu3p982omhMEPj",
      "name": "Improved Initiative",
      "type": "feat",
      "img": "systems/pf1/icons/feats/improved-initiative.jpg",
      "data": {
        "description": {
          "value": "\n                <i>Your quick reflexes allow you to react rapidly to danger.</i>\n                <br />\n                <br />\n                \n                <p><b>Benefits</b></p>\n                <p><p class=\"stat-block-1\"> You get a +4 bonus on initiative checks.</p></p>\n                \n            \n            "
        },
        "tags": [
          [
            "Combat"
          ]
        ],
        "measureTemplate": {
          "size": "0"
        },
        "actionType": "",
        "damage": {
          "parts": [],
          "critParts": [],
          "nonCritParts": []
        },
        "attackParts": [],
        "effectNotes": [],
        "attackNotes": [],
        "changes": [
          {
            "_id": "ign7okhi",
            "formula": "4",
            "operator": "add",
            "subTarget": "init",
            "modifier": "untyped",
            "priority": 0,
            "value": 0,
            "target": "misc"
          }
        ],
        "contextNotes": [],
        "links": {
          "children": [],
          "charges": []
        },
        "tag": "improvedInitiative",
        "armorProf": {
          "value": []
        },
        "weaponProf": {
          "value": []
        },
        "flags": {
          "boolean": [],
          "dictionary": []
        },
        "scriptCalls": [],
        "associations": {
          "classes": []
        }
      },
      "effects": [],
      "folder": null,
      "sort": 0,
      "permission": {
        "default": 0
      },
      "flags": {}
    },
    {
      "_id": "xq2TFr7bsYBBHOi5",
      "name": "Lunge",
      "type": "feat",
      "img": "systems/pf1/icons/feats/lunge.jpg",
      "data": {
        "description": {
          "value": "\n                <i>You can strike foes that would normally be out of reach.</i>\n                <br />\n                <br />\n                \n                <p><b>Prerequisites</b></p>\n                <p> Base attack bonus +6.</p>\n                \n            <br />\n                <p><b>Benefits</b></p>\n                <p><p class=\"stat-block-1\"> You can increase the reach of your melee attacks by 5 feet until the end of your turn by taking a &ndash;2 penalty to your AC until your next turn. You must decide to use this ability before any attacks are made.</p></p>\n                \n            \n            "
        },
        "tags": [
          [
            "Combat"
          ],
          [
            "Offensive"
          ]
        ],
        "measureTemplate": {
          "size": "0"
        },
        "actionType": "",
        "damage": {
          "parts": [],
          "critParts": [],
          "nonCritParts": []
        },
        "attackParts": [],
        "effectNotes": [],
        "attackNotes": [],
        "changes": [],
        "contextNotes": [],
        "links": {
          "children": [],
          "charges": []
        },
        "tag": "lunge",
        "armorProf": {
          "value": []
        },
        "weaponProf": {
          "value": []
        },
        "flags": {
          "boolean": [],
          "dictionary": []
        },
        "scriptCalls": [],
        "associations": {
          "classes": []
        }
      },
      "effects": [],
      "folder": null,
      "sort": 0,
      "permission": {
        "default": 0
      },
      "flags": {}
    },
    {
      "_id": "7zJTztNW7hdaqjKc",
      "name": "Skill Focus",
      "type": "feat",
      "img": "systems/pf1/icons/feats/skill-focus.jpg",
      "data": {
        "description": {
          "value": "\n                <i>Choose a skill. You are particularly adept at that skill.</i>\n                <br />\n                <br />\n                \n                <p><b>Benefits</b></p>\n                <p><p class=\"stat-block-1\"> You get a +3 bonus on all checks involving the chosen skill. If you have 10 or more ranks in that skill, this bonus increases to +6.</p></p>\n                \n            <br />\n                <p><b>Special</b></p>\n                <p><p class=\"stat-block-1\"> You can gain this feat multiple times. Its effects do not stack. Each time you take the feat, it applies to a new skill.</p></p>\n                \n            \n            "
        },
        "tags": [
          [
            "General"
          ],
          [
            "Skill"
          ]
        ],
        "measureTemplate": {
          "size": "0"
        },
        "actionType": "",
        "damage": {
          "parts": [],
          "critParts": [],
          "nonCritParts": []
        },
        "attackParts": [],
        "effectNotes": [],
        "attackNotes": [],
        "changes": [],
        "contextNotes": [],
        "links": {
          "children": [],
          "charges": []
        },
        "tag": "skillFocus",
        "armorProf": {
          "value": []
        },
        "weaponProf": {
          "value": []
        },
        "flags": {
          "boolean": [],
          "dictionary": []
        },
        "scriptCalls": [],
        "associations": {
          "classes": []
        }
      },
      "effects": [],
      "folder": null,
      "sort": 0,
      "permission": {
        "default": 0
      },
      "flags": {}
    },
    {
      "_id": "13v9ws8kxi8wborn",
      "name": "Special Quality: Never Far Behind",
      "type": "feat",
      "img": "systems/pf1/icons/skills/yellow_36.jpg",
      "data": {
        "description": {
          "value": "sbc | Placeholder for Special Qualities, which in most statblocks are listed under SQ in the statistics block, but described in the Special Abilities. Remove duplicates as needed!"
        },
        "tags": [],
        "damage": {
          "parts": [],
          "critParts": [],
          "nonCritParts": []
        },
        "attackParts": [],
        "effectNotes": [],
        "attackNotes": [],
        "changes": [],
        "contextNotes": [],
        "links": {
          "children": [],
          "charges": []
        },
        "armorProf": {
          "value": []
        },
        "weaponProf": {
          "value": []
        },
        "flags": {
          "boolean": [],
          "dictionary": []
        },
        "scriptCalls": [],
        "featType": "misc",
        "associations": {
          "classes": []
        }
      },
      "effects": [],
      "folder": null,
      "sort": 0,
      "permission": {
        "default": 0
      },
      "flags": {}
    },
    {
      "_id": "gbw3nl8tpla3fb4c",
      "name": "Special Quality: Prideful Defense",
      "type": "feat",
      "img": "systems/pf1/icons/skills/yellow_36.jpg",
      "data": {
        "description": {
          "value": "sbc | Placeholder for Special Qualities, which in most statblocks are listed under SQ in the statistics block, but described in the Special Abilities. Remove duplicates as needed!"
        },
        "tags": [],
        "damage": {
          "parts": [],
          "critParts": [],
          "nonCritParts": []
        },
        "attackParts": [],
        "effectNotes": [],
        "attackNotes": [],
        "changes": [],
        "contextNotes": [],
        "links": {
          "children": [],
          "charges": []
        },
        "armorProf": {
          "value": []
        },
        "weaponProf": {
          "value": []
        },
        "flags": {
          "boolean": [],
          "dictionary": []
        },
        "scriptCalls": [],
        "featType": "misc",
        "associations": {
          "classes": []
        }
      },
      "effects": [],
      "folder": null,
      "sort": 0,
      "permission": {
        "default": 0
      },
      "flags": {}
    },
    {
      "_id": "4r2lx75l2mnk5ui4",
      "name": "Incorporeal",
      "type": "feat",
      "img": "systems/pf1/icons/skills/yellow_36.jpg",
      "data": {
        "description": {
          "value": "sbc | Placeholder"
        },
        "tags": [],
        "damage": {
          "parts": [],
          "critParts": [],
          "nonCritParts": []
        },
        "attackParts": [],
        "effectNotes": [],
        "attackNotes": [],
        "changes": [],
        "contextNotes": [],
        "links": {
          "children": [],
          "charges": []
        },
        "armorProf": {
          "value": []
        },
        "weaponProf": {
          "value": []
        },
        "flags": {
          "boolean": [],
          "dictionary": []
        },
        "scriptCalls": [],
        "featType": "classFeat",
        "associations": {
          "classes": []
        },
        "abilityType": ""
      },
      "effects": [],
      "folder": null,
      "sort": 0,
      "permission": {
        "default": 0
      },
      "flags": {}
    },
    {
      "_id": "k051oajvvok3kqcs",
      "name": "Tormenting Touch",
      "type": "attack",
      "img": null,
      "data": {
        "tags": [],
        "activation": {
          "type": "attack"
        },
        "unchainedAction": {
          "activation": {
            "type": "attack"
          }
        },
        "duration": {
          "units": "inst"
        },
        "range": {
          "value": ""
        },
        "attackName": "Tormenting Touch",
        "actionType": "mwak",
        "attackBonus": "5",
        "damage": {
          "parts": [
            [
              "6d6+0",
              ""
            ]
          ],
          "critParts": [],
          "nonCritParts": []
        },
        "attackParts": [],
        "ability": {
          "attack": "",
          "damage": ""
        },
        "effectNotes": [],
        "attackNotes": [
          "tormenting touch +16 (6d6 )"
        ],
        "links": {
          "children": [],
          "charges": [],
          "ammunition": []
        },
        "flags": {
          "boolean": [],
          "dictionary": []
        },
        "scriptCalls": [],
        "primaryAttack": false,
        "conditionals": []
      },
      "effects": [],
      "folder": null,
      "sort": 0,
      "permission": {
        "default": 0
      },
      "flags": {}
    },
    {
      "_id": "fyda5fydqk4veg05",
      "name": "Special Attack: Tormenting Touch",
      "type": "attack",
      "img": "systems/pf1/icons/skills/yellow_36.jpg",
      "data": {
        "description": {
          "value": "sbc | Placeholder for Special Attacks, which in most statblocks are listed under 'Special Attacks' in the statistics block, but are described in the 'Special Abilities' block. Remove duplicates as needed!"
        },
        "tags": [],
        "damage": {
          "parts": [],
          "critParts": [],
          "nonCritParts": []
        },
        "attackParts": [],
        "effectNotes": [],
        "attackNotes": [],
        "links": {
          "children": [],
          "charges": [],
          "ammunition": []
        },
        "flags": {
          "boolean": [],
          "dictionary": []
        },
        "scriptCalls": [],
        "attackType": "misc",
        "conditionals": []
      },
      "effects": [],
      "folder": null,
      "sort": 0,
      "permission": {
        "default": 0
      },
      "flags": {}
    },
    {
      "_id": "be88e90guqbi1q1z",
      "name": "Fear",
      "type": "spell",
      "img": "systems/pf1/icons/misc/magic-swirl.png",
      "data": {
        "description": {
          "value": "<div class=\"spell-description\">\n  <p>\n    <strong>School</strong>&nbsp;necromancy&nbsp;[fear, mind-affecting, emotion];\n    <strong>Level</strong>&nbsp;antipaladin 4, bard 3, bloodrager 4, inquisitor 4, medium 4, mesmerist 3, occultist 4, psychic 4, shaman 4, sorcerer/wizard 4, spiritualist 4, witch 4;\n    \n    <strong>Subdomain</strong>&nbsp;Fear 4;\n    \n    <strong>Bloodline</strong>&nbsp;Draconic 4, Ghoul 4;\n  </p>\n  <p>\n    <strong>Casting Time</strong>&nbsp;1 standard action<br>\n    <strong>Components</strong>&nbsp;V, S, M (the heart of a hen or a white feather)<br>\n  </p>\n  <p>\n    <strong>Range</strong>&nbsp;30 feet<br>\n    <strong>Area</strong>&nbsp;cone-shaped burst<br>\n    \n    \n    <strong>Duration</strong>&nbsp;1 round/level or 1 round; see text<br>\n    <strong>Saving Throw</strong>&nbsp;Will partial;&nbsp;<strong>Spell Resistance</strong>&nbsp;yes<br>\n  </p>\n  <h2>Description</h2>\n  <p>An invisible cone of terror causes each living creature in the area to become panicked unless it succeeds on a Will save. If cornered, a panicked creature begins cowering. If the Will save succeeds, the creature is shaken for 1 round.</p>\n</div>\n"
        },
        "tags": [],
        "activation": {
          "type": "standard"
        },
        "unchainedAction": {
          "activation": {
            "cost": 2,
            "type": "action"
          }
        },
        "range": {
          "value": 30,
          "units": "ft"
        },
        "uses": {
          "value": 5,
          "per": "day"
        },
        "measureTemplate": {
          "size": "0"
        },
        "actionType": "spellsave",
        "damage": {
          "parts": [],
          "critParts": [],
          "nonCritParts": []
        },
        "attackParts": [],
        "ability": {
          "attack": "",
          "damage": ""
        },
        "save": {
          "dc": "0",
          "type": "will",
          "description": "Will partial"
        },
        "effectNotes": [],
        "attackNotes": [],
        "links": {
          "children": []
        },
        "flags": {
          "boolean": [],
          "dictionary": []
        },
        "scriptCalls": [],
        "learnedAt": {
          "class": [
            [
              "sorcerer/wizard",
              4
            ],
            [
              "bard",
              3
            ],
            [
              "witch",
              4
            ],
            [
              "inquisitor",
              4
            ],
            [
              "antipaladin",
              4
            ],
            [
              "bloodrager",
              4
            ],
            [
              "shaman",
              4
            ],
            [
              "psychic",
              4
            ],
            [
              "medium",
              4
            ],
            [
              "mesmerist",
              3
            ],
            [
              "occultist",
              4
            ],
            [
              "spiritualist",
              4
            ]
          ],
          "domain": [],
          "subDomain": [
            [
              "Fear",
              4
            ]
          ],
          "elementalSchool": [],
          "bloodline": [
            [
              "Draconic",
              4
            ],
            [
              "Ghoul",
              4
            ]
          ]
        },
        "level": 3,
        "school": "nec",
        "types": "fear, mind-affecting, emotion",
        "conditionals": [],
        "components": {
          "verbal": true,
          "somatic": true,
          "material": true
        },
        "materials": {
          "value": "the heart of a hen or a white feather"
        },
        "spellbook": "spelllike",
        "preparation": {
          "preparedAmount": 5,
          "maxAmount": 5
        },
        "atWill": true,
        "shortDescription": "<p>An invisible cone of terror causes each living creature in the area to become panicked unless it succeeds on a Will save. If cornered, a panicked creature begins cowering. If the Will save succeeds, the creature is shaken for 1 round.</p>",
        "spellDuration": "1 round/level or 1 round; see text",
        "spellArea": "cone-shaped burst"
      },
      "effects": [],
      "folder": null,
      "sort": 0,
      "permission": {
        "default": 0
      },
      "flags": {}
    },
    {
      "_id": "mtxqp85izkb20djq",
      "name": "Ghost Sound",
      "type": "spell",
      "img": "systems/pf1/icons/misc/magic-swirl.png",
      "data": {
        "description": {
          "value": "<div class=\"spell-description\">\n  <p>\n    <strong>School</strong>&nbsp;illusion&nbsp;(figment);\n    <strong>Level</strong>&nbsp;adept 0, bard 0, magus 0, medium 0, mesmerist 0, occultist 0, psychic 0, sorcerer/wizard 0;\n    \n    \n    \n    \n  </p>\n  <p>\n    <strong>Casting Time</strong>&nbsp;1 standard action<br>\n    <strong>Components</strong>&nbsp;V, S, M (a bit of wool or a small lump of wax)<br>\n  </p>\n  <p>\n    <strong>Range</strong>&nbsp;close (25 ft. + 5 ft./2 levels)<br>\n    \n    \n    <strong>Effect</strong>&nbsp;illusory sounds<br>\n    <strong>Duration</strong>&nbsp;1 round/level<br>\n    <strong>Saving Throw</strong>&nbsp;Will disbelief;&nbsp;<strong>Spell Resistance</strong>&nbsp;no<br>\n  </p>\n  <h2>Description</h2>\n  <p><i>Ghost sound</i> allows you to create a volume of sound that rises, recedes, approaches, or remains at a fixed place. You choose what type of sound <i>ghost sound</i> creates when casting it and cannot thereafter change the sound's basic character.</p><p>The volume of sound created depends on your level. You can produce as much noise as four normal humans per caster level (maximum 40 humans). Thus, talking, singing, shouting, walking, marching, or running sounds can be created. The noise a <i>ghost sound</i> spell produces can be virtually any type of sound within the volume limit. A horde of rats running and squeaking is about the same volume as eight humans running and shouting. A roaring lion is equal to the noise from 16 humans, while a roaring dragon is equal to the noise from 32 humans. Anyone who hears a <i>ghost sound</i> receives a Will save to disbelieve.</p><p><i>Ghost sound</i> can enhance the effectiveness of a <i>silent image</i> spell.</p><p><i>Ghost sound</i> can be made permanent with a <i>permanency</i> spell.</p>\n</div>\n"
        },
        "tags": [],
        "activation": {
          "type": "standard"
        },
        "unchainedAction": {
          "activation": {
            "cost": 2,
            "type": "action"
          }
        },
        "range": {
          "units": "close"
        },
        "uses": {
          "per": ""
        },
        "measureTemplate": {
          "size": "0"
        },
        "actionType": "spellsave",
        "damage": {
          "parts": [],
          "critParts": [],
          "nonCritParts": []
        },
        "attackParts": [],
        "ability": {
          "attack": "",
          "damage": ""
        },
        "save": {
          "dc": "0",
          "type": "will",
          "description": "Will disbelief"
        },
        "effectNotes": [],
        "attackNotes": [],
        "links": {
          "children": []
        },
        "flags": {
          "boolean": [],
          "dictionary": []
        },
        "scriptCalls": [],
        "learnedAt": {
          "class": [
            [
              "sorcerer/wizard",
              0
            ],
            [
              "bard",
              0
            ],
            [
              "magus",
              0
            ],
            [
              "adept",
              0
            ],
            [
              "psychic",
              0
            ],
            [
              "medium",
              0
            ],
            [
              "mesmerist",
              0
            ],
            [
              "occultist",
              0
            ]
          ],
          "domain": [],
          "subDomain": [],
          "elementalSchool": [],
          "bloodline": []
        },
        "level": 0,
        "school": "ill",
        "subschool": "figment",
        "conditionals": [],
        "components": {
          "verbal": true,
          "somatic": true,
          "material": true
        },
        "materials": {
          "value": "a bit of wool or a small lump of wax"
        },
        "spellbook": "spelllike",
        "preparation": {
          "autoDeductCharges": false
        },
        "atWill": true,
        "sr": false,
        "shortDescription": "<p><i>Ghost sound</i> allows you to create a volume of sound that rises, recedes, approaches, or remains at a fixed place. You choose what type of sound <i>ghost sound</i> creates when casting it and cannot thereafter change the sound's basic character.</p><p>The volume of sound created depends on your level. You can produce as much noise as four normal humans per caster level (maximum 40 humans). Thus, talking, singing, shouting, walking, marching, or running sounds can be created. The noise a <i>ghost sound</i> spell produces can be virtually any type of sound within the volume limit. A horde of rats running and squeaking is about the same volume as eight humans running and shouting. A roaring lion is equal to the noise from 16 humans, while a roaring dragon is equal to the noise from 32 humans. Anyone who hears a <i>ghost sound</i> receives a Will save to disbelieve.</p><p><i>Ghost sound</i> can enhance the effectiveness of a <i>silent image</i> spell.</p><p><i>Ghost sound</i> can be made permanent with a <i>permanency</i> spell.</p>",
        "spellDuration": "1 round/level",
        "spellEffect": "illusory sounds"
      },
      "effects": [],
      "folder": null,
      "sort": 0,
      "permission": {
        "default": 0
      },
      "flags": {}
    },
    {
      "_id": "n0bsyxchnigkkuqo",
      "name": "Confusion",
      "type": "spell",
      "img": "systems/pf1/icons/spells/air-burst-magenta-2.jpg",
      "data": {
        "description": {
          "value": "<div class=\"spell-description\">\n  <p>\n    <strong>School</strong>&nbsp;enchantment&nbsp;(compulsion)&nbsp;[mind-affecting];\n    <strong>Level</strong>&nbsp;bard 3, bloodrager 4, mesmerist 3, occultist 4, psychic 4, sorcerer/wizard 4, spiritualist 4, witch 4;\n    <strong>Domain</strong>&nbsp;Madness 4, Trickery 4;\n    <strong>Subdomain</strong>&nbsp;Entropy 5, Lust 4, Riot 4, Whimsy 4;\n    \n    <strong>Bloodline</strong>&nbsp;Impossible 4, Protean 4;\n  </p>\n  <p>\n    <strong>Casting Time</strong>&nbsp;1 standard<br>\n    <strong>Components</strong>&nbsp;V, S, M/DF (three nutshells)<br>\n  </p>\n  <p>\n    <strong>Range</strong>&nbsp;medium (100 ft. + 10 ft./level)<br>\n    \n    <strong>Targets</strong>&nbsp;all creatures in a 15-ft.-radius burst<br>\n    \n    <strong>Duration</strong>&nbsp;1 round/level<br>\n      <strong>Saving Throw</strong>&nbsp;Will negates;&nbsp;\n      <strong>Spell Resistance</strong>&nbsp;yes<br>\n  </p>\n  <h2>Description</h2>\n  <p>This spell causes confusion in the targets, making them unable to determine their actions. Roll on the following table at the start of each subject's turn each round to see what it does in that round.</p><p><table><tr><th>d%</th><th>Behavior</th></tr> <tr><td>01-25</td><td>Act normally</td></tr> <tr><td>26-50</td><td>Do nothing but babble incoherently</td></tr> <tr><td>51-75</td><td>Deal 1d8 points of damage + Str modifier to self with item in hand</td></tr> <tr><td>76-100</td><td>Attack nearest creature (for this purpose, a familiar counts as part of the subject's self)</td></tr></table>  A confused character who can't carry out the indicated action does nothing but babble incoherently. Attackers are not at any special advantage when attacking a confused character. Any confused character who is attacked automatically attacks its attackers on its next turn, as long as it is still confused when its turn comes. Note that a confused character will not make attacks of opportunity against any creature that it is not already devoted to attacking (either because of its most recent action or because it has just been attacked).</p>\n</div>\n"
        },
        "tags": [],
        "activation": {
          "type": "standard"
        },
        "unchainedAction": {
          "activation": {
            "cost": 2,
            "type": "action"
          }
        },
        "target": {
          "value": "all creatures in a 15-ft.-radius burst"
        },
        "range": {
          "units": "medium"
        },
        "uses": {
          "value": 3,
          "per": "day"
        },
        "measureTemplate": {
          "type": "circle",
          "size": "15"
        },
        "actionType": "spellsave",
        "damage": {
          "parts": [],
          "critParts": [],
          "nonCritParts": []
        },
        "attackParts": [],
        "ability": {
          "attack": "",
          "damage": ""
        },
        "save": {
          "dc": "0",
          "type": "will",
          "description": "Will negates"
        },
        "effectNotes": [],
        "attackNotes": [],
        "links": {
          "children": []
        },
        "flags": {
          "boolean": [],
          "dictionary": []
        },
        "scriptCalls": [],
        "learnedAt": {
          "class": [
            [
              "sorcerer/wizard",
              4
            ],
            [
              "bard",
              3
            ],
            [
              "witch",
              4
            ],
            [
              "bloodrager",
              4
            ],
            [
              "psychic",
              4
            ],
            [
              "mesmerist",
              3
            ],
            [
              "occultist",
              4
            ],
            [
              "spiritualist",
              4
            ]
          ],
          "domain": [
            [
              "Madness",
              4
            ],
            [
              "Trickery",
              4
            ]
          ],
          "subDomain": [
            [
              "Lust",
              4
            ],
            [
              "Entropy",
              5
            ],
            [
              "Riot",
              4
            ],
            [
              "Whimsy",
              4
            ]
          ],
          "elementalSchool": [],
          "bloodline": [
            [
              "Impossible",
              4
            ],
            [
              "Protean",
              4
            ]
          ]
        },
        "level": 3,
        "school": "enc",
        "subschool": "compulsion",
        "types": "mind-affecting",
        "conditionals": [],
        "components": {
          "verbal": true,
          "somatic": true,
          "material": true,
          "divineFocus": 2
        },
        "materials": {
          "value": "three nutshells"
        },
        "spellbook": "spelllike",
        "preparation": {
          "preparedAmount": 3,
          "maxAmount": 3
        },
        "atWill": true,
        "shortDescription": "<p>This spell causes confusion in the targets, making them unable to determine their actions. Roll on the following table at the start of each subject's turn each round to see what it does in that round.</p><p><table><tr><th>d%</th><th>Behavior</th></tr> <tr><td>01-25</td><td>Act normally</td></tr> <tr><td>26-50</td><td>Do nothing but babble incoherently</td></tr> <tr><td>51-75</td><td>Deal 1d8 points of damage + Str modifier to self with item in hand</td></tr> <tr><td>76-100</td><td>Attack nearest creature (for this purpose, a familiar counts as part of the subject's self)</td></tr></table>  A confused character who can't carry out the indicated action does nothing but babble incoherently. Attackers are not at any special advantage when attacking a confused character. Any confused character who is attacked automatically attacks its attackers on its next turn, as long as it is still confused when its turn comes. Note that a confused character will not make attacks of opportunity against any creature that it is not already devoted to attacking (either because of its most recent action or because it has just been attacked).</p>",
        "spellDuration": "1 round/level"
      },
      "effects": [],
      "folder": null,
      "sort": 0,
      "permission": {
        "default": 0
      },
      "flags": {}
    },
    {
      "_id": "siv3ub7hbmcklf8c",
      "name": "Nightmare",
      "type": "spell",
      "img": "systems/pf1/icons/misc/magic-swirl.png",
      "data": {
        "description": {
          "value": "<div class=\"spell-description\">\n  <p>\n    <strong>School</strong>&nbsp;illusion&nbsp;(phantasm)&nbsp;[mind-affecting, evil];\n    <strong>Level</strong>&nbsp;alchemist 5, bard 5, medium 4, mesmerist 5, psychic 5, sorcerer/wizard 5, spiritualist 5;\n    <strong>Domain</strong>&nbsp;Madness 5;\n    <strong>Subdomain</strong>&nbsp;Night 6;\n    \n    \n  </p>\n  <p>\n    <strong>Casting Time</strong>&nbsp;10 minutes<br>\n    <strong>Components</strong>&nbsp;V, S<br>\n  </p>\n  <p>\n    \n    \n    <strong>Targets</strong>&nbsp;one living creature<br>\n    \n    <strong>Duration</strong>&nbsp;instantaneous<br>\n    <strong>Saving Throw</strong>&nbsp;Will negates; see text;&nbsp;<strong>Spell Resistance</strong>&nbsp;yes<br>\n  </p>\n  <h2>Description</h2>\n  <p>You send a hideous and unsettling phantasmal vision to a specific creature that you name or otherwise specifically designate.</p><p>The <i>nightmare</i> prevents restful sleep and causes 1d10 points of damage. The <i>nightmare</i> leaves the subject fatigued and unable to regain arcane spells for the next 24 hours.</p><p>The difficulty of the save depends on your knowledge the subject and the physical connection (if any) you have to that creature.</p>   <table border ='1'><tr><th>Knowledge</th><th>Will Save Modifier</th></tr><tr><td>None*</td><td>+10</td></tr><tr><td>Secondhand (you have heard of the subject)</td><td>+5</td></tr><tr><td>Firsthand (you have met the subject)</td><td>+0</td></tr><tr><td>Familiar (you know the subject well)</td><td>-5</td></tr><tr><td colspan=\"2\">*You must have some sort of connection to a creature of which you have no knowledge.</td></tr></table>    <table border ='1'><tr><th>Connection</th><th>will Save Modifier</th></tr><tr><td>Likeness or picture</td><td>-2</td></tr><tr><td>Possession or garment</td><td>-4</td></tr><tr><td>Body part, lock of hair, bit of nail, etc.</td><td>-10</td></tr></table>    <i>Dispel evil</i> cast on the subject while you are casting the spell dispels the <i>nightmare</i> and causes you to be stunned for 10 minutes per caster level of the <i>dispel evil</i>.</p><p>If the recipient is awake when the spell begins, you can choose to cease casting (ending the spell) or to enter a trance until the recipient goes to sleep, whereupon you become alert again and complete the casting. If you are disturbed during the trance, you must succeed on a concentration check as if you were in the midst of casting a spell or the spell ends.</p><p>If you choose to enter a trance, you are not aware of your surroundings or the activities around you while in the trance.</p><p>You are defenseless, both physically and mentally, while in the trance. (You always fail Reflex and Will saving throws, for example.) Creatures who don't sleep (such as outsiders) or dream are immune to this spell.</p>\n</div>\n"
        },
        "tags": [],
        "activation": {
          "cost": 10,
          "type": "minute"
        },
        "unchainedAction": {
          "activation": {
            "cost": 10,
            "type": "minute"
          }
        },
        "target": {
          "value": "one living creature"
        },
        "uses": {
          "value": 3,
          "per": "day"
        },
        "measureTemplate": {
          "size": "0"
        },
        "actionType": "spellsave",
        "damage": {
          "parts": [],
          "critParts": [],
          "nonCritParts": []
        },
        "attackParts": [],
        "ability": {
          "attack": "",
          "damage": ""
        },
        "save": {
          "dc": "0",
          "type": "will",
          "description": "Will negates; see text"
        },
        "effectNotes": [],
        "attackNotes": [],
        "links": {
          "children": []
        },
        "flags": {
          "boolean": [],
          "dictionary": []
        },
        "scriptCalls": [],
        "learnedAt": {
          "class": [
            [
              "sorcerer/wizard",
              5
            ],
            [
              "bard",
              5
            ],
            [
              "alchemist",
              5
            ],
            [
              "psychic",
              5
            ],
            [
              "medium",
              4
            ],
            [
              "mesmerist",
              5
            ],
            [
              "spiritualist",
              5
            ]
          ],
          "domain": [
            [
              "Madness",
              5
            ]
          ],
          "subDomain": [
            [
              "Night",
              6
            ]
          ],
          "elementalSchool": [],
          "bloodline": []
        },
        "level": 5,
        "school": "ill",
        "subschool": "phantasm",
        "types": "mind-affecting, evil",
        "conditionals": [],
        "components": {
          "verbal": true,
          "somatic": true
        },
        "spellbook": "spelllike",
        "preparation": {
          "preparedAmount": 3,
          "maxAmount": 3
        },
        "shortDescription": "<p>You send a hideous and unsettling phantasmal vision to a specific creature that you name or otherwise specifically designate.</p><p>The <i>nightmare</i> prevents restful sleep and causes 1d10 points of damage. The <i>nightmare</i> leaves the subject fatigued and unable to regain arcane spells for the next 24 hours.</p><p>The difficulty of the save depends on your knowledge the subject and the physical connection (if any) you have to that creature.</p>   <table border ='1'><tr><th>Knowledge</th><th>Will Save Modifier</th></tr><tr><td>None*</td><td>+10</td></tr><tr><td>Secondhand (you have heard of the subject)</td><td>+5</td></tr><tr><td>Firsthand (you have met the subject)</td><td>+0</td></tr><tr><td>Familiar (you know the subject well)</td><td>-5</td></tr><tr><td colspan=\"2\">*You must have some sort of connection to a creature of which you have no knowledge.</td></tr></table>    <table border ='1'><tr><th>Connection</th><th>will Save Modifier</th></tr><tr><td>Likeness or picture</td><td>-2</td></tr><tr><td>Possession or garment</td><td>-4</td></tr><tr><td>Body part, lock of hair, bit of nail, etc.</td><td>-10</td></tr></table>    <i>Dispel evil</i> cast on the subject while you are casting the spell dispels the <i>nightmare</i> and causes you to be stunned for 10 minutes per caster level of the <i>dispel evil</i>.</p><p>If the recipient is awake when the spell begins, you can choose to cease casting (ending the spell) or to enter a trance until the recipient goes to sleep, whereupon you become alert again and complete the casting. If you are disturbed during the trance, you must succeed on a concentration check as if you were in the midst of casting a spell or the spell ends.</p><p>If you choose to enter a trance, you are not aware of your surroundings or the activities around you while in the trance.</p><p>You are defenseless, both physically and mentally, while in the trance. (You always fail Reflex and Will saving throws, for example.) Creatures who don't sleep (such as outsiders) or dream are immune to this spell.</p>",
        "spellDuration": "instantaneous"
      },
      "effects": [],
      "folder": null,
      "sort": 0,
      "permission": {
        "default": 0
      },
      "flags": {}
    },
    {
      "_id": "6efjgs1qvmj6yxqv",
      "name": "Phantasmal Killer",
      "type": "spell",
      "img": "systems/pf1/icons/misc/magic-swirl.png",
      "data": {
        "description": {
          "value": "<div class=\"spell-description\">\n  <p>\n    <strong>School</strong>&nbsp;illusion&nbsp;(phantasm)&nbsp;[fear, mind-affecting];\n    <strong>Level</strong>&nbsp;bloodrager 4, magus 4, medium 3, mesmerist 4, psychic 4, sorcerer/wizard 4, spiritualist 4, witch 4;\n    <strong>Domain</strong>&nbsp;Madness 6;\n    <strong>Subdomain</strong>&nbsp;Nightmare 4;\n    \n    \n  </p>\n  <p>\n    <strong>Casting Time</strong>&nbsp;1 standard action<br>\n    <strong>Components</strong>&nbsp;V, S<br>\n  </p>\n  <p>\n    <strong>Range</strong>&nbsp;medium (100 ft. + 10 ft./level)<br>\n    \n    <strong>Targets</strong>&nbsp;one living creature<br>\n    \n    <strong>Duration</strong>&nbsp;instantaneous<br>\n    <strong>Saving Throw</strong>&nbsp;Will disbelief, then Fortitude partial; see text;&nbsp;<strong>Spell Resistance</strong>&nbsp;yes<br>\n  </p>\n  <h2>Description</h2>\n  <p>You create a phantasmal image of the most fearsome creature imaginable to the subject simply by forming the fears of the subject's subconscious mind into something that its conscious mind can visualize: this most horrible beast. Only the spell's subject can see the <i>phantasmal killer</i>. You see only a vague shape. The target first gets a Will save to recognize the image as unreal. If that save fails, the phantasm touches the subject, and the subject must succeed on a Fortitude save or die from fear.</p><p>Even if the Fortitude save is successful, the subject takes 3d6 points of damage.</p><p>If the subject of a <i>phantasmal killer</i> attack succeeds in disbelieving and possesses telepathy or is wearing a <i>helm of telepathy</i>, the beast can be turned upon you. You must then disbelieve it or become subject to its deadly fear attack.</p>\n</div>\n"
        },
        "tags": [],
        "activation": {
          "type": "standard"
        },
        "unchainedAction": {
          "activation": {
            "cost": 2,
            "type": "action"
          }
        },
        "target": {
          "value": "one living creature"
        },
        "range": {
          "units": "medium"
        },
        "uses": {
          "value": 3,
          "per": "day"
        },
        "measureTemplate": {
          "size": "0"
        },
        "actionType": "spellsave",
        "damage": {
          "parts": [],
          "critParts": [],
          "nonCritParts": []
        },
        "attackParts": [],
        "ability": {
          "attack": "",
          "damage": ""
        },
        "save": {
          "dc": "0",
          "type": "fort",
          "description": "Will disbelief, then Fortitude partial; see text"
        },
        "effectNotes": [],
        "attackNotes": [],
        "links": {
          "children": []
        },
        "flags": {
          "boolean": [],
          "dictionary": []
        },
        "scriptCalls": [],
        "learnedAt": {
          "class": [
            [
              "sorcerer/wizard",
              4
            ],
            [
              "witch",
              4
            ],
            [
              "magus",
              4
            ],
            [
              "bloodrager",
              4
            ],
            [
              "psychic",
              4
            ],
            [
              "medium",
              3
            ],
            [
              "mesmerist",
              4
            ],
            [
              "spiritualist",
              4
            ]
          ],
          "domain": [
            [
              "Madness",
              6
            ]
          ],
          "subDomain": [
            [
              "Nightmare",
              4
            ]
          ],
          "elementalSchool": [],
          "bloodline": []
        },
        "level": 4,
        "school": "ill",
        "subschool": "phantasm",
        "types": "fear, mind-affecting",
        "conditionals": [],
        "components": {
          "verbal": true,
          "somatic": true
        },
        "spellbook": "spelllike",
        "preparation": {
          "preparedAmount": 3,
          "maxAmount": 3
        },
        "shortDescription": "<p>You create a phantasmal image of the most fearsome creature imaginable to the subject simply by forming the fears of the subject's subconscious mind into something that its conscious mind can visualize: this most horrible beast. Only the spell's subject can see the <i>phantasmal killer</i>. You see only a vague shape. The target first gets a Will save to recognize the image as unreal. If that save fails, the phantasm touches the subject, and the subject must succeed on a Fortitude save or die from fear.</p><p>Even if the Fortitude save is successful, the subject takes 3d6 points of damage.</p><p>If the subject of a <i>phantasmal killer</i> attack succeeds in disbelieving and possesses telepathy or is wearing a <i>helm of telepathy</i>, the beast can be turned upon you. You must then disbelieve it or become subject to its deadly fear attack.</p>",
        "spellDuration": "instantaneous"
      },
      "effects": [],
      "folder": null,
      "sort": 0,
      "permission": {
        "default": 0
      },
      "flags": {}
    },
    {
      "_id": "dbtey7wpyml1j4jh",
      "name": "Ecology",
      "type": "feat",
      "img": "icons/environment/wilderness/tree-oak.webp",
      "data": {
        "description": {
          "value": "<div><strong>Environment</strong>:  any (Dimension of Dreams)</div><div><strong>Organization</strong>:  solitary</div><div><strong>Treasure</strong>:  none</div>"
        },
        "tags": [],
        "damage": {
          "parts": [],
          "critParts": [],
          "nonCritParts": []
        },
        "attackParts": [],
        "effectNotes": [],
        "attackNotes": [],
        "changes": [],
        "contextNotes": [],
        "links": {
          "children": [],
          "charges": []
        },
        "armorProf": {
          "value": []
        },
        "weaponProf": {
          "value": []
        },
        "flags": {
          "boolean": [],
          "dictionary": []
        },
        "scriptCalls": [],
        "featType": "misc",
        "associations": {
          "classes": []
        }
      },
      "effects": [],
      "folder": null,
      "sort": 0,
      "permission": {
        "default": 0
      },
      "flags": {}
    },
    {
      "_id": "lx8bej74x42pk7ic",
      "name": "Never Far Behind",
      "type": "feat",
      "img": "systems/pf1/icons/skills/yellow_36.jpg",
      "data": {
        "description": {
          "value": "A number of times per day equal to its Charisma modifier, a feargaunt can teleport to a square adjacent to a creature that is still shaken from the feargaunt’s nightmare aura or damaged by its tormenting touch. This ability functions as greater teleport. This ability functions only if the feargaunt and the creature are both in the Dimension of Dreams."
        },
        "tags": [],
        "damage": {
          "parts": [],
          "critParts": [],
          "nonCritParts": []
        },
        "attackParts": [],
        "effectNotes": [],
        "attackNotes": [],
        "changes": [],
        "contextNotes": [],
        "links": {
          "children": [],
          "charges": []
        },
        "armorProf": {
          "value": []
        },
        "weaponProf": {
          "value": []
        },
        "flags": {
          "boolean": [],
          "dictionary": []
        },
        "scriptCalls": [],
        "featType": "classFeat",
        "associations": {
          "classes": []
        },
        "abilityType": "su"
      },
      "effects": [],
      "folder": null,
      "sort": 0,
      "permission": {
        "default": 0
      },
      "flags": {}
    },
    {
      "_id": "mu6u92gz9ilqxq5a",
      "name": "Nightmare Aura",
      "type": "feat",
      "img": "systems/pf1/icons/skills/yellow_36.jpg",
      "data": {
        "description": {
          "value": "A feargaunt is cloaked in a 60-foot-radius aura of fear, which manifests as darkened shadows, subtle rot, and skewed perspective. The first time a creature ends its turn within the aura, it must succeed at a DC 20 Will save or be shaken for as long as it stays within the aura and for 1d4 rounds thereafter. Creatures within the aura suffering from any fear effect automatically fail Charisma checks to attempt impossible feats in a dreamscape (Pathfinder RPG Occult Adventures 243). The feargaunt can suppress or reactivate this aura as a swift action. If the creature succeeds at the saving throw, it cannot be affected again by the aura for another 24 hours. This is a mind-affecting fear effect. The DC is Charisma-based."
        },
        "tags": [],
        "damage": {
          "parts": [],
          "critParts": [],
          "nonCritParts": []
        },
        "attackParts": [],
        "effectNotes": [],
        "attackNotes": [],
        "changes": [],
        "contextNotes": [],
        "links": {
          "children": [],
          "charges": []
        },
        "armorProf": {
          "value": []
        },
        "weaponProf": {
          "value": []
        },
        "flags": {
          "boolean": [],
          "dictionary": []
        },
        "scriptCalls": [],
        "featType": "classFeat",
        "associations": {
          "classes": []
        },
        "abilityType": "su"
      },
      "effects": [],
      "folder": null,
      "sort": 0,
      "permission": {
        "default": 0
      },
      "flags": {}
    },
    {
      "_id": "757bebz4bly026wb",
      "name": "Prideful Defense",
      "type": "feat",
      "img": "systems/pf1/icons/skills/yellow_36.jpg",
      "data": {
        "description": {
          "value": "A feargaunt gains a deflection bonus to its Armor Class equal to its Wisdom modifier, in addition to the deflection bonus an incorporeal creature normally receives based on its Charisma modifier."
        },
        "tags": [],
        "damage": {
          "parts": [],
          "critParts": [],
          "nonCritParts": []
        },
        "attackParts": [],
        "effectNotes": [],
        "attackNotes": [],
        "changes": [],
        "contextNotes": [],
        "links": {
          "children": [],
          "charges": []
        },
        "armorProf": {
          "value": []
        },
        "weaponProf": {
          "value": []
        },
        "flags": {
          "boolean": [],
          "dictionary": []
        },
        "scriptCalls": [],
        "featType": "classFeat",
        "associations": {
          "classes": []
        },
        "abilityType": "su"
      },
      "effects": [],
      "folder": null,
      "sort": 0,
      "permission": {
        "default": 0
      },
      "flags": {}
    },
    {
      "_id": "3torp0pgua0q3ul2",
      "name": "Tormenting Touch",
      "type": "feat",
      "img": "systems/pf1/icons/skills/yellow_36.jpg",
      "data": {
        "description": {
          "value": "A feargaunt’s touch is an incorporeal touch attack that deals 6d6 points of damage and bypasses damage reduction. A creature that is suffering from a fear effect and is struck by the feargaunt’s tormenting touch also takes 1d2 points of Charisma bleed damage. This bleed damage can be stopped as normal, but also stops when the subject is no longer suffering from a fear effect."
        },
        "tags": [],
        "damage": {
          "parts": [],
          "critParts": [],
          "nonCritParts": []
        },
        "attackParts": [],
        "effectNotes": [],
        "attackNotes": [],
        "changes": [],
        "contextNotes": [],
        "links": {
          "children": [],
          "charges": []
        },
        "armorProf": {
          "value": []
        },
        "weaponProf": {
          "value": []
        },
        "flags": {
          "boolean": [],
          "dictionary": []
        },
        "scriptCalls": [],
        "featType": "classFeat",
        "associations": {
          "classes": []
        },
        "abilityType": "su"
      },
      "effects": [],
      "folder": null,
      "sort": 0,
      "permission": {
        "default": 0
      },
      "flags": {}
    },
    {
      "_id": "KSFOh7B6SHr2HMKy",
      "name": "sbc | Conversion Buff",
      "type": "buff",
      "img": "systems/pf1/icons/skills/yellow_36.jpg",
      "data": {
        "description": {
          "value": "<h2>sbc | Conversion Buff</h2>\n                        This Buff was created by <strong>sbc</strong> to compensate for differences between the input and the values FoundryVTT calculates automatically.\n                        <br><br>\n                        Especially when the pathfinder system gets upgraded, entries in compendiums get updated or foundry changes in some way, this buff may become outdated.\n                        <br><br>\n                        For most mooks the conversion should more or less work, but for important NPCs or creatures it is adviced to double check the conversion manually."
        },
        "tags": [],
        "changes": [
          {
            "formula": "10",
            "modifier": "untypedPerm",
            "operator": "add",
            "priority": 0,
            "subTarget": "cmb",
            "target": "misc",
            "value": 10,
            "id": "gtujjwv0"
          },
          {
            "formula": "13",
            "modifier": "untypedPerm",
            "operator": "add",
            "priority": 0,
            "subTarget": "cmd",
            "target": "misc",
            "value": 13,
            "id": "2p32qbti"
          },
          {
            "formula": "7",
            "modifier": "deflection",
            "operator": "add",
            "priority": 0,
            "subTarget": "ac",
            "target": "ac",
            "value": 7,
            "id": "o4tojp8k"
          },
          {
            "formula": "1",
            "modifier": "dodge",
            "operator": "add",
            "priority": 0,
            "subTarget": "ac",
            "target": "ac",
            "value": 1,
            "id": "5gix6va3"
          },
          {
            "formula": "-10",
            "modifier": "untypedPerm",
            "operator": "add",
            "priority": 0,
            "subTarget": "mhp",
            "target": "misc",
            "value": -10,
            "id": "mqbjrykl"
          },
          {
            "formula": "-8",
            "modifier": "untypedPerm",
            "operator": "add",
            "priority": 0,
            "subTarget": "skill.fly",
            "target": "skill",
            "value": -8,
            "id": "78o0elm8"
          }
        ],
        "contextNotes": [],
        "links": {
          "children": []
        },
        "tag": "sbcConversionBuff",
        "useCustomTag": true,
        "flags": {
          "boolean": [],
          "dictionary": []
        },
        "scriptCalls": [],
        "buffType": "perm",
        "active": true,
        "hideFromToken": true
      },
      "effects": [],
      "folder": null,
      "sort": 0,
      "permission": {
        "default": 0,
        "iM1ACTqH0Ml6HJtd": 3
      },
      "flags": {}
    }
  ],
  "effects": [],
  "folder": null,
  "sort": 0,
  "permission": {
    "default": 0
  },
  "flags": {}
}