{
  "_id": "vMpLF66BSrugZ8xI",
  "name": "Gorgon",
  "type": "npc",
  "img": "systems/pf1/icons/races/creature-types/magical-beast.png",
  "data": {
    "abilities": {
      "str": {
        "value": 24
      },
      "con": {
        "value": 24
      },
      "int": {
        "value": 2
      },
      "wis": {
        "value": 16
      },
      "cha": {
        "value": 9
      }
    },
    "attributes": {
      "naturalAC": "+11",
      "hp": {
        "value": 110
      },
      "spells": {
        "usedSpellbooks": []
      }
    },
    "details": {
      "cr": {
        "base": 8
      }
    },
    "skills": {
      "per": {
        "rank": 11
      }
    },
    "traits": {
      "size": "lg",
      "senses": "darkvision 60 ft., low-light vision, scent; Perception +17",
      "languages": {
        "value": []
      },
      "di": {
        "value": []
      },
      "dv": {
        "value": []
      },
      "ci": {
        "value": []
      },
      "stature": ""
    }
  },
  "token": {
    "name": "Gorgon",
    "displayName": 20,
    "actorLink": false,
    "width": 2,
    "height": 2,
    "scale": 1,
    "mirrorX": false,
    "mirrorY": false,
    "lockRotation": false,
    "rotation": 0,
    "alpha": 1,
    "vision": false,
    "dimSight": 0,
    "brightSight": "60",
    "dimLight": 0,
    "brightLight": 0,
    "sightAngle": 0,
    "lightAngle": 0,
    "lightAlpha": 0.25,
    "lightAnimation": {
      "speed": 5,
      "intensity": 5
    },
    "disposition": -1,
    "displayBars": 20,
    "bar1": {
      "attribute": null
    },
    "bar2": {
      "attribute": null
    },
    "flags": {
      "pf1": {
        "lowLightVision": true
      }
    },
    "randomImg": false,
    "img": "systems/pf1/icons/races/creature-types/magical-beast.png"
  },
  "items": [
    {
      "_id": "AjUleVwKSsSaDI4N",
      "name": "Magical Beast (Aquatic)",
      "type": "class",
      "img": "systems/pf1/icons/skills/green_13.jpg",
      "data": {
        "description": {
          "value": "<p>Magical beasts are similar to animals but can have&nbsp;<a href=\"https://www.d20pfsrd.com/basics-ability-scores/ability-scores#TOC-Intelligence-Int-\">Intelligence</a>&nbsp;scores higher than 2 (in which case the magical beast knows at least one language, but can’t necessarily speak). Magical beasts usually have supernatural or extraordinary abilities, but are sometimes merely bizarre in appearance or habits.</p>\n<h2><span id=\"Features\">Features</span></h2>\n<p>A magical beast has the following features.</p>\n<ul>\n<li>d10 Hit Die.</li>\n<li>Base attack bonus equal to total Hit Dice (fast progression).</li>\n<li>Good&nbsp;<a href=\"https://www.d20pfsrd.com/gamemastering/combat#TOC-Fortitude\" rel=\"nofollow\">Fortitude</a>&nbsp;and&nbsp;<a href=\"https://www.d20pfsrd.com/gamemastering/combat#TOC-Reflex\" rel=\"nofollow\">Reflex</a>&nbsp;saves.</li>\n<li>Skill points equal to 2 + Int modifier (minimum 1) per Hit Die. The following are class skills for magical beasts: <a href=\"https://www.d20pfsrd.com/skills/acrobatics\" rel=\"nofollow\">Acrobatics</a>, <a href=\"https://www.d20pfsrd.com/skills/climb\" rel=\"nofollow\">Climb</a>, <a href=\"https://www.d20pfsrd.com/skills/fly\" rel=\"nofollow\">Fly</a>, <a href=\"https://www.d20pfsrd.com/skills/perception\" rel=\"nofollow\">Perception</a>, <a href=\"https://www.d20pfsrd.com/skills/stealth\" rel=\"nofollow\">Stealth</a>, <a href=\"https://www.d20pfsrd.com/skills/swim\" rel=\"nofollow\">Swim</a>.</li>\n</ul>\n<h2><span id=\"Traits\">Traits</span></h2>\n<p>A magical beast possesses the following traits (unless otherwise noted in a creature’s entry).</p>\n<ul>\n<li><a href=\"https://www.d20pfsrd.com/gamemastering/special-abilities#TOC-Darkvision\">Darkvision</a>&nbsp;60 feet.</li>\n<li><a href=\"https://www.d20pfsrd.com/gamemastering/special-abilities#TOC-Low-Light-Vision\">Low-light vision</a>.</li>\n<li>Proficient with its natural weapons only.</li>\n<li>Proficient with no armor.</li>\n<li>Magical beasts breathe, eat, and sleep.</li>\n</ul>"
        },
        "tags": [],
        "changes": [],
        "links": "",
        "tag": "magical beast",
        "useCustomTag": true,
        "armorProf": {
          "value": []
        },
        "weaponProf": {
          "value": []
        },
        "flags": {
          "boolean": [],
          "dictionary": []
        },
        "scriptCalls": [],
        "classType": "racial",
        "level": 8,
        "hd": 10,
        "hp": 54,
        "bab": "high",
        "skillsPerLevel": 2,
        "savingThrows": {
          "fort": {
            "value": "high"
          },
          "ref": {
            "value": "high"
          }
        },
        "classSkills": {
          "acr": true,
          "apr": false,
          "art": false,
          "blf": false,
          "clm": true,
          "crf": false,
          "dip": false,
          "dev": false,
          "dis": false,
          "esc": false,
          "fly": true,
          "han": false,
          "hea": false,
          "int": false,
          "kar": false,
          "kdu": false,
          "ken": false,
          "kge": false,
          "khi": false,
          "klo": false,
          "kna": false,
          "kno": false,
          "kpl": false,
          "kre": false,
          "lin": false,
          "lor": false,
          "per": true,
          "prf": false,
          "pro": false,
          "rid": false,
          "sen": false,
          "slt": false,
          "spl": false,
          "ste": true,
          "sur": false,
          "swm": true,
          "umd": false
        }
      },
      "effects": [],
      "folder": null,
      "sort": 0,
      "permission": {
        "default": 0
      },
      "flags": {}
    },
    {
      "_id": "mssl8umnvgj0ms89",
      "name": "Race: Magical Beast",
      "type": "race",
      "img": "systems/pf1/icons/skills/green_13.jpg",
      "data": {
        "description": {
          "value": "sbc | As no playable race was found a placeholder was generated."
        },
        "tags": [],
        "changes": [],
        "contextNotes": [],
        "links": {
          "children": []
        },
        "armorProf": {
          "value": []
        },
        "weaponProf": {
          "value": []
        },
        "flags": {
          "boolean": [],
          "dictionary": []
        },
        "scriptCalls": [],
        "creatureType": "magicalBeast",
        "subTypes": [
          [
            ""
          ]
        ]
      },
      "effects": [],
      "folder": null,
      "sort": 0,
      "permission": {
        "default": 0
      },
      "flags": {}
    },
    {
      "_id": "6klan3m7p04gd9zj",
      "name": "Sense: Darkvision 60ft.",
      "type": "feat",
      "img": "systems/pf1/icons/skills/shadow_12.jpg",
      "data": {
        "description": {
          "value": "Darkvision is the extraordinary ability to see with no light source at all, out to a range specified for the creature. Darkvision is black-and-white only (colors cannot be discerned). It does not allow characters to see anything that they could not see otherwise—invisible objects are still invisible, and illusions are still visible as what they seem to be. Likewise, darkvision subjects a creature to gaze attacks normally. The presence of light does not spoil darkvision."
        },
        "tags": [],
        "damage": {
          "parts": [],
          "critParts": [],
          "nonCritParts": []
        },
        "attackParts": [],
        "effectNotes": [],
        "attackNotes": [],
        "changes": [],
        "contextNotes": [],
        "links": {
          "children": [],
          "charges": []
        },
        "tag": "senseDarkvision60ft",
        "armorProf": {
          "value": []
        },
        "weaponProf": {
          "value": []
        },
        "flags": {
          "boolean": [],
          "dictionary": []
        },
        "scriptCalls": [],
        "featType": "racial",
        "associations": {
          "classes": []
        },
        "abilityType": "ex"
      },
      "effects": [],
      "folder": null,
      "sort": 0,
      "permission": {
        "default": 0
      },
      "flags": {}
    },
    {
      "_id": "6y0hqi8031lqv2wp",
      "name": "Sense: Low-light Vision",
      "type": "feat",
      "img": "systems/pf1/icons/skills/shadow_11.jpg",
      "data": {
        "description": {
          "value": "A creature with low-light vision can see twice as far as a human in starlight, moonlight, torchlight, and similar conditions of dim light. It retains the ability to distinguish color and detail under these conditions."
        },
        "tags": [],
        "damage": {
          "parts": [],
          "critParts": [],
          "nonCritParts": []
        },
        "attackParts": [],
        "effectNotes": [],
        "attackNotes": [],
        "changes": [],
        "contextNotes": [],
        "links": {
          "children": [],
          "charges": []
        },
        "tag": "senseLowlightVision",
        "armorProf": {
          "value": []
        },
        "weaponProf": {
          "value": []
        },
        "flags": {
          "boolean": [],
          "dictionary": []
        },
        "scriptCalls": [],
        "featType": "racial",
        "associations": {
          "classes": []
        },
        "abilityType": "ex"
      },
      "effects": [],
      "folder": null,
      "sort": 0,
      "permission": {
        "default": 0
      },
      "flags": {}
    },
    {
      "_id": "1uxvs38s9y8gj9qp",
      "name": "Sense: Scent",
      "type": "feat",
      "img": "systems/pf1/icons/skills/blue_29.jpg",
      "data": {
        "description": {
          "value": "This special quality allows a creature to detect approaching enemies, sniff out hidden foes, and track by sense of smell. Creatures with the scent ability can identify familiar odors just as humans do familiar sights.<br><br>\n                The creature can detect opponents within 30 feet by sense of smell. If the opponent is upwind, the range increases to 60 feet; if downwind, it drops to 15 feet. Strong scents, such as smoke or rotting garbage, can be detected at twice the ranges noted above. Overpowering scents, such as skunk musk or troglodyte stench, can be detected at triple normal range.<br><br>\n                When a creature detects a scent, the exact location of the source is not revealed—only its presence somewhere within range. The creature can take a move action to note the direction of the scent. When the creature is within 5 feet of the source, it pinpoints the source’s location.<br><br>\n                A creature with the scent ability can follow tracks by smell, making a Wisdom (or Survival) check to find or follow a track. The typical DC for a fresh trail is 10 (no matter what kind of surface holds the scent). This DC increases or decreases depending on how strong the quarry’s odor is, the number of creatures, and the age of the trail. For each hour that the trail is cold, the DC increases by 2. The ability otherwise follows the rules for the Survival skill. Creatures tracking by scent ignore the effects of surface conditions and poor visibility."
        },
        "tags": [],
        "damage": {
          "parts": [],
          "critParts": [],
          "nonCritParts": []
        },
        "attackParts": [],
        "effectNotes": [],
        "attackNotes": [],
        "changes": [],
        "contextNotes": [],
        "links": {
          "children": [],
          "charges": []
        },
        "tag": "senseScent",
        "armorProf": {
          "value": []
        },
        "weaponProf": {
          "value": []
        },
        "flags": {
          "boolean": [],
          "dictionary": []
        },
        "scriptCalls": [],
        "featType": "racial",
        "associations": {
          "classes": []
        },
        "abilityType": "ex"
      },
      "effects": [],
      "folder": null,
      "sort": 0,
      "permission": {
        "default": 0
      },
      "flags": {}
    },
    {
      "_id": "Uuiu3p982omhMEPj",
      "name": "Improved Initiative",
      "type": "feat",
      "img": "systems/pf1/icons/feats/improved-initiative.jpg",
      "data": {
        "description": {
          "value": "\n                <i>Your quick reflexes allow you to react rapidly to danger.</i>\n                <br />\n                <br />\n                \n                <p><b>Benefits</b></p>\n                <p><p class=\"stat-block-1\"> You get a +4 bonus on initiative checks.</p></p>\n                \n            \n            "
        },
        "tags": [
          [
            "Combat"
          ]
        ],
        "measureTemplate": {
          "size": "0"
        },
        "actionType": "",
        "damage": {
          "parts": [],
          "critParts": [],
          "nonCritParts": []
        },
        "attackParts": [],
        "effectNotes": [],
        "attackNotes": [],
        "changes": [
          {
            "_id": "ign7okhi",
            "formula": "4",
            "operator": "add",
            "subTarget": "init",
            "modifier": "untyped",
            "priority": 0,
            "value": 0,
            "target": "misc"
          }
        ],
        "contextNotes": [],
        "links": {
          "children": [],
          "charges": []
        },
        "tag": "improvedInitiative",
        "armorProf": {
          "value": []
        },
        "weaponProf": {
          "value": []
        },
        "flags": {
          "boolean": [],
          "dictionary": []
        },
        "scriptCalls": [],
        "associations": {
          "classes": []
        }
      },
      "effects": [],
      "folder": null,
      "sort": 0,
      "permission": {
        "default": 0
      },
      "flags": {}
    },
    {
      "_id": "iAbIGhm7T2OK9Brt",
      "name": "Iron Will",
      "type": "feat",
      "img": "systems/pf1/icons/feats/iron-will.jpg",
      "data": {
        "description": {
          "value": "\n                <i>You are more resistant to mental effects.</i>\n                <br />\n                <br />\n                \n                <p><b>Benefits</b></p>\n                <p><p class=\"stat-block-1\"> You get a +2 bonus on all Will saving throws.</p></p>\n                \n            \n            "
        },
        "tags": [
          [
            "General"
          ],
          [
            "Saving Throw"
          ]
        ],
        "measureTemplate": {
          "size": "0"
        },
        "actionType": "",
        "damage": {
          "parts": [],
          "critParts": [],
          "nonCritParts": []
        },
        "attackParts": [],
        "effectNotes": [],
        "attackNotes": [],
        "changes": [
          {
            "_id": "vafl2kz4",
            "formula": "2",
            "operator": "add",
            "subTarget": "will",
            "modifier": "untyped",
            "priority": 0,
            "value": 0,
            "target": "savingThrows"
          }
        ],
        "contextNotes": [],
        "links": {
          "children": [],
          "charges": []
        },
        "tag": "ironWill",
        "armorProf": {
          "value": []
        },
        "weaponProf": {
          "value": []
        },
        "flags": {
          "boolean": [],
          "dictionary": []
        },
        "scriptCalls": [],
        "associations": {
          "classes": []
        }
      },
      "effects": [],
      "folder": null,
      "sort": 0,
      "permission": {
        "default": 0
      },
      "flags": {}
    },
    {
      "_id": "FUW5mIXHNBBIQ1Sq",
      "name": "Power Attack",
      "type": "feat",
      "img": "systems/pf1/icons/feats/power-attack.jpg",
      "data": {
        "description": {
          "value": "\n                <i>You can make exceptionally deadly melee attacks by sacrificing accuracy for strength.</i>\n                <br />\n                <br />\n                \n                <p><b>Prerequisites</b></p>\n                <p> Str 13, base attack bonus +1.</p>\n                \n            <br />\n                <p><b>Benefits</b></p>\n                <p><p class=\"stat-block-1\"> You can choose to take a &ndash;1 penalty on all melee attack rolls and combat maneuver checks to gain a +2 bonus on all melee damage rolls. This bonus to damage is increased by half (+50%) if you are making an attack with a two-handed weapon, a one handed weapon using two hands, or a primary natural weapon that adds 1-1/2 times your Strength modifier on damage rolls. This bonus to damage is halved (&ndash;50%) if you are making an attack with an off-hand weapon or secondary natural weapon. When your base attack bonus reaches +4, and every 4 points thereafter, the penalty increases by &ndash;1 and the bonus to damage increases by +2. You must choose to use this feat before making an attack roll, and its effects last until your next turn. The bonus damage does not apply to touch attacks or effects that do not deal hit point damage.</p></p>\n                \n            \n            "
        },
        "tags": [
          [
            "Combat"
          ],
          [
            "Offensive"
          ]
        ],
        "measureTemplate": {
          "size": "0"
        },
        "actionType": "",
        "damage": {
          "parts": [],
          "critParts": [],
          "nonCritParts": []
        },
        "attackParts": [],
        "effectNotes": [],
        "attackNotes": [],
        "changes": [],
        "contextNotes": [],
        "links": {
          "children": [],
          "charges": []
        },
        "tag": "powerAttack",
        "armorProf": {
          "value": []
        },
        "weaponProf": {
          "value": []
        },
        "flags": {
          "boolean": [],
          "dictionary": []
        },
        "scriptCalls": [],
        "associations": {
          "classes": []
        }
      },
      "effects": [],
      "folder": null,
      "sort": 0,
      "permission": {
        "default": 0
      },
      "flags": {}
    },
    {
      "_id": "7zJTztNW7hdaqjKc",
      "name": "Skill Focus",
      "type": "feat",
      "img": "systems/pf1/icons/feats/skill-focus.jpg",
      "data": {
        "description": {
          "value": "\n                <i>Choose a skill. You are particularly adept at that skill.</i>\n                <br />\n                <br />\n                \n                <p><b>Benefits</b></p>\n                <p><p class=\"stat-block-1\"> You get a +3 bonus on all checks involving the chosen skill. If you have 10 or more ranks in that skill, this bonus increases to +6.</p></p>\n                \n            <br />\n                <p><b>Special</b></p>\n                <p><p class=\"stat-block-1\"> You can gain this feat multiple times. Its effects do not stack. Each time you take the feat, it applies to a new skill.</p></p>\n                \n            \n            "
        },
        "tags": [
          [
            "General"
          ],
          [
            "Skill"
          ]
        ],
        "measureTemplate": {
          "size": "0"
        },
        "actionType": "",
        "damage": {
          "parts": [],
          "critParts": [],
          "nonCritParts": []
        },
        "attackParts": [],
        "effectNotes": [],
        "attackNotes": [],
        "changes": [],
        "contextNotes": [],
        "links": {
          "children": [],
          "charges": []
        },
        "tag": "skillFocus",
        "armorProf": {
          "value": []
        },
        "weaponProf": {
          "value": []
        },
        "flags": {
          "boolean": [],
          "dictionary": []
        },
        "scriptCalls": [],
        "associations": {
          "classes": []
        }
      },
      "effects": [],
      "folder": null,
      "sort": 0,
      "permission": {
        "default": 0
      },
      "flags": {}
    },
    {
      "_id": "jy9yh54ldkejqjs0",
      "name": "Gore",
      "type": "attack",
      "img": "systems/pf1/icons/items/inventory/monster-tusk-bloody.jpg",
      "data": {
        "tags": [],
        "activation": {
          "type": "attack"
        },
        "unchainedAction": {
          "activation": {
            "type": "attack"
          }
        },
        "duration": {
          "units": "inst"
        },
        "range": {
          "value": "",
          "units": "melee"
        },
        "attackName": "Gore",
        "actionType": "mwak",
        "attackBonus": "0",
        "damage": {
          "parts": [
            [
              "2d8+0",
              "P"
            ]
          ],
          "critParts": [],
          "nonCritParts": []
        },
        "attackParts": [],
        "ability": {
          "attack": "str",
          "damage": "str"
        },
        "effectNotes": [],
        "attackNotes": [
          "gore +14 (2d8+7 )"
        ],
        "links": {
          "children": [],
          "charges": [],
          "ammunition": []
        },
        "flags": {
          "boolean": [],
          "dictionary": []
        },
        "scriptCalls": [],
        "attackType": "natural",
        "conditionals": []
      },
      "effects": [],
      "folder": null,
      "sort": 0,
      "permission": {
        "default": 0
      },
      "flags": {}
    },
    {
      "_id": "8gtt82a9lbf7guuw",
      "name": "Hooves",
      "type": "attack",
      "img": null,
      "data": {
        "tags": [],
        "activation": {
          "type": "attack"
        },
        "unchainedAction": {
          "activation": {
            "type": "attack"
          }
        },
        "duration": {
          "units": "inst"
        },
        "range": {
          "value": "",
          "units": "melee"
        },
        "attackName": "Hooves",
        "actionType": "mwak",
        "attackBonus": "-5",
        "damage": {
          "parts": [
            [
              "1d6+-4",
              ""
            ]
          ],
          "critParts": [],
          "nonCritParts": []
        },
        "attackParts": [
          [
            "0",
            "Hooves: 1"
          ]
        ],
        "ability": {
          "attack": "str",
          "damage": "str"
        },
        "effectNotes": [],
        "attackNotes": [
          "2 hooves +9 (1d6+3 )"
        ],
        "links": {
          "children": [],
          "charges": [],
          "ammunition": []
        },
        "flags": {
          "boolean": [],
          "dictionary": []
        },
        "scriptCalls": [],
        "primaryAttack": false,
        "conditionals": []
      },
      "effects": [],
      "folder": null,
      "sort": 0,
      "permission": {
        "default": 0
      },
      "flags": {}
    },
    {
      "_id": "6g6w12cp308mu97n",
      "name": "Special Attack: Breath Weapon (60-foot Cone, Turn To Stone, Fortitude Dc 21 Negates)",
      "type": "attack",
      "img": "systems/pf1/icons/skills/yellow_36.jpg",
      "data": {
        "description": {
          "value": "sbc | Placeholder for Special Attacks, which in most statblocks are listed under 'Special Attacks' in the statistics block, but are described in the 'Special Abilities' block. Remove duplicates as needed!"
        },
        "tags": [],
        "damage": {
          "parts": [],
          "critParts": [],
          "nonCritParts": []
        },
        "attackParts": [],
        "effectNotes": [],
        "attackNotes": [],
        "links": {
          "children": [],
          "charges": [],
          "ammunition": []
        },
        "flags": {
          "boolean": [],
          "dictionary": []
        },
        "scriptCalls": [],
        "attackType": "misc",
        "conditionals": []
      },
      "effects": [],
      "folder": null,
      "sort": 0,
      "permission": {
        "default": 0
      },
      "flags": {}
    },
    {
      "_id": "x1ur4eprs4ymn604",
      "name": "Special Attack: Trample (2d8+10, Dc 21)",
      "type": "attack",
      "img": "systems/pf1/icons/skills/yellow_36.jpg",
      "data": {
        "description": {
          "value": "sbc | Placeholder for Special Attacks, which in most statblocks are listed under 'Special Attacks' in the statistics block, but are described in the 'Special Abilities' block. Remove duplicates as needed!"
        },
        "tags": [],
        "damage": {
          "parts": [],
          "critParts": [],
          "nonCritParts": []
        },
        "attackParts": [],
        "effectNotes": [],
        "attackNotes": [],
        "links": {
          "children": [],
          "charges": [],
          "ammunition": []
        },
        "flags": {
          "boolean": [],
          "dictionary": []
        },
        "scriptCalls": [],
        "attackType": "misc",
        "conditionals": []
      },
      "effects": [],
      "folder": null,
      "sort": 0,
      "permission": {
        "default": 0
      },
      "flags": {}
    },
    {
      "_id": "63elr4wlhqjs7xl1",
      "name": "Ecology",
      "type": "feat",
      "img": "icons/environment/wilderness/tree-oak.webp",
      "data": {
        "description": {
          "value": "<div><strong>Environment</strong>:  temperate plains, rocky hills, and underground</div><div><strong>Organization</strong>:  solitary, pair, pack (3-4), or herd (5-12)</div><div><strong>Treasure</strong>:  none</div>"
        },
        "tags": [],
        "damage": {
          "parts": [],
          "critParts": [],
          "nonCritParts": []
        },
        "attackParts": [],
        "effectNotes": [],
        "attackNotes": [],
        "changes": [],
        "contextNotes": [],
        "links": {
          "children": [],
          "charges": []
        },
        "armorProf": {
          "value": []
        },
        "weaponProf": {
          "value": []
        },
        "flags": {
          "boolean": [],
          "dictionary": []
        },
        "scriptCalls": [],
        "featType": "misc",
        "associations": {
          "classes": []
        }
      },
      "effects": [],
      "folder": null,
      "sort": 0,
      "permission": {
        "default": 0
      },
      "flags": {}
    },
    {
      "_id": "rn5ooj35gyo287py",
      "name": "Breath Weapon",
      "type": "feat",
      "img": "systems/pf1/icons/skills/yellow_36.jpg",
      "data": {
        "description": {
          "value": "A gorgon can use its breath weapon once every 1d4+1 rounds to create a 60-foot cone of green gas. Those caught in the area of the gas can attempt a DC 21 Fortitude save to resist the effects, but those who fail the save are immediately petrified. This petrification is temporary-each round, a petrified creature can attempt a new DC 21 Fortitude save to recover from the petrification as long as it is not caught within the area of effect of the gorgon’s breath weapon a second time while petrified. A creature exposed to the gorgon’s breath a second time while already petrified becomes permanently petrified, and can no longer attempt to make additional Fortitude saves to recover naturally. The save DC is Constitution-based."
        },
        "tags": [],
        "damage": {
          "parts": [],
          "critParts": [],
          "nonCritParts": []
        },
        "attackParts": [],
        "effectNotes": [],
        "attackNotes": [],
        "changes": [],
        "contextNotes": [],
        "links": {
          "children": [],
          "charges": []
        },
        "armorProf": {
          "value": []
        },
        "weaponProf": {
          "value": []
        },
        "flags": {
          "boolean": [],
          "dictionary": []
        },
        "scriptCalls": [],
        "featType": "classFeat",
        "associations": {
          "classes": []
        },
        "abilityType": ""
      },
      "effects": [],
      "folder": null,
      "sort": 0,
      "permission": {
        "default": 0
      },
      "flags": {}
    },
    {
      "_id": "U1bYI4o2qYaytXLy",
      "name": "sbc | Conversion Buff",
      "type": "buff",
      "img": "systems/pf1/icons/skills/yellow_36.jpg",
      "data": {
        "description": {
          "value": "<h2>sbc | Conversion Buff</h2>\n                        This Buff was created by <strong>sbc</strong> to compensate for differences between the input and the values FoundryVTT calculates automatically.\n                        <br><br>\n                        Especially when the pathfinder system gets upgraded, entries in compendiums get updated or foundry changes in some way, this buff may become outdated.\n                        <br><br>\n                        For most mooks the conversion should more or less work, but for important NPCs or creatures it is adviced to double check the conversion manually."
        },
        "tags": [],
        "changes": [
          {
            "formula": "-10",
            "modifier": "untypedPerm",
            "operator": "add",
            "priority": 0,
            "subTarget": "mhp",
            "target": "misc",
            "value": -10,
            "id": "rm80wsbk"
          }
        ],
        "contextNotes": [],
        "links": {
          "children": []
        },
        "tag": "sbcConversionBuff",
        "useCustomTag": true,
        "flags": {
          "boolean": [],
          "dictionary": []
        },
        "scriptCalls": [],
        "buffType": "perm",
        "active": true,
        "hideFromToken": true
      },
      "effects": [],
      "folder": null,
      "sort": 0,
      "permission": {
        "default": 0,
        "iM1ACTqH0Ml6HJtd": 3
      },
      "flags": {}
    }
  ],
  "effects": [],
  "folder": null,
  "sort": 0,
  "permission": {
    "default": 0
  },
  "flags": {}
}