{
  "_id": "bSMbXsW2yzAcGXez",
  "name": "Ogre Hunter",
  "type": "npc",
  "img": "systems/pf1/icons/races/ogre.png",
  "data": {
    "attributes": {
      "naturalAC": "+4",
      "hp": {
        "value": 9
      },
      "spells": {
        "usedSpellbooks": []
      }
    },
    "details": {
      "alignment": "ce",
      "cr": {
        "base": 9
      }
    },
    "traits": {
      "size": "lg",
      "senses": "darkvision 60 ft., low-light vision; Perception +13",
      "languages": {
        "value": []
      },
      "di": {
        "value": []
      },
      "dv": {
        "value": []
      },
      "ci": {
        "value": []
      },
      "stature": ""
    }
  },
  "token": {
    "name": "Ogre Hunter",
    "displayName": 20,
    "actorLink": false,
    "width": 2,
    "height": 2,
    "scale": 1,
    "mirrorX": false,
    "mirrorY": false,
    "lockRotation": false,
    "rotation": 0,
    "alpha": 1,
    "vision": false,
    "dimSight": 0,
    "brightSight": "60",
    "dimLight": 0,
    "brightLight": 0,
    "sightAngle": 0,
    "lightAngle": 0,
    "lightAlpha": 0.25,
    "lightAnimation": {
      "speed": 5,
      "intensity": 5
    },
    "disposition": -1,
    "displayBars": 20,
    "bar1": {
      "attribute": null
    },
    "bar2": {
      "attribute": null
    },
    "flags": {
      "pf1": {
        "lowLightVision": true
      }
    },
    "randomImg": false,
    "img": "systems/pf1/icons/races/ogre.png"
  },
  "items": [
    {
      "_id": "gZxiUYLYsGqQYwGZ",
      "name": "Ogre",
      "type": "race",
      "img": "systems/pf1/icons/races/ogre.png",
      "data": {
        "description": {
          "value": "<h2>Standard Racial Traits</h2>\n<ul>\n<li><strong>Ability Score Modifiers</strong>: Paragon (+4&nbsp;<a href=\"https://www.d20pfsrd.com/basics-ability-scores/ability-scores#TOC-Strength-Str-\">Str</a>, +2 Con, –2&nbsp;<a href=\"https://www.d20pfsrd.com/basics-ability-scores/ability-scores#TOC-Intelligence-Int-\">Int</a>, –2&nbsp;<a href=\"https://www.d20pfsrd.com/basics-ability-scores/ability-scores#TOC-Charisma-Cha-\">Cha</a>)</li>\n<li><strong>Type:</strong>&nbsp;<a href=\"https://www.d20pfsrd.com/bestiary/rules-for-monsters/creature-types#TOC-Humanoid\">Humanoid</a>&nbsp;(<a href=\"https://www.d20pfsrd.com/bestiary/rules-for-monsters/creature-types#TOC-Giant\">giant</a>)</li>\n<li><strong>Size:</strong> Large</li>\n<li><strong>Base Speed</strong>: Ogres have a base land speed of 40 ft.</li>\n<li><strong>Languages:</strong> Ogres only know Giant.</li>\n<li><strong>Natural Armor</strong>: Ogres have thick greasy skin, granting them a +2 natural armor bonus.</li>\n<li><strong>Darkvision:</strong> Ogres have&nbsp;<a href=\"https://www.d20pfsrd.com/gamemastering/special-abilities#TOC-Darkvision\">darkvision</a>&nbsp;and so can see perfectly in the dark up to 60 feet</li>\n<li><strong>Low-Light Vision</strong>: Ogres can see twice as far as&nbsp;<a href=\"https://www.d20pfsrd.com/races/core-races/human\">humans</a>&nbsp;in dim light (they have&nbsp;<a href=\"https://www.d20pfsrd.com/gamemastering/special-abilities#TOC-Low-Light-Vision\">low-light vision</a>)&nbsp;</li>\n</ul>"
        },
        "tags": [],
        "changes": [
          {
            "_id": "m5xcngfg",
            "formula": "4",
            "operator": "+",
            "subTarget": "str",
            "modifier": "racial",
            "priority": 0,
            "value": 0,
            "target": "ability"
          },
          {
            "_id": "8tew4zcy",
            "formula": "2",
            "operator": "+",
            "subTarget": "con",
            "modifier": "racial",
            "priority": 0,
            "value": 0,
            "target": "ability"
          },
          {
            "_id": "4uqlx7ij",
            "formula": "-2",
            "operator": "+",
            "subTarget": "int",
            "modifier": "racial",
            "priority": 0,
            "value": 0,
            "target": "ability"
          },
          {
            "_id": "cxae6jpw",
            "formula": "-2",
            "operator": "+",
            "subTarget": "cha",
            "modifier": "racial",
            "priority": 0,
            "value": 0,
            "target": "ability"
          },
          {
            "_id": "bkqv04h5",
            "formula": "2",
            "operator": "+",
            "subTarget": "nac",
            "modifier": "base",
            "priority": 0,
            "value": 0,
            "target": "ac"
          }
        ],
        "contextNotes": [],
        "links": {
          "children": []
        },
        "armorProf": {
          "value": []
        },
        "weaponProf": {
          "value": []
        },
        "flags": {
          "boolean": [],
          "dictionary": []
        },
        "scriptCalls": [],
        "subTypes": [
          [
            "Giant"
          ]
        ]
      },
      "effects": [],
      "folder": null,
      "sort": 0,
      "permission": {
        "default": 0
      },
      "flags": {}
    },
    {
      "_id": "w3wjj6s3N69BsMc3",
      "name": "Ranger",
      "type": "class",
      "img": "systems/pf1/icons/items/weapons/longbow.PNG",
      "data": {
        "description": {
          "value": "<p>For those who relish the thrill of the hunt, there are only predators and prey. Be they scouts, trackers, or bounty hunters, rangers share much in common: unique mastery of specialized weapons, skill at stalking even the most elusive game, and the expertise to defeat a wide range of quarries. Knowledgeable, patient, and skilled hunters, these rangers hound man, beast, and monster alike, gaining insight into the way of the predator, skill in varied environments, and ever more lethal martial prowess. While some track man-eating creatures to protect the frontier, others pursue more cunning game—even fugitives among their own people.</p>\n<p><strong>Role</strong>: Ranger are deft skirmishers, either in melee or at range, capable of skillfully dancing in and out of battle. Their abilities allow them to deal significant harm to specific types of foes, but their skills are valuable against all manner of enemies.</p>\n<p><strong>Alignment</strong>: Any</p>\n<p><strong>Hit Die</strong>: d10</p>\n<p><strong>Starting Wealth</strong>: 5d6 × 10 gp (average 175 gp.) In addition, each character begins play with an outfit worth 10 gp or less.</p>\n<h2><span id=\"Class_Skills\">Class Skills</span></h2>\n<p>The ranger’s class skills are <a href=\"https://www.d20pfsrd.com/skills/climb\">Climb</a>&nbsp;(<a href=\"https://www.d20pfsrd.com/basics-ability-scores/ability-scores#TOC-Strength-Str-\">Str</a>), <a href=\"https://www.d20pfsrd.com/skills/craft\">Craft</a>&nbsp;(<a href=\"https://www.d20pfsrd.com/basics-ability-scores/ability-scores#TOC-Intelligence-Int-\">Int</a>), <a href=\"https://www.d20pfsrd.com/skills/handle-animal\">Handle Animal</a>&nbsp;(<a href=\"https://www.d20pfsrd.com/basics-ability-scores/ability-scores#TOC-Charisma-Cha-\">Cha</a>), <a href=\"https://www.d20pfsrd.com/skills/heal\">Heal</a>&nbsp;(<a href=\"https://www.d20pfsrd.com/basics-ability-scores/ability-scores#TOC-Wisdom-Wis-\">Wis</a>), <a href=\"https://www.d20pfsrd.com/skills/intimidate\">Intimidate</a>&nbsp;(<a href=\"https://www.d20pfsrd.com/basics-ability-scores/ability-scores#TOC-Charisma-Cha-\">Cha</a>), <a href=\"https://www.d20pfsrd.com/skills/knowledge\">Knowledge</a>&nbsp;(dungeoneering) (<a href=\"https://www.d20pfsrd.com/basics-ability-scores/ability-scores#TOC-Intelligence-Int-\">Int</a>), <a href=\"https://www.d20pfsrd.com/skills/knowledge\">Knowledge</a>&nbsp;(geography) (<a href=\"https://www.d20pfsrd.com/basics-ability-scores/ability-scores#TOC-Intelligence-Int-\">Int</a>), <a href=\"https://www.d20pfsrd.com/skills/knowledge\">Knowledge</a>&nbsp;(nature) (<a href=\"https://www.d20pfsrd.com/basics-ability-scores/ability-scores#TOC-Intelligence-Int-\">Int</a>), <a href=\"https://www.d20pfsrd.com/skills/perception\">Perception</a>&nbsp;(<a href=\"https://www.d20pfsrd.com/basics-ability-scores/ability-scores#TOC-Wisdom-Wis-\">Wis</a>), <a href=\"https://www.d20pfsrd.com/skills/profession\">Profession</a>&nbsp;(<a href=\"https://www.d20pfsrd.com/basics-ability-scores/ability-scores#TOC-Wisdom-Wis-\">Wis</a>), <a href=\"https://www.d20pfsrd.com/skills/ride\">Ride</a>&nbsp;(<a href=\"https://www.d20pfsrd.com/basics-ability-scores/ability-scores#TOC-Dexterity-Dex-\">Dex</a>), <a href=\"https://www.d20pfsrd.com/skills/spellcraft\">Spellcraft</a>&nbsp;(<a href=\"https://www.d20pfsrd.com/basics-ability-scores/ability-scores#TOC-Intelligence-Int-\">Int</a>), <a href=\"https://www.d20pfsrd.com/skills/stealth\">Stealth</a>&nbsp;(<a href=\"https://www.d20pfsrd.com/basics-ability-scores/ability-scores#TOC-Dexterity-Dex-\">Dex</a>), <a href=\"https://www.d20pfsrd.com/skills/survival\">Survival</a>&nbsp;(<a href=\"https://www.d20pfsrd.com/basics-ability-scores/ability-scores#TOC-Wisdom-Wis-\">Wis</a>), and <a href=\"https://www.d20pfsrd.com/skills/swim\">Swim</a>&nbsp;(<a href=\"https://www.d20pfsrd.com/basics-ability-scores/ability-scores#TOC-Strength-Str-\">Str</a>).</p>\n<p><strong>Skill Ranks per Level</strong>: 6 +&nbsp;<a href=\"https://www.d20pfsrd.com/basics-ability-scores/ability-scores#TOC-Intelligence-Int-\">Int</a>&nbsp;modifier.</p>"
        },
        "tags": [],
        "changes": [],
        "links": {
          "children": [],
          "classAssociations": [
            {
              "id": "pf1.class-abilities.XmALhWqXdN9yOmtd",
              "dataType": "compendium",
              "name": "Favored Enemy",
              "img": "systems/pf1/icons/skills/blood_13.jpg",
              "hiddenLinks": {},
              "level": 1,
              "_index": 0
            },
            {
              "id": "pf1.class-abilities.U2YBSx1s8cT8iDq1",
              "dataType": "compendium",
              "name": "Favored Terrain",
              "img": "systems/pf1/icons/skills/green_18.jpg",
              "hiddenLinks": {},
              "level": 3,
              "_index": 1
            },
            {
              "id": "pf1.class-abilities.r8wPs0bB3WhOLxbX",
              "dataType": "compendium",
              "name": "Track",
              "img": "systems/pf1/icons/skills/beast_01.jpg",
              "hiddenLinks": {},
              "level": 1,
              "_index": 2
            },
            {
              "id": "pf1.class-abilities.Yr8dfM2d8JEWoYkr",
              "dataType": "compendium",
              "name": "Wild Empathy",
              "img": "systems/pf1/icons/skills/green_13.jpg",
              "hiddenLinks": {},
              "level": 1,
              "_index": 3
            },
            {
              "id": "pf1.class-abilities.BO7BEFHDcf6qBaYV",
              "dataType": "compendium",
              "name": "Combat Style Feat",
              "img": "systems/pf1/icons/feats/double-slice.jpg",
              "hiddenLinks": {},
              "level": 2,
              "_index": 4
            },
            {
              "id": "pf1.class-abilities.E0skJEqlJOvB5CoA",
              "dataType": "compendium",
              "name": "Endurance",
              "img": "systems/pf1/icons/feats/athletic.jpg",
              "hiddenLinks": {},
              "level": 3,
              "_index": 5
            },
            {
              "id": "pf1.class-abilities.Bs5i98ja24ODe9WL",
              "dataType": "compendium",
              "name": "Hunter's Bond",
              "img": "systems/pf1/icons/skills/green_21.jpg",
              "hiddenLinks": {},
              "level": 4,
              "_index": 6
            },
            {
              "id": "pf1.class-abilities.5iXq1igb1Cq0qobT",
              "dataType": "compendium",
              "name": "Woodland Stride",
              "img": "systems/pf1/icons/skills/green_16.jpg",
              "hiddenLinks": {},
              "level": 7,
              "_index": 7
            },
            {
              "id": "pf1.class-abilities.sk0HNTe9lKBpHQpN",
              "dataType": "compendium",
              "name": "Swift Tracker",
              "img": "systems/pf1/icons/skills/green_20.jpg",
              "hiddenLinks": {},
              "level": 8,
              "_index": 8
            },
            {
              "id": "pf1.class-abilities.KQYCRLEdD4bGA5ak",
              "dataType": "compendium",
              "name": "Evasion",
              "img": "systems/pf1/icons/skills/blue_06.jpg",
              "hiddenLinks": {},
              "level": 9,
              "_index": 9
            },
            {
              "id": "pf1.class-abilities.5NS7Ec3WhKIkhygg",
              "dataType": "compendium",
              "name": "Quarry",
              "img": "systems/pf1/icons/skills/arrow_05.jpg",
              "hiddenLinks": {},
              "level": 11,
              "_index": 10
            },
            {
              "id": "pf1.class-abilities.E90iE6Ynyq1cgGXA",
              "dataType": "compendium",
              "name": "Camouflage",
              "img": "systems/pf1/icons/skills/green_18.jpg",
              "hiddenLinks": {},
              "level": 12,
              "_index": 11
            },
            {
              "id": "pf1.class-abilities.Cc2eFfhJYlClCGEH",
              "dataType": "compendium",
              "name": "Improved Evasion",
              "img": "systems/pf1/icons/skills/blue_06.jpg",
              "hiddenLinks": {},
              "level": 16,
              "_index": 12
            },
            {
              "id": "pf1.class-abilities.ytotO22rp5ji6rT1",
              "dataType": "compendium",
              "name": "Hide in Plain Sight",
              "img": "systems/pf1/icons/skills/emerald_09.jpg",
              "hiddenLinks": {},
              "level": 17,
              "_index": 13
            },
            {
              "id": "pf1.class-abilities.oRac7XDHBN0JzuyY",
              "dataType": "compendium",
              "name": "Improved Quarry",
              "img": "systems/pf1/icons/skills/emerald_10.jpg",
              "hiddenLinks": {},
              "level": 19,
              "_index": 14
            },
            {
              "id": "pf1.class-abilities.GAHaeOGTBeR6LJ3K",
              "dataType": "compendium",
              "name": "Master Hunter",
              "img": "systems/pf1/icons/skills/arrow_06.jpg",
              "hiddenLinks": {},
              "level": 20,
              "_index": 15
            }
          ]
        },
        "tag": "ranger",
        "useCustomTag": true,
        "armorProf": {
          "value": [
            "lgt",
            "med",
            "shl"
          ]
        },
        "weaponProf": {
          "value": [
            "sim",
            "mar"
          ]
        },
        "flags": {
          "boolean": [],
          "dictionary": []
        },
        "scriptCalls": [],
        "level": 6,
        "hd": 10,
        "hp": 0,
        "bab": "high",
        "skillsPerLevel": 6,
        "savingThrows": {
          "fort": {
            "value": "high"
          },
          "ref": {
            "value": "high"
          }
        },
        "classSkills": {
          "acr": false,
          "apr": false,
          "art": false,
          "blf": false,
          "clm": true,
          "crf": true,
          "dip": false,
          "dev": false,
          "dis": false,
          "esc": false,
          "fly": false,
          "han": true,
          "hea": true,
          "int": true,
          "kar": false,
          "kdu": true,
          "ken": false,
          "kge": true,
          "khi": false,
          "klo": false,
          "kna": true,
          "kno": false,
          "kpl": false,
          "kre": false,
          "lin": false,
          "lor": false,
          "per": true,
          "prf": false,
          "pro": true,
          "rid": true,
          "sen": false,
          "slt": false,
          "spl": true,
          "ste": true,
          "sur": true,
          "swm": true,
          "umd": false
        }
      },
      "effects": [],
      "folder": null,
      "sort": 0,
      "permission": {
        "default": 0
      },
      "flags": {}
    },
    {
      "_id": "S38eYYsK7pRhPbwg",
      "name": "Humanoid (Giant)",
      "type": "class",
      "img": "systems/pf1/icons/skills/blue_35.jpg",
      "data": {
        "description": {
          "value": "<p>A humanoid usually has two arms, two legs, and one head, or a human-like torso, arms, and a head. Humanoids have few or no supernatural or extraordinary abilities, but most can speak and usually have well-developed societies. They are usually Small or Medium (with the exception of giants). Every humanoid creature also has a specific subtype to match its race, such as human, giant, goblinoid, reptilian, or tengu.</p>\n<p>Humanoids with 1 Hit Die exchange the features of their humanoid Hit Die for the class features of a PC or NPC class. Humanoids of this sort are typically presented as 1st-level warriors, which means they have average combat ability and poor saving throws. Humanoids with more than 1 Hit Die are the only humanoids who make use of the features of the humanoid type.</p>\n<h2><span id=\"Features\">Features</span></h2>\n<p>A humanoid has the following features (unless otherwise noted in a creature’s entry).</p>\n<ul>\n<li>d8 Hit Die, or by character class.</li>\n<li>Base attack bonus equal to 3/4 total Hit Dice (medium progression).</li>\n<li>One good save, usually&nbsp;<a href=\"https://www.d20pfsrd.com/gamemastering/combat#TOC-Reflex\" rel=\"nofollow\">Reflex</a>.</li>\n<li>Skill points equal to 2 + Int modifier (minimum 1) per Hit Die or by character class. The following are class skills for humanoids without a character class: <a href=\"https://www.d20pfsrd.com/skills/climb\" rel=\"nofollow\">Climb</a>, <a href=\"https://www.d20pfsrd.com/skills/craft\" rel=\"nofollow\">Craft</a>, <a href=\"https://www.d20pfsrd.com/skills/handle-animal\" rel=\"nofollow\">Handle Animal</a>, <a href=\"https://www.d20pfsrd.com/skills/heal\" rel=\"nofollow\">Heal</a>, <a href=\"https://www.d20pfsrd.com/skills/profession\" rel=\"nofollow\">Profession</a>, <a href=\"https://www.d20pfsrd.com/skills/ride\" rel=\"nofollow\">Ride</a>, and <a href=\"https://www.d20pfsrd.com/skills/survival\" rel=\"nofollow\">Survival</a>. Humanoids with a character class use their class’s skill list instead.</li>\n</ul>\n<h2><span id=\"Traits\"><a name=\"TOC-Traits\"></a>Traits</span></h2>\n<p>A humanoid possesses the following traits (unless otherwise noted in a creature’s entry).</p>\n<ul>\n<li>Proficient with all simple weapons, or by character class.</li>\n<li>Proficient with whatever type of armor (light, medium, or heavy) it is described as wearing, or by character class. If a humanoid does not have a class and wears&nbsp;<a href=\"https://www.d20pfsrd.com/basics-ability-scores/glossary#TOC-Armor-Bonus\">armor</a>, it is proficient with that type of armor and all lighter types. Humanoids not indicated as wearing armor are not proficient with armor. Humanoids are proficient with shields if they are proficient with any form of armor.</li>\n<li>Humanoids breathe, eat, and sleep.</li>\n</ul>"
        },
        "tags": [],
        "changes": [],
        "links": "",
        "tag": "humanoid",
        "useCustomTag": true,
        "armorProf": {
          "value": []
        },
        "weaponProf": {
          "value": []
        },
        "flags": {
          "boolean": [],
          "dictionary": []
        },
        "scriptCalls": [],
        "classType": "racial",
        "level": 0,
        "hp": 3,
        "bab": "med",
        "skillsPerLevel": 2,
        "savingThrows": {
          "ref": {
            "value": "high"
          }
        },
        "classSkills": {
          "acr": false,
          "apr": false,
          "art": false,
          "blf": false,
          "clm": true,
          "crf": true,
          "dip": false,
          "dev": false,
          "dis": false,
          "esc": false,
          "fly": false,
          "han": true,
          "hea": true,
          "int": false,
          "kar": false,
          "kdu": false,
          "ken": false,
          "kge": false,
          "khi": false,
          "klo": false,
          "kna": false,
          "kno": false,
          "kpl": false,
          "kre": false,
          "lin": false,
          "lor": false,
          "per": false,
          "prf": false,
          "pro": true,
          "rid": true,
          "sen": false,
          "slt": false,
          "spl": false,
          "ste": false,
          "sur": true,
          "swm": false,
          "umd": false
        }
      },
      "effects": [],
      "folder": null,
      "sort": 0,
      "permission": {
        "default": 0
      },
      "flags": {}
    },
    {
      "_id": "tejzc1f9a7f5gnze",
      "name": "Sense: Darkvision 60ft.",
      "type": "feat",
      "img": "systems/pf1/icons/skills/shadow_12.jpg",
      "data": {
        "description": {
          "value": "Darkvision is the extraordinary ability to see with no light source at all, out to a range specified for the creature. Darkvision is black-and-white only (colors cannot be discerned). It does not allow characters to see anything that they could not see otherwise—invisible objects are still invisible, and illusions are still visible as what they seem to be. Likewise, darkvision subjects a creature to gaze attacks normally. The presence of light does not spoil darkvision."
        },
        "tags": [],
        "damage": {
          "parts": [],
          "critParts": [],
          "nonCritParts": []
        },
        "attackParts": [],
        "effectNotes": [],
        "attackNotes": [],
        "changes": [],
        "contextNotes": [],
        "links": {
          "children": [],
          "charges": []
        },
        "tag": "senseDarkvision60ft",
        "armorProf": {
          "value": []
        },
        "weaponProf": {
          "value": []
        },
        "flags": {
          "boolean": [],
          "dictionary": []
        },
        "scriptCalls": [],
        "featType": "racial",
        "associations": {
          "classes": []
        },
        "abilityType": "ex"
      },
      "effects": [],
      "folder": null,
      "sort": 0,
      "permission": {
        "default": 0
      },
      "flags": {}
    },
    {
      "_id": "wies3fqnmaihvyhh",
      "name": "Sense: Low-light Vision",
      "type": "feat",
      "img": "systems/pf1/icons/skills/shadow_11.jpg",
      "data": {
        "description": {
          "value": "A creature with low-light vision can see twice as far as a human in starlight, moonlight, torchlight, and similar conditions of dim light. It retains the ability to distinguish color and detail under these conditions."
        },
        "tags": [],
        "damage": {
          "parts": [],
          "critParts": [],
          "nonCritParts": []
        },
        "attackParts": [],
        "effectNotes": [],
        "attackNotes": [],
        "changes": [],
        "contextNotes": [],
        "links": {
          "children": [],
          "charges": []
        },
        "tag": "senseLowlightVision",
        "armorProf": {
          "value": []
        },
        "weaponProf": {
          "value": []
        },
        "flags": {
          "boolean": [],
          "dictionary": []
        },
        "scriptCalls": [],
        "featType": "racial",
        "associations": {
          "classes": []
        },
        "abilityType": "ex"
      },
      "effects": [],
      "folder": null,
      "sort": 0,
      "permission": {
        "default": 0
      },
      "flags": {}
    },
    {
      "_id": "KQYCRLEdD4bGA5ak",
      "name": "Evasion",
      "type": "feat",
      "img": "systems/pf1/icons/skills/blue_06.jpg",
      "data": {
        "description": {
          "value": "<p>This character can avoid damage from many area-effect attacks. If she makes a successful <a href=\"https://www.d20pfsrd.com/gamemastering/combat#TOC-Reflex\">Reflex</a>&nbsp;<a href=\"https://www.d20pfsrd.com/gamemastering/combat#TOC-Saving-Throws\">saving throw</a> against an attack that normally deals half damage on a successful save, she instead takes no damage. Evasion can be used only if the character is wearing light armor or no armor. A <a href=\"https://www.d20pfsrd.com/gamemastering/conditions#TOC-Helpless\">helpless</a> character does not gain the benefit of <a href=\"https://www.d20pfsrd.com/classes/core-classes/rogue#TOC-Evasion-Ex-\">evasion</a>.</p>"
        },
        "tags": [],
        "activation": {
          "type": "passive"
        },
        "unchainedAction": {
          "activation": {
            "type": "passive"
          }
        },
        "uses": {
          "per": ""
        },
        "measureTemplate": {
          "size": "0"
        },
        "actionType": "",
        "damage": {
          "parts": [],
          "critParts": [],
          "nonCritParts": []
        },
        "attackParts": [],
        "effectNotes": [],
        "attackNotes": [],
        "changes": [],
        "contextNotes": [
          {
            "subTarget": "ref",
            "target": "savingThrows",
            "text": "Evasion"
          }
        ],
        "links": {
          "children": [],
          "charges": []
        },
        "tag": "evasion",
        "armorProf": {
          "value": []
        },
        "weaponProf": {
          "value": []
        },
        "flags": {
          "boolean": [],
          "dictionary": []
        },
        "scriptCalls": [],
        "featType": "classFeat",
        "associations": {
          "classes": [
            [
              "Monk"
            ],
            [
              "Rogue"
            ]
          ]
        },
        "abilityType": "ex"
      },
      "effects": [],
      "folder": null,
      "sort": 0,
      "permission": {
        "default": 0
      },
      "flags": {}
    },
    {
      "_id": "i2r2fwewkusc41n4",
      "name": "Tactics",
      "type": "feat",
      "img": "icons/skills/targeting/crosshair-pointed-orange.webp",
      "data": {
        "description": {
          "value": "<div><strong>During Combat</strong>:  The hunter prefers to charge into melee to make use of his rhino hide charge bonus. If he has an advantage in the battle, he uses nonlethal attacks to capture prey alive, because live captives are more fun for him and his family. He sets his wolf companion on any spellcasters who are bothering him. If he thinks he might be slain, he mercilessly carves through his foes, focusing on killing any humans first.</div>"
        },
        "tags": [],
        "damage": {
          "parts": [],
          "critParts": [],
          "nonCritParts": []
        },
        "attackParts": [],
        "effectNotes": [],
        "attackNotes": [],
        "changes": [],
        "contextNotes": [],
        "links": {
          "children": [],
          "charges": []
        },
        "armorProf": {
          "value": []
        },
        "weaponProf": {
          "value": []
        },
        "flags": {
          "boolean": [],
          "dictionary": []
        },
        "scriptCalls": [],
        "featType": "misc",
        "associations": {
          "classes": []
        }
      },
      "effects": [],
      "folder": null,
      "sort": 0,
      "permission": {
        "default": 0
      },
      "flags": {}
    },
    {
      "_id": "14kmoi8ot1ldzdln",
      "name": "Ecology",
      "type": "feat",
      "img": "icons/environment/wilderness/tree-oak.webp",
      "data": {
        "description": {
          "value": "<div><strong>Environment</strong>:  temperate or cold hills</div>"
        },
        "tags": [],
        "damage": {
          "parts": [],
          "critParts": [],
          "nonCritParts": []
        },
        "attackParts": [],
        "effectNotes": [],
        "attackNotes": [],
        "changes": [],
        "contextNotes": [],
        "links": {
          "children": [],
          "charges": []
        },
        "armorProf": {
          "value": []
        },
        "weaponProf": {
          "value": []
        },
        "flags": {
          "boolean": [],
          "dictionary": []
        },
        "scriptCalls": [],
        "featType": "misc",
        "associations": {
          "classes": []
        }
      },
      "effects": [],
      "folder": null,
      "sort": 0,
      "permission": {
        "default": 0
      },
      "flags": {}
    },
    {
      "_id": "6F4WChi372h8vtFA",
      "name": "sbc | Conversion Buff",
      "type": "buff",
      "img": "systems/pf1/icons/skills/yellow_36.jpg",
      "data": {
        "description": {
          "value": "<h2>sbc | Conversion Buff</h2>\n                        This Buff was created by <strong>sbc</strong> to compensate for differences between the input and the values FoundryVTT calculates automatically.\n                        <br><br>\n                        Especially when the pathfinder system gets upgraded, entries in compendiums get updated or foundry changes in some way, this buff may become outdated.\n                        <br><br>\n                        For most mooks the conversion should more or less work, but for important NPCs or creatures it is adviced to double check the conversion manually."
        },
        "tags": [],
        "changes": [
          {
            "formula": "5",
            "modifier": "untypedPerm",
            "operator": "add",
            "priority": 0,
            "subTarget": "init",
            "target": "misc",
            "value": 5,
            "id": "0tdozgkw"
          },
          {
            "formula": "10",
            "modifier": "untypedPerm",
            "operator": "add",
            "priority": 0,
            "subTarget": "mhp",
            "target": "misc",
            "value": 10,
            "id": "m5l70bn5"
          },
          {
            "formula": "-1",
            "modifier": "untypedPerm",
            "operator": "add",
            "priority": 0,
            "subTarget": "fort",
            "target": "savingThrows",
            "value": -1,
            "id": "uvrzfyql"
          },
          {
            "formula": "-1",
            "modifier": "untypedPerm",
            "operator": "add",
            "priority": 0,
            "subTarget": "ref",
            "target": "savingThrows",
            "value": -1,
            "id": "aw83xoot"
          },
          {
            "formula": "4",
            "modifier": "untypedPerm",
            "operator": "add",
            "priority": 0,
            "subTarget": "aac",
            "target": "ac",
            "value": 4,
            "id": "tz68iefc"
          }
        ],
        "contextNotes": [],
        "links": {
          "children": []
        },
        "tag": "sbcConversionBuff",
        "useCustomTag": true,
        "flags": {
          "boolean": [],
          "dictionary": []
        },
        "scriptCalls": [],
        "buffType": "perm",
        "active": true,
        "hideFromToken": true
      },
      "effects": [],
      "folder": null,
      "sort": 0,
      "permission": {
        "default": 0,
        "iM1ACTqH0Ml6HJtd": 3
      },
      "flags": {}
    }
  ],
  "effects": [],
  "folder": null,
  "sort": 0,
  "permission": {
    "default": 0
  },
  "flags": {}
}