{
  "_id": "wyHkNS55oyo3fPGM",
  "name": "Assault Bridge, Huge",
  "type": "weapon",
  "img": "icons/sundries/misc/ladder.webp",
  "data": {
    "description": {
      "value": "<p><strong>Source</strong> <em>Ultimate Combat pg. 165</em></p><h3 class=\"framing\">Statistics</h3><p><strong>Cost</strong> 10 gp <strong>Weight</strong> -</p><p><strong>Damage</strong> -; <strong>Critical</strong> -; <strong>Range</strong> -; <strong>Type</strong> -</p><p><strong>Crew</strong> 0; <strong>Aim</strong> 0; <strong>Load</strong> 0; <strong>Speed</strong> 0 ft.</p><p><strong>Category</strong> Close Assault; <strong>Proficiency</strong> Siege Engine</p><h3 class=\"framing\">Description</h3><p>An assault bridge is used to span a ditch, moat, or other gap. Raising an assault bridge requires one full-round action per 5 feet of length; up to four creatures may cooperate to raise a bridge. The time required is doubled for each size category that the bridge is larger than the creatures raising it. Large assault bridges have 40 hit points, Huge ones have 60 hit points, Gargantuan ones have 160 hit points, and Colossal ones have 240 hit points.</p><p></p><p><h2>Table 3-16: Bridges and Escalade Ladders</h2><table class=\"inner\"><tbody><tr><td><strong>Size</strong></td><td><strong>Width</strong></td><td><strong>Length/Height</strong></td></tr><tr><td>Large</td><td>5 ft.</td><td>20 ft.</td></tr><tr><td>Huge</td><td>5 ft.</td><td>30 ft.</td></tr><tr><td>Gargantuan</td><td>10 ft.</td><td>40 ft.</td></tr><tr><td>Colossal</td><td>10 ft.</td><td>60 ft.</td></tr></tbody></table></p>"
    },
    "tags": [],
    "price": 10,
    "hardness": 10,
    "changes": [],
    "contextNotes": [],
    "links": {
      "children": []
    },
    "tag": "assaultBridgeHuge",
    "flags": {
      "boolean": [],
      "dictionary": []
    },
    "scriptCalls": [],
    "weaponType": "misc",
    "weaponSubtype": "other",
    "weaponData": {
      "critRange": "NULL",
      "critMult": "2",
      "range": 0
    }
  },
  "effects": [],
  "folder": null,
  "sort": 0,
  "permission": {
    "default": 0
  },
  "flags": {}
}