{
  "_id": "huwXevOSIgMnwPgl",
  "name": "Barbed Spear",
  "type": "weapon",
  "img": "icons/weapons/polearms/spear-simple-barbed.webp",
  "data": {
    "description": {
      "value": "<p><strong>Source</strong> <em>Giant Hunter's Handbook pg. 24</em></p><h3 class=\"framing\"><img src=\"https://www.aonprd.com/images/PathfinderSocietySymbol.gif\" title=\"PFS Legal\" style=\"margin:3px 3px 0px 3px;\">Statistics</h3><p><strong>Cost</strong> 15 gp <strong>Weight</strong> 10 lbs.</p><p><strong>Damage</strong> 1d4 (small), 1d6 (medium); <strong>Critical</strong> x2; <strong>Range</strong> -; <strong>Type</strong> P; <strong>Special</strong> fragile, reach, see text</p><p><strong>Category</strong> Two-Handed; <strong>Proficiency</strong> Exotic</p><h3 class=\"framing\">Description</h3><p>A barbed spear is a 10-foot-long polearm with a fourpronged head similar to a caltrop. The head is connected to the pole by a single weak bolt, giving the weapon the fragile condition. When you use a barbed spear to attack a creature that is prone, flying above you, or at least one size category larger than you, you can make a melee attack with a -4 penalty to jam the barbed head into the target's foot. If you're successful, the target takes 1 point of damage and the barbed head breaks off in the target's foot. The barb then acts as a caltrop, wounding the creature's foot and halving its speed. This movement penalty lasts for 24 hours, or until the creature is treated with a successful DC 15 Heal check or receives at least 1 point of magical healing. Like caltrops, barbed spears may not work against unusual opponents. A barbed spear that embeds its caltrop-like head into a target's foot gains the broken condition, and can't be used as a weapon until it's repaired.</p>"
    },
    "tags": [],
    "weight": 10,
    "price": 15,
    "hardness": 10,
    "identifiedName": "Barbed Spear",
    "changes": [],
    "contextNotes": [],
    "links": {
      "children": []
    },
    "tag": "barbedSpear",
    "flags": {
      "boolean": [],
      "dictionary": []
    },
    "scriptCalls": [],
    "weaponType": "exotic",
    "weaponSubtype": "2h",
    "weaponData": {
      "damageRoll": "1d6",
      "damageType": "P",
      "range": 0
    }
  },
  "effects": [],
  "folder": null,
  "sort": 0,
  "permission": {
    "default": 0
  },
  "flags": {}
}