{
  "_id": "iSURd9p5uDXTaQwP",
  "name": "Bayonet",
  "type": "weapon",
  "img": "systems/pf1/icons/items/weapons/bayonet.PNG",
  "data": {
    "description": {
      "value": "<p><strong>Source</strong> <em>Ultimate Equipment pg. 17</em>, <em>Adventurer's Armory pg. 2</em>, <em>Pirates of the Inner Sea pg. 19</em>, <em>Advanced Player's Guide pg. 176</em>, <em>Skull and Shackles Player's Guide pg. 6</em></p><h3 class=\"framing\">Statistics</h3><p><strong>Cost</strong> 5 gp <strong>Weight</strong> 1 lb.</p><p><strong>Damage</strong> 1d4 (small), 1d6 (medium); <strong>Critical</strong> x2; <strong>Range</strong> -; <strong>Type</strong> P; <strong>Special</strong> -</p><p><strong>Category</strong> Two-Handed; <strong>Proficiency</strong> Simple</p><p><strong>Weapon Groups</strong> Blades, Light; Close</p><h3 class=\"framing\">Description</h3><p>Bayonets are close combat weapons designed to fit into the grooves or muzzles of crossbows and firearms. They allow you to make melee attacks with these weapons but render them temporarily useless as ranged weapons. Attaching or removing a bayonet is a move action.</p>"
    },
    "tags": [],
    "weight": 1,
    "price": 5,
    "hardness": 10,
    "identifiedName": "Bayonet",
    "changes": [],
    "contextNotes": [],
    "links": {
      "children": []
    },
    "tag": "bayonet",
    "flags": {
      "boolean": [],
      "dictionary": []
    },
    "scriptCalls": [],
    "weaponSubtype": "2h",
    "weaponData": {
      "damageRoll": "1d6",
      "damageType": "P",
      "range": 0
    }
  },
  "effects": [],
  "folder": null,
  "sort": 0,
  "permission": {
    "default": 0
  },
  "flags": {}
}