{
  "_id": "n0vno5RNBzsHvH33",
  "name": "Brutal Bola",
  "type": "weapon",
  "img": "systems/pf1/icons/items/weapons/bolas.png",
  "data": {
    "description": {
      "value": "<p>These bolas function as standard&nbsp;<a href=\"https://www.d20pfsrd.com/equipment/weapons/weapon-descriptions/bolas\">bolas</a>, but they deal lethal damage rather than&nbsp;<a href=\"https://www.d20pfsrd.com/gamemastering/combat#TOC-Nonlethal-Damage\">nonlethal damage</a>.</p>"
    },
    "tags": [],
    "weight": 2,
    "price": 15,
    "hp": {
      "max": 5,
      "value": 5
    },
    "hardness": 5,
    "changes": [],
    "contextNotes": [],
    "links": {
      "children": []
    },
    "flags": {
      "boolean": [],
      "dictionary": []
    },
    "scriptCalls": [],
    "weaponType": "exotic",
    "weaponSubtype": "ranged",
    "weaponData": {
      "damageRoll": "1d4",
      "damageType": "B and P",
      "critRange": "20",
      "critMult": "2",
      "range": 10,
      "maxRangeIncrements": 5
    }
  },
  "effects": [],
  "folder": null,
  "sort": 0,
  "permission": {
    "default": 0
  },
  "flags": {}
}