{
  "_id": "sSvnAbXKDOSrMvGc",
  "name": "Cestus",
  "type": "weapon",
  "img": "systems/pf1/icons/items/weapons/cestus.png",
  "data": {
    "description": {
      "value": "<p><strong>Source</strong> <em>Ultimate Equipment pg. 17</em>, <em>Adventurer's Armory pg. 3</em>, <em>Advanced Player's Guide pg. 176</em></p><h3 class=\"framing\"><img src=\"https://www.aonprd.com/images/PathfinderSocietySymbol.gif\" title=\"PFS Legal\" style=\"margin:3px 3px 0px 3px;\">Statistics</h3><p><strong>Cost</strong> 5 gp <strong>Weight</strong> 1 lb.</p><p><strong>Damage</strong> 1d3 (small), 1d4 (medium); <strong>Critical</strong> 19-20/x2; <strong>Range</strong> -; <strong>Type</strong> B or P; <strong>Special</strong> monk, see text</p><p><strong>Category</strong> Light; <strong>Proficiency</strong> Simple</p><p><strong>Weapon Groups</strong> Close; Monk</p><h3 class=\"framing\">Description</h3><p>The cestus is a glove of leather or thick cloth that covers the wielder from mid-finger to mid-forearm. The close combat weapon is reinforced with metal plates over the fingers and often lined with wicked spikes along the backs of the hands and wrists. While wearing a cestus, you are considered armed and your unarmed attacks deal lethal damage. If you are proficient with a cestus, you can have your unarmed strikes deal bludgeoning or piercing damage. Monks are proficient with the cestus. When using a cestus, your fingers are mostly exposed, allowing you to wield or carry items in that hand, but the constriction of the weapon at your knuckles gives you a -2 penalty on all precision-based tasks involving that hand (such as opening locks). A cestus can't be disarmed.</p>"
    },
    "tags": [],
    "weight": 1,
    "price": 5,
    "hp": {
      "max": 2,
      "value": 2
    },
    "hardness": 10,
    "identifiedName": "Cestus",
    "changes": [],
    "contextNotes": [],
    "links": {
      "children": []
    },
    "tag": "cestus",
    "flags": {
      "boolean": [],
      "dictionary": []
    },
    "scriptCalls": [],
    "weaponData": {
      "damageRoll": "1d4",
      "damageType": "B or P",
      "critRange": 19,
      "range": 0
    }
  },
  "effects": [],
  "folder": null,
  "sort": 0,
  "permission": {
    "default": 0
  },
  "flags": {}
}