{
  "_id": "aQRocmXzAwvZkBEZ",
  "name": "Chain Spear",
  "type": "weapon",
  "img": "systems/pf1/icons/items/weapons/spear.png",
  "data": {
    "description": {
      "value": "<p><strong>Source</strong> <em>Ultimate Equipment pg. 20</em>, <em>Pathfinder Campaign Setting pg. 209</em>, <em>Crown of the Kobold King pg. 17</em>, <em>Revenge of the Kobold King pg. 13</em>, <em>Adventurer's Armory pg. 3</em>, <em>Advanced Player's Guide pg. 178</em></p><h3 class=\"framing\"><img src=\"https://www.aonprd.com/images/PathfinderSocietySymbol.gif\" title=\"PFS Legal\" style=\"margin:3px 3px 0px 3px;\">Statistics</h3><p><strong>Cost</strong> 15 gp <strong>Weight</strong> 13 lbs.</p><p><strong>Damage</strong> 1d4/1d4 (small), 1d6/1d6 (medium); <strong>Critical</strong> x2; <strong>Range</strong> -; <strong>Type</strong> P and S; <strong>Special</strong> double, trip</p><p><strong>Category</strong> Two-Handed; <strong>Proficiency</strong> Exotic</p><p><strong>Weapon Groups</strong> Double; Flails; Spears</p><h3 class=\"framing\">Description</h3><p>This vicious weapon is often used in gladiatorial events due to its versatility. The body of the weapon is a standard short spear, primarily used for thrusting. The butt of the spear is fitted with a length of chain, often spiked, with a hook at the end. The hook and chain may be used to make trip attacks. If your trip attack fails by 10 or more, you may drop the chain spear to avoid being knocked prone.</p>"
    },
    "tags": [],
    "weight": 13,
    "price": 15,
    "hardness": 10,
    "identifiedName": "Chain Spear",
    "changes": [],
    "contextNotes": [],
    "links": {
      "children": []
    },
    "tag": "chainSpear",
    "flags": {
      "boolean": [],
      "dictionary": []
    },
    "scriptCalls": [],
    "weaponType": "exotic",
    "weaponSubtype": "2h",
    "weaponData": {
      "damageRoll": "1d6",
      "damageType": "P and S",
      "critRange": "",
      "critMult": "2",
      "range": 0
    }
  },
  "effects": [],
  "folder": null,
  "sort": 0,
  "permission": {
    "default": 0
  },
  "flags": {}
}