{
  "_id": "DGp5B70pcMEfcnqx",
  "name": "Dan Bong",
  "type": "weapon",
  "img": "systems/pf1/icons/items/weapons/blowgun.PNG",
  "data": {
    "description": {
      "value": "<p><strong>Source</strong> <em>Ultimate Equipment pg. 20</em>, <em>Ultimate Combat pg. 130</em></p><h3 class=\"framing\"><img src=\"https://www.aonprd.com/images/PathfinderSocietySymbol.gif\" title=\"PFS Legal\" style=\"margin:3px 3px 0px 3px;\">Statistics</h3><p><strong>Cost</strong> 1 sp <strong>Weight</strong> -</p><p><strong>Damage</strong> 1d2 (small), 1d3 (medium); <strong>Critical</strong> 19-20/x2; <strong>Range</strong> 10 ft.; <strong>Type</strong> B; <strong>Special</strong> blocking, monk, see text</p><p><strong>Category</strong> Light; <strong>Proficiency</strong> Exotic</p><p><strong>Weapon Groups</strong> Close; Monk</p><h3 class=\"framing\">Description</h3><p>These short, blunt sticks are held in the hands to enhance unarmed martial techniques and secured by a cord looped over the thumb. They provide the wielder with the ability to lock an opponent and target pressure points, granting you a +2 bonus on combat maneuver checks to grapple.</p>"
    },
    "tags": [],
    "price": 0.1,
    "hp": {
      "max": 2,
      "value": 2
    },
    "hardness": 10,
    "identifiedName": "Dan Bong",
    "changes": [],
    "contextNotes": [],
    "links": {
      "children": []
    },
    "tag": "danBong",
    "flags": {
      "boolean": [],
      "dictionary": []
    },
    "scriptCalls": [],
    "weaponType": "exotic",
    "weaponData": {
      "damageRoll": "1d3",
      "damageType": "B",
      "critRange": 19,
      "range": 10
    }
  },
  "effects": [],
  "folder": null,
  "sort": 0,
  "permission": {
    "default": 0
  },
  "flags": {}
}