{
  "_id": "uzKEhoSnSenjM9TJ",
  "name": "Distance Arrow",
  "type": "loot",
  "img": "systems/pf1/icons/items/weapons/arrow.PNG",
  "data": {
    "description": {
      "value": "<p>Used tactically for long-range attacks on troops, these arrows are fitted with heavy iron heads. While these heads help them travel great distances, they make the arrows less effective at dealing damage.</p>\n<p><strong>Benefit</strong>: Iron-tipped distance arrows increase their bow’s range increment by 10 feet but take a –1 penalty on damage dealt per range increment (minimum 1 point of damage). They are sold in leather quivers in quantities of 20.</p>"
    },
    "tags": [],
    "weight": 0.2,
    "price": 0.05,
    "hp": {
      "max": 1,
      "value": 1
    },
    "hardness": 5,
    "unidentified": {
      "price": 0.05
    },
    "identifiedName": "Distance Arrow",
    "changes": [],
    "contextNotes": [],
    "links": {
      "children": []
    },
    "flags": {
      "boolean": [],
      "dictionary": []
    },
    "scriptCalls": [],
    "subType": "ammo",
    "equipped": false
  },
  "effects": [],
  "folder": null,
  "sort": 0,
  "permission": {
    "default": 0
  },
  "flags": {}
}