{
  "_id": "0amLz3l4v3ICwuSk",
  "name": "Doru",
  "type": "weapon",
  "img": "icons/weapons/polearms/pike-flared-brown.webp",
  "data": {
    "description": {
      "value": "<p><strong>Source</strong> <em>Distant Shores pg. 12</em></p>\n<h3 class=\"framing\">Statistics</h3>\n<p><strong>Cost</strong> 4 gp <strong>Weight</strong> 6 lbs.</p>\n<p><strong>Damage</strong> 1d6 (small), 1d8 (medium); <strong>Critical</strong> x3; <strong>Range</strong> 20 ft.; <strong>Type</strong> P; <strong>Special</strong> brace</p>\n<p><strong>Category</strong> One-Handed; <strong>Proficiency</strong> Exotic</p>\n<h3 class=\"framing\">Description</h3>\n<p>Balanced by a metal butt, this large spear is weighted so that it can be used in one hand by a proficient wielder. You can use a doru two-handed as a simple weapon. You can also use a doru as a onehanded martial weapon, but its critical hit multiplier decreases to x2.</p>"
    },
    "tags": [],
    "weight": 6,
    "price": 4,
    "hp": {
      "max": 5,
      "value": 5
    },
    "hardness": 10,
    "identifiedName": "Doru",
    "changes": [],
    "contextNotes": [],
    "links": {
      "children": []
    },
    "tag": "doru",
    "flags": {
      "boolean": [],
      "dictionary": []
    },
    "scriptCalls": [],
    "weaponType": "exotic",
    "weaponSubtype": "1h",
    "weaponData": {
      "damageRoll": "1d8",
      "damageType": "P",
      "critMult": 3,
      "range": 20
    }
  },
  "effects": [],
  "folder": null,
  "sort": 0,
  "permission": {
    "default": 0
  },
  "flags": {}
}