{
  "_id": "9cn9pmPR4WPGbgUH",
  "name": "Dwarven Light Axe-Gauntlet",
  "type": "weapon",
  "img": "systems/pf1/icons/items/weapons/axe-gauntlet-dwarven-light.png",
  "data": {
    "description": {
      "value": "<p><strong>Source</strong> <em>Heroes from the Fringe pg. 8</em></p><h3 class=\"framing\">Statistics</h3><p><strong>Cost</strong> 16 gp <strong>Weight</strong> 5 lbs.</p><p><strong>Damage</strong> 1d4 (small), 1d6 (medium); <strong>Critical</strong> x3; <strong>Range</strong> -; <strong>Type</strong> S; <strong>Special</strong> blocking, disarm</p><p><strong>Category</strong> Light; <strong>Proficiency</strong> Exotic</p><p><strong>Weapon Groups</strong> Axes; Close</p><h3 class=\"framing\">Description</h3><p>An axe-gauntlet is a locked gauntlet covering the hand and forearm up to and over the elbow, with an axe blade built around the gauntlet's permanently closed fist. Axe-gauntlets were developed during the long Quest for Sky, when dwarven warriors often had to engage in running fights against larger, stronger opponents in areas the dwarves did not intend to ever return to. Losing a weapon in such circumstances often made it irretrievable, and the axe-gauntlet became popular with rearguard warriors. Though these weapons have seen significantly less use since the dwarves reached the surface, some dwarven warriors still appreciate the reliability of such designs. An axe-gauntlet takes a full-round action to don, and it gives you a +10 bonus to your CMD against disarm attempts. You can't use the hand on which an axe-gauntlet is worn for anything else.</p>"
    },
    "tags": [],
    "weight": 5,
    "price": 16,
    "hp": {
      "max": 2,
      "value": 2
    },
    "hardness": 10,
    "identifiedName": "Dwarven Light Axe-Gauntlet",
    "changes": [],
    "contextNotes": [],
    "links": {
      "children": []
    },
    "tag": "dwarvenLightAxegauntlet",
    "flags": {
      "boolean": [],
      "dictionary": []
    },
    "scriptCalls": [],
    "weaponType": "exotic",
    "weaponData": {
      "damageRoll": "1d6",
      "damageType": "S",
      "critMult": 3,
      "range": 0
    }
  },
  "effects": [],
  "folder": null,
  "sort": 0,
  "permission": {
    "default": 0
  },
  "flags": {}
}