{
  "_id": "gdtr2WxIRgDdNMlg",
  "name": "Elven Branched Spear",
  "type": "weapon",
  "img": "systems/pf1/icons/items/weapons/elven-branched-spear.png",
  "data": {
    "description": {
      "value": "<p><strong>Source</strong> <em>Melee Tactics Toolbox pg. 19</em></p><h3 class=\"framing\"><img src=\"https://www.aonprd.com/images/PathfinderSocietySymbol.gif\" title=\"PFS Legal\" style=\"margin:3px 3px 0px 3px;\">Statistics</h3><p><strong>Cost</strong> 20 gp <strong>Weight</strong> 10 lbs.</p><p><strong>Damage</strong> 1d6 (small), 1d8 (medium); <strong>Critical</strong> x3; <strong>Range</strong> -; <strong>Type</strong> P; <strong>Special</strong> brace, reach</p><p><strong>Category</strong> Two-Handed; <strong>Proficiency</strong> Exotic</p><p><strong>Weapon Groups</strong> Spears</p><h3 class=\"framing\">Description</h3><p>Behind this long pole weapon's spearhead, several short branches project from the shaft at irregular intervals, each angled forward and tipped with a smaller leaf like blade. When you make attacks of opportunity provoked by movement, you gain a +2 bonus on attack rolls. You can use the Weapon Finesse feat to apply your Dexterity modifier instead of your Strength modifier on attack rolls with an elven branched spear sized for you, even though it isn't a light weapon. Elves treat elven branched spears as martial weapons.</p>"
    },
    "tags": [],
    "weight": 10,
    "price": 20,
    "hardness": 10,
    "identifiedName": "Elven Branched Spear",
    "changes": [],
    "contextNotes": [],
    "links": {
      "children": []
    },
    "tag": "elvenBranchedSpear",
    "flags": {
      "boolean": [],
      "dictionary": []
    },
    "scriptCalls": [],
    "weaponType": "exotic",
    "weaponSubtype": "2h",
    "weaponData": {
      "damageRoll": "1d8",
      "damageType": "P",
      "critMult": 3,
      "range": 0
    }
  },
  "effects": [],
  "folder": null,
  "sort": 0,
  "permission": {
    "default": 0
  },
  "flags": {}
}