{
  "_id": "XkWvIAhFMzakFssS",
  "name": "Kasatha Spinal Sword",
  "type": "weapon",
  "img": "icons/weapons/swords/sword-guard-flanged.webp",
  "data": {
    "description": {
      "value": "<p><strong>Source</strong> <em>People of the Stars pg. 9</em></p><h3 class=\"framing\">Statistics</h3><p><strong>Cost</strong> 50 gp <strong>Weight</strong> 3 lbs.</p><p><strong>Damage</strong> 1d4 (small), 1d6 (medium); <strong>Critical</strong> x3; <strong>Range</strong> -; <strong>Type</strong> P or S; <strong>Special</strong> fragile</p><p><strong>Category</strong> Light; <strong>Proficiency</strong> Exotic</p><h3 class=\"framing\">Description</h3><p>This light one-handed sword is covered in bony spines that make it easier to poison opponents. The save DC of a nonmagical injury poison applied to a kasatha spinal sword increases by 2. Kasathas treat kasatha spinal swords as martial weapons.</p>"
    },
    "tags": [],
    "weight": 3,
    "price": 50,
    "hp": {
      "max": 2,
      "value": 2
    },
    "hardness": 10,
    "identifiedName": "Kasatha Spinal Sword",
    "changes": [],
    "contextNotes": [],
    "links": {
      "children": []
    },
    "tag": "kasathaSpinalSword",
    "flags": {
      "boolean": [],
      "dictionary": []
    },
    "scriptCalls": [],
    "weaponType": "exotic",
    "weaponData": {
      "damageRoll": "1d6",
      "damageType": "P or S",
      "critMult": 3,
      "range": 0
    }
  },
  "effects": [],
  "folder": null,
  "sort": 0,
  "permission": {
    "default": 0
  },
  "flags": {}
}