{
  "_id": "Yeli1JRCgnmVyhWT",
  "name": "Light Mace",
  "type": "weapon",
  "img": "systems/pf1/icons/items/weapons/mace-light.png",
  "data": {
    "description": {
      "value": "<p><strong>Source</strong> <em>Ultimate Equipment pg. 17</em>, <em>PRPG Core Rulebook pg. 142</em></p><h3 class=\"framing\"><img src=\"https://www.aonprd.com/images/PathfinderSocietySymbol.gif\" title=\"PFS Legal\" style=\"margin:3px 3px 0px 3px;\">Statistics</h3><p><strong>Cost</strong> 5 gp <strong>Weight</strong> 4 lbs.</p><p><strong>Damage</strong> 1d4 (small), 1d6 (medium); <strong>Critical</strong> x2; <strong>Range</strong> -; <strong>Type</strong> B; <strong>Special</strong> -</p><p><strong>Category</strong> Light; <strong>Proficiency</strong> Simple</p><p><strong>Weapon Groups</strong> Hammers</p><h3 class=\"framing\">Description</h3><p>A mace is made up of an ornate metal head attached to a simple wooden or metal shaft. The mace's head is usually flanged to cause more pain or damage. Some more primitive maces are made with stone bound to a wooden haft with leather straps.</p>"
    },
    "tags": [],
    "weight": 4,
    "price": 5,
    "hp": {
      "max": 2,
      "value": 2
    },
    "hardness": 10,
    "identifiedName": "Light Mace",
    "changes": [],
    "contextNotes": [],
    "links": {
      "children": []
    },
    "tag": "lightMace",
    "flags": {
      "boolean": [],
      "dictionary": []
    },
    "scriptCalls": [],
    "weaponData": {
      "damageRoll": "1d6",
      "damageType": "B",
      "range": 0
    }
  },
  "effects": [],
  "folder": null,
  "sort": 0,
  "permission": {
    "default": 0
  },
  "flags": {}
}