{
  "_id": "c2cwyWi0Jn5PMggb",
  "name": "Mancatcher",
  "type": "weapon",
  "img": "systems/pf1/icons/items/weapons/mancatcher.png",
  "data": {
    "description": {
      "value": "<p><strong>Source</strong> <em>Ultimate Equipment pg. 21</em>, <em>Adventurer's Armory pg. 4</em>, <em>Advanced Player's Guide pg. 179</em></p><h3 class=\"framing\"><img src=\"https://www.aonprd.com/images/PathfinderSocietySymbol.gif\" title=\"PFS Legal\" style=\"margin:3px 3px 0px 3px;\">Statistics</h3><p><strong>Cost</strong> 15 gp <strong>Weight</strong> 10 lbs.</p><p><strong>Damage</strong> 1 (small), 1d2 (medium); <strong>Critical</strong> -; <strong>Range</strong> -; <strong>Type</strong> P; <strong>Special</strong> reach, see text</p><p><strong>Category</strong> Two-Handed; <strong>Proficiency</strong> Exotic</p><p><strong>Weapon Groups</strong> Polearms</p><h3 class=\"framing\">Description</h3><p>This polearm consists of two curved metal bands that close around a target when you attack, allowing you to bind an opponent. A mancatcher is built to capture a creature of a particular size category (such as Small or Medium) and doesn't work on creatures of the wrong size. Make a touch attack to hit an opponent and a combat maneuver check to grapple him (without the -4 penalty for not having two hands free); success means you and the target are grappled. Once the target is grappled, you can perform a move or damage grapple action against him. The mancatcher has hardness 10 and 5 hit points; breaking it requires a DC 26 Strength check. If you drop the mancatcher, the target can free himself as a standard action.</p>"
    },
    "tags": [],
    "weight": 10,
    "price": 15,
    "hardness": 10,
    "identifiedName": "Mancatcher",
    "changes": [],
    "contextNotes": [],
    "links": {
      "children": []
    },
    "tag": "mancatcher",
    "flags": {
      "boolean": [],
      "dictionary": []
    },
    "scriptCalls": [],
    "weaponType": "exotic",
    "weaponSubtype": "2h",
    "weaponData": {
      "damageRoll": "1d2",
      "damageType": "P",
      "critMult": 0,
      "range": 0
    }
  },
  "effects": [],
  "folder": null,
  "sort": 0,
  "permission": {
    "default": 0
  },
  "flags": {}
}