{
  "_id": "1qsCQ6TiPgSsNPFj",
  "name": "Maxim M1910 Machine Gun",
  "type": "weapon",
  "img": "icons/weapons/guns/rifle-brown.webp",
  "data": {
    "description": {
      "value": "<p><strong>Source</strong> <em>Pathfinder #71: Rasputin Must Die! pg. 64</em></p>\n<h3 class=\"framing\">Statistics</h3>\n<p><strong>Cost</strong> 1,500 gp <strong>Weight</strong> 140 lbs.</p>\n<p><strong>Damage</strong> 2d8 (medium); <strong>Critical</strong> x4; <strong>Range</strong> 120 ft.; <strong>Type</strong> B and P; <strong>Special</strong> automatic</p>\n<p><strong>Misfire</strong> 1-2; <strong>Capacity</strong> 250</p>\n<p><strong>Category</strong> Two-Handed; <strong>Proficiency</strong> Exotic</p>\n<h3 class=\"framing\">Description</h3>\n<p>This heavy machine gun uses 7.62 54mmR ammunition in 250-round belts. Although a single person can fire a Maxim, it typically has a two-person crew: the gunner, and a loader who assists with feeding the ammunition belt into the weapon.</p>\n<p>As a full-round action, the loader can use a special aid another action to grant the gunner a +2 bonus on his next attack roll. Because of its size and heavy weight, a Maxim is often either mounted on a wheeled chassis with a gun shield for trench defensive use, or on the back of a horse-drawn wagon called a tachanka (see page 67).</p>\n<p>Assuming a user can even lift the weapon, firing a Maxim M1910 machine gun that is not mounted imparts a -4 penalty on attack rolls and the recoil knocks the wielder prone. The Maxim M1910 is automatic-fire only.</p>\n<p>The armored shield provides cover when firing the weapon from the prone position.</p>"
    },
    "tags": [],
    "weight": 1400,
    "price": 1500,
    "hardness": 10,
    "identifiedName": "Maxim M1910 Machine Gun",
    "changes": [],
    "contextNotes": [],
    "links": {
      "children": []
    },
    "tag": "maximM1910MachineGun",
    "flags": {
      "boolean": [],
      "dictionary": []
    },
    "scriptCalls": [],
    "weaponType": "exotic",
    "weaponSubtype": "2h",
    "weaponData": {
      "damageRoll": "2d8",
      "damageType": "B and P",
      "critRange": "NULL",
      "critMult": "4",
      "range": 120
    }
  },
  "effects": [],
  "folder": null,
  "sort": 0,
  "permission": {
    "default": 0
  },
  "flags": {}
}