{
  "_id": "Sq5ocwUeMYr2qBjE",
  "name": "Mere Club",
  "type": "weapon",
  "img": "systems/pf1/icons/items/weapons/club-mere.png",
  "data": {
    "description": {
      "value": "<p><strong>Source</strong> <em>Ultimate Equipment pg. 17</em>, <em>Adventurer's Armory pg. 4</em></p><h3 class=\"framing\"><img src=\"https://www.aonprd.com/images/PathfinderSocietySymbol.gif\" title=\"PFS Legal\" style=\"margin:3px 3px 0px 3px;\">Statistics</h3><p><strong>Cost</strong> 2 gp <strong>Weight</strong> 2 lbs.</p><p><strong>Damage</strong> 1d3 (small), 1d4 (medium); <strong>Critical</strong> x2; <strong>Range</strong> -; <strong>Type</strong> B or P; <strong>Special</strong> fragile</p><p><strong>Category</strong> One-Handed; <strong>Proficiency</strong> Simple</p><p><strong>Weapon Groups</strong> Close; Hammers</p><h3 class=\"framing\">Description</h3><p>A Stone Age weapon traditionally made of carved stone, a mere (MEH-reh) is a short, flat-sided, sharp-pointed club.</p>"
    },
    "tags": [],
    "weight": 2,
    "price": 2,
    "hp": {
      "max": 5,
      "value": 5
    },
    "hardness": 10,
    "identifiedName": "Mere Club",
    "changes": [],
    "contextNotes": [],
    "links": {
      "children": []
    },
    "tag": "mereClub",
    "flags": {
      "boolean": [],
      "dictionary": []
    },
    "scriptCalls": [],
    "weaponSubtype": "1h",
    "weaponData": {
      "damageRoll": "1d4",
      "damageType": "B or P",
      "range": 0
    }
  },
  "effects": [],
  "folder": null,
  "sort": 0,
  "permission": {
    "default": 0
  },
  "flags": {}
}