{
  "_id": "JIB2GKFRf0FLPUCN",
  "name": "Quadrens",
  "type": "weapon",
  "img": "systems/pf1/icons/items/weapons/quadrens.png",
  "data": {
    "description": {
      "value": "<p><strong>Source</strong> <em>Ultimate Equipment pg. 20</em>, <em>Ultimate Combat pg. 144</em></p><h3 class=\"framing\"><img src=\"https://www.aonprd.com/images/PathfinderSocietySymbol.gif\" title=\"PFS Legal\" style=\"margin:3px 3px 0px 3px;\">Statistics</h3><p><strong>Cost</strong> 8 gp <strong>Weight</strong> 2 lbs.</p><p><strong>Damage</strong> 1d4 (small), 1d6 (medium); <strong>Critical</strong> 19-20/x2; <strong>Range</strong> -; <strong>Type</strong> P; <strong>Special</strong> performance</p><p><strong>Category</strong> Light; <strong>Proficiency</strong> Exotic</p><p><strong>Weapon Groups</strong> Blades, Light</p><h3 class=\"framing\">Description</h3><p>A quadrens looks similar to a sturdy dagger, but with four spikes mounted in a square pattern in place of a blade. When you score a critical hit with a quadrens, the resulting gaping wound causes 1 point of bleed damage. In addition to punching through hide and armor, the spikes can also be used to snag opponents' blades and twist them out of their grips.</p>"
    },
    "tags": [],
    "weight": 2,
    "price": 8,
    "hp": {
      "max": 2,
      "value": 2
    },
    "hardness": 10,
    "identifiedName": "Quadrens",
    "changes": [],
    "contextNotes": [],
    "links": {
      "children": []
    },
    "tag": "quadrens",
    "flags": {
      "boolean": [],
      "dictionary": []
    },
    "scriptCalls": [],
    "weaponType": "exotic",
    "weaponData": {
      "damageRoll": "1d6",
      "damageType": "P",
      "critRange": 19,
      "range": 0
    }
  },
  "effects": [],
  "folder": null,
  "sort": 0,
  "permission": {
    "default": 0
  },
  "flags": {}
}