{
  "_id": "4gxX2chWtbQNT2wP",
  "name": "Rhoka Sword",
  "type": "weapon",
  "img": "icons/weapons/swords/greatsword-guard-split-eyes.webp",
  "data": {
    "description": {
      "value": "<p><strong>Source</strong> <em>Ultimate Equipment pg. 20</em>, <em>Into the Darklands pg. 61</em>, <em>Adventurer's Armory pg. 4</em></p><h3 class=\"framing\"><img src=\"https://www.aonprd.com/images/PathfinderSocietySymbol.gif\" title=\"PFS Legal\" style=\"margin:3px 3px 0px 3px;\">Statistics</h3><p><strong>Cost</strong> 25 gp <strong>Weight</strong> 6 lbs.</p><p><strong>Damage</strong> 1d6 (small), 1d8 (medium); <strong>Critical</strong> 18-20/x2; <strong>Range</strong> -; <strong>Type</strong> S; <strong>Special</strong> -</p><p><strong>Category</strong> One-Handed; <strong>Proficiency</strong> Exotic</p><p><strong>Weapon Groups</strong> Blades, Heavy</p><h3 class=\"framing\">Description</h3><p>This sword is used almost exclusively by the life-hating urdefhans (<em>Bestiary 2 </em>276). The sword is the size of a longsword but consists of two serrated blades placed side by side.</p>"
    },
    "tags": [],
    "weight": 6,
    "price": 25,
    "hp": {
      "max": 5,
      "value": 5
    },
    "hardness": 10,
    "identifiedName": "Rhoka Sword",
    "changes": [],
    "contextNotes": [],
    "links": {
      "children": []
    },
    "tag": "rhokaSword",
    "flags": {
      "boolean": [],
      "dictionary": []
    },
    "scriptCalls": [],
    "weaponType": "exotic",
    "weaponSubtype": "1h",
    "weaponData": {
      "damageRoll": "1d8",
      "damageType": "S",
      "critRange": 18,
      "range": 0
    }
  },
  "effects": [],
  "folder": null,
  "sort": 0,
  "permission": {
    "default": 0
  },
  "flags": {}
}