{
  "_id": "OrhMT3Bq3XXDsQcd",
  "name": "Spiked Heavy Shield",
  "type": "weapon",
  "img": "icons/equipment/shield/targe-wooden-boss-steel.webp",
  "data": {
    "description": {
      "value": "<p><strong>Source</strong> <em>Ultimate Equipment pg. 18</em>, <em>PRPG Core Rulebook pg. 142</em></p><h3 class=\"framing\"><img src=\"https://www.aonprd.com/images/PathfinderSocietySymbol.gif\" title=\"PFS Legal\" style=\"margin:3px 3px 0px 3px;\">Statistics</h3><p><strong>Cost</strong> 17 gp/30 gp <strong>Weight</strong> special</p><p><strong>Damage</strong> 1d4 (small), 1d6 (medium); <strong>Critical</strong> x2; <strong>Range</strong> -; <strong>Type</strong> P; <strong>Special</strong> -</p><p><strong>Category</strong> One-Handed; <strong>Proficiency</strong> Martial</p><p><strong>Weapon Groups</strong> Close</p><h3 class=\"framing\">Description</h3><p>Spiked shields are intimidating weapons, and can have a single protruding central spike, razored shield edges, or a whole forest of deadly protrusions. You can bash with a spiked heavy shield instead of using it for defense. A spiked heavy shield can't be disarmed. See the armor spikes entry on page 10 for details.</p>"
    },
    "tags": [],
    "price": 17,
    "hp": {
      "max": 5,
      "value": 5
    },
    "hardness": 10,
    "identifiedName": "Spiked Heavy Shield",
    "changes": [],
    "contextNotes": [],
    "links": {
      "children": []
    },
    "tag": "spikedHeavyShield",
    "flags": {
      "boolean": [],
      "dictionary": []
    },
    "scriptCalls": [],
    "weaponType": "martial",
    "weaponSubtype": "1h",
    "weaponData": {
      "damageRoll": "1d6",
      "damageType": "P",
      "range": 0
    }
  },
  "effects": [],
  "folder": null,
  "sort": 0,
  "permission": {
    "default": 0
  },
  "flags": {}
}