{
  "_id": "62WMCpS2zAVnC5ny",
  "name": "Thorn Bow",
  "type": "weapon",
  "img": "systems/pf1/icons/items/weapons/thorn-bow.PNG",
  "data": {
    "description": {
      "value": "<p><strong>Source</strong> <em>Adventurer's Armory pg. 18</em>, <em>Pathfinder Campaign Setting pg. 209</em>, <em>Conquest of Bloodsworn Vale pg. 31</em></p><h3 class=\"framing\"><img src=\"https://www.aonprd.com/images/PathfinderSocietySymbol.gif\" title=\"PFS Legal\" style=\"margin:3px 3px 0px 3px;\">Statistics</h3><p><strong>Cost</strong> 50 gp <strong>Weight</strong> 2 lbs.</p><p><strong>Damage</strong> 1d4 (small), 1d6 (medium); <strong>Critical</strong> x3; <strong>Range</strong> 40 ft.; <strong>Type</strong> P; <strong>Special</strong> -</p><p><strong>Category</strong> Ranged; <strong>Proficiency</strong> Exotic</p><h3 class=\"framing\">Description</h3><p>This polished rosewood bow is studded with thorns and tiny flowers; treat it as a shortbow.</p>"
    },
    "tags": [],
    "weight": 2,
    "price": 50,
    "hp": {
      "max": 5,
      "value": 5
    },
    "hardness": 5,
    "identifiedName": "Thorn Bow",
    "changes": [],
    "contextNotes": [],
    "links": {
      "children": []
    },
    "tag": "thornBow",
    "flags": {
      "boolean": [],
      "dictionary": []
    },
    "scriptCalls": [],
    "weaponType": "exotic",
    "weaponSubtype": "ranged",
    "weaponData": {
      "damageRoll": "1d6",
      "damageType": "P",
      "critRange": "",
      "critMult": "3",
      "range": 40
    }
  },
  "effects": [],
  "folder": null,
  "sort": 0,
  "permission": {
    "default": 0
  },
  "flags": {}
}