{
  "_id": "gAs85NM90mIR4O4Z",
  "name": "Throwing Axe",
  "type": "weapon",
  "img": "systems/pf1/icons/items/weapons/axe-throwing.png",
  "data": {
    "description": {
      "value": "<p><strong>Source</strong> <em>Ultimate Equipment pg. 18</em>, <em>PRPG Core Rulebook pg. 142</em></p><h3 class=\"framing\"><img src=\"https://www.aonprd.com/images/PathfinderSocietySymbol.gif\" title=\"PFS Legal\" style=\"margin:3px 3px 0px 3px;\">Statistics</h3><p><strong>Cost</strong> 8 gp <strong>Weight</strong> 2 lbs.</p><p><strong>Damage</strong> 1d4 (small), 1d6 (medium); <strong>Critical</strong> x2; <strong>Range</strong> 10 ft.; <strong>Type</strong> S; <strong>Special</strong> -</p><p><strong>Category</strong> Light; <strong>Proficiency</strong> Martial</p><p><strong>Weapon Groups</strong> Axes; Thrown; Tribal</p><h3 class=\"framing\">Description</h3><p>This one-handed axe is small and perfectly balanced for throwing, and can be used as a melee weapon. Throwing axes have a variety of alternative names, including franciscas, tomahawks, and more. The axe is normally gripped by the haft and thrown overhand, making one complete rotation in the air before biting into the target with the axe head.</p>"
    },
    "tags": [],
    "weight": 2,
    "price": 8,
    "hp": {
      "max": 2,
      "value": 2
    },
    "hardness": 10,
    "identifiedName": "Throwing Axe",
    "changes": [],
    "contextNotes": [],
    "links": {
      "children": []
    },
    "tag": "throwingAxe",
    "flags": {
      "boolean": [],
      "dictionary": []
    },
    "scriptCalls": [],
    "weaponType": "martial",
    "weaponData": {
      "damageRoll": "1d6",
      "damageType": "S",
      "range": 10
    }
  },
  "effects": [],
  "folder": null,
  "sort": 0,
  "permission": {
    "default": 0
  },
  "flags": {}
}