{
  "_id": "6JNWUofyniDkjhjk",
  "name": "Belt of Incredible Dexterity +4",
  "type": "equipment",
  "img": "systems/pf1/icons/items/equipment/belt-girdle.jpg",
  "data": {
    "description": {
      "value": "<p>This belt has a large silver buckle, usually depicting the image of a tiger.</p>\n<p>The belt grants the wearer an&nbsp;<a href=\"https://www.d20pfsrd.com/basics-ability-scores/glossary#TOC-Enhancement-Bonus\">enhancement bonus</a>&nbsp;to&nbsp;<a href=\"https://www.d20pfsrd.com/basics-ability-scores/ability-scores#TOC-Dexterity-Dex-\">Dexterity</a>&nbsp;of +2, +4, or +6. Treat this as a temporary ability bonus for the first 24 hours the belt is worn.</p>",
      "unidentified": "<p>This belt has a large silver buckle depicting the image of a tiger.</p>"
    },
    "tags": [],
    "weight": 1,
    "price": 16000,
    "unidentified": {
      "name": "Belt"
    },
    "identifiedName": "Belt of Incredible Dexterity +4",
    "cl": 8,
    "aura": {
      "school": "trs"
    },
    "activation": {
      "cost": null
    },
    "changes": [
      {
        "_id": "zbu38u1s",
        "formula": "4",
        "operator": "add",
        "subTarget": "dex",
        "modifier": "enh",
        "priority": 0,
        "value": 0,
        "target": "ability"
      }
    ],
    "contextNotes": [],
    "damage": {
      "parts": [],
      "critParts": [],
      "nonCritParts": []
    },
    "attackParts": [],
    "effectNotes": [],
    "attackNotes": [],
    "links": {
      "children": [],
      "charges": []
    },
    "flags": {
      "boolean": [],
      "dictionary": []
    },
    "scriptCalls": [],
    "equipmentType": "misc",
    "equipmentSubtype": "wondrous",
    "slot": "belt"
  },
  "effects": [],
  "folder": null,
  "sort": 0,
  "permission": {
    "default": 0
  },
  "flags": {}
}