{
  "_id": "d8dNMmffPaYxrxMM",
  "name": "Headband of Inspired Wisdom +4",
  "type": "equipment",
  "img": "systems/pf1/icons/items/equipment/belt-gems.jpg",
  "data": {
    "description": {
      "value": "<p>This simple bronze headband is decorated with an intricate pattern of fine green etchings.</p>\n<p>The headband grants the wearer an&nbsp;<a href=\"https://www.d20pfsrd.com/basics-ability-scores/glossary#TOC-Enhancement-Bonus\">enhancement bonus</a>&nbsp;to&nbsp;<a href=\"https://www.d20pfsrd.com/basics-ability-scores/ability-scores#TOC-Wisdom-Wis-\">Wisdom</a>&nbsp;of +2, +4, or +6. Treat this as a temporary ability bonus for the first 24 hours the headband is worn.</p>",
      "unidentified": "<p>This simple bronze headband is decorated with an intricate pattern of fine green etchings.</p>"
    },
    "tags": [],
    "weight": 1,
    "price": 16000,
    "unidentified": {
      "name": "Headband"
    },
    "identifiedName": "Headband of Inspired Wisdom +4",
    "cl": 8,
    "aura": {
      "school": "trs"
    },
    "activation": {
      "cost": null
    },
    "changes": [
      {
        "_id": "06dnhzue",
        "formula": "4",
        "operator": "add",
        "subTarget": "wis",
        "modifier": "enh",
        "priority": 0,
        "value": 0,
        "target": "ability"
      }
    ],
    "contextNotes": [],
    "damage": {
      "parts": [],
      "critParts": [],
      "nonCritParts": []
    },
    "attackParts": [],
    "effectNotes": [],
    "attackNotes": [],
    "links": {
      "children": [],
      "charges": []
    },
    "flags": {
      "boolean": [],
      "dictionary": []
    },
    "scriptCalls": [],
    "equipmentType": "misc",
    "equipmentSubtype": "wondrous",
    "slot": "headband"
  },
  "effects": [],
  "folder": null,
  "sort": 0,
  "permission": {
    "default": 0
  },
  "flags": {}
}