{
  "_id": "hbymhteghwtcsyoy",
  "name": "Kit, Climber's",
  "type": "loot",
  "img": "systems/pf1/icons/items/inventory/dice.jpg",
  "data": {
    "description": {
      "value": "\r\n<p><b>Price</b> 80 gp; <b>Weight</b> 5 lbs.</p>\r\n<p>These crampons, pitons, ropes, and other tools give you a +2 <a href=\"https://www.d20pfsrd.com/basics-ability-scores/glossary#TOC-Circumstance-Bonus\">circumstance bonus</a> on <a href=\"https://www.d20pfsrd.com/skills/climb\">Climb</a> checks.</p>\r\n\r\n"
    },
    "tags": [],
    "weight": 5,
    "price": 80,
    "changes": [],
    "contextNotes": [],
    "links": {
      "children": []
    },
    "flags": {
      "boolean": [],
      "dictionary": []
    },
    "scriptCalls": [],
    "subType": "gear",
    "equipped": false
  },
  "effects": [],
  "folder": null,
  "sort": 0,
  "permission": {
    "default": 0
  },
  "flags": {}
}