{
  "_id": "dupOlHnAX4aY5wpi",
  "name": "Aura of Isolation",
  "type": "feat",
  "img": "systems/pf1/icons/skills/affliction_02.jpg",
  "data": {
    "description": {
      "value": "<p>As a standard action, you can create a 20-foot aura that causes enemies within to be overcome with feelings of isolation and loss. Your enemies treat the aura as difficult terrain, as they become sluggish within its area of effect. Furthermore, while within the aura, your enemies can’t flank with one another, nor can they use or benefit from the aid another action. The aura lasts for a number of rounds equal to 3 + your Wisdom modifier, but the rounds need not be consecutive. This is a mind-affecting emotion effect.</p>\n<p>This power replaces the Part the Veil power of the Void Domain.</p>"
    },
    "tags": [],
    "activation": {
      "type": "standard"
    },
    "unchainedAction": {
      "activation": {
        "cost": 2,
        "type": "action"
      }
    },
    "duration": {
      "value": "1",
      "units": "round"
    },
    "target": {
      "value": "enemies in range"
    },
    "range": {
      "value": "20",
      "units": "ft"
    },
    "uses": {
      "per": "day"
    },
    "measureTemplate": {
      "size": "0"
    },
    "actionType": "",
    "damage": {
      "parts": [],
      "critParts": [],
      "nonCritParts": []
    },
    "attackParts": [],
    "effectNotes": [],
    "attackNotes": [],
    "changes": [],
    "contextNotes": [],
    "links": {
      "children": [],
      "charges": []
    },
    "armorProf": {
      "value": []
    },
    "weaponProf": {
      "value": []
    },
    "flags": {
      "boolean": [],
      "dictionary": []
    },
    "scriptCalls": [],
    "featType": "classFeat",
    "associations": {
      "classes": [
        [
          "Cleric"
        ]
      ]
    },
    "abilityType": "su"
  },
  "effects": [],
  "folder": null,
  "sort": 0,
  "permission": {
    "default": 0
  },
  "flags": {}
}