{
  "_id": "QGEEtV5NqZbomKE6",
  "name": "Battle Spirit",
  "type": "feat",
  "img": "systems/pf1/icons/skills/violet_20.jpg",
  "data": {
    "description": {
      "value": "<p>A shaman surrounds herself with the spirit of battle. Allies within 30 feet of the shaman (including the shaman) receive a +1 morale bonus on attack rolls and weapon damage rolls.</p>\n<p>At 8th level and 16th level, these bonuses increase by 1.</p>\n<p>The shaman can use this ability for a number of rounds per day equal to 3 + her Charisma modifier. These rounds do not need to be consecutive.</p>"
    },
    "tags": [],
    "activation": {
      "type": "standard"
    },
    "unchainedAction": {
      "activation": {
        "cost": 2,
        "type": "action"
      }
    },
    "duration": {
      "value": "1",
      "units": "round"
    },
    "target": {
      "value": "allies within range"
    },
    "range": {
      "value": "30",
      "units": "ft",
      "maxIncrements": "1"
    },
    "uses": {
      "per": "day"
    },
    "actionType": "",
    "damage": {
      "parts": [],
      "critParts": [],
      "nonCritParts": []
    },
    "attackParts": [],
    "effectNotes": [],
    "attackNotes": [],
    "changes": [],
    "contextNotes": [],
    "links": {
      "children": [],
      "charges": []
    },
    "armorProf": {
      "value": []
    },
    "weaponProf": {
      "value": []
    },
    "flags": {
      "boolean": [],
      "dictionary": []
    },
    "scriptCalls": [],
    "featType": "classFeat",
    "associations": {
      "classes": [
        [
          "Shaman"
        ]
      ]
    },
    "abilityType": "su"
  },
  "effects": [],
  "folder": null,
  "sort": 0,
  "permission": {
    "default": 0
  },
  "flags": {}
}