{
  "_id": "1tpm6SRGTVVWBMZ9",
  "name": "Channel (SHA)",
  "type": "feat",
  "img": "systems/pf1/icons/skills/violet_20.jpg",
  "data": {
    "description": {
      "value": "<p>The shaman can channel positive energy like a cleric, using her shaman level as her effective cleric level when determining the amount of damage healed (or dealt to undead) and the DC.</p>\n<p>The shaman can use this ability a number of times per day equal to 1 + her Charisma modifier.</p>"
    },
    "tags": [],
    "activation": {
      "type": "standard"
    },
    "unchainedAction": {
      "activation": {
        "cost": 2,
        "type": "action"
      }
    },
    "duration": {
      "units": "inst"
    },
    "target": {
      "value": "self; affects living OR undead"
    },
    "range": {
      "value": "30",
      "units": "ft",
      "maxIncrements": "1"
    },
    "uses": {
      "per": "day"
    },
    "measureTemplate": {
      "type": "circle",
      "size": "30"
    },
    "actionType": "heal",
    "damage": {
      "parts": [
        [
          "(ceil(@classes.shaman.level / 2))d6",
          "Positive"
        ]
      ],
      "critParts": [],
      "nonCritParts": []
    },
    "attackParts": [],
    "ability": {
      "damage": ""
    },
    "save": {
      "dc": "10+floor(@classes.shaman.level / 2) + @abilities.cha.mod",
      "type": "will",
      "description": "Will halves damage"
    },
    "effectNotes": [],
    "attackNotes": [],
    "changes": [],
    "contextNotes": [],
    "links": {
      "children": [],
      "charges": []
    },
    "tag": "channelSha",
    "armorProf": {
      "value": []
    },
    "weaponProf": {
      "value": []
    },
    "flags": {
      "boolean": [],
      "dictionary": []
    },
    "scriptCalls": [],
    "featType": "classFeat",
    "associations": {
      "classes": [
        [
          "Shaman"
        ]
      ]
    },
    "abilityType": "su"
  },
  "effects": [],
  "folder": null,
  "sort": 0,
  "permission": {
    "default": 0
  },
  "flags": {}
}