{
  "_id": "XWgx2P8BeLQLWsKt",
  "name": "Death's Kiss",
  "type": "feat",
  "img": "systems/pf1/icons/skills/blood_12.jpg",
  "data": {
    "description": {
      "value": "<p>You can cause a creature to take on some of the traits of the undead with a melee touch attack. Touched creatures are treated as undead for the purposes of effects that heal or cause damage based on positive and negative energy. This effect lasts for a number of rounds equal to 1/2 your cleric level (minimum 1). It does not apply to the Turn Undead or Command Undead feats. You can use this ability a number of times per day equal to 3 + your Wisdom modifier.</p>\n<p>This power replaces the Bleeding Touch power of the Death Domain.</p>"
    },
    "tags": [],
    "activation": {
      "type": "standard"
    },
    "unchainedAction": {
      "activation": {
        "cost": 2,
        "type": "action"
      }
    },
    "duration": {
      "value": "max(1, floor(@classes.cleric.level / 2))",
      "units": "round"
    },
    "target": {
      "value": "creature touched"
    },
    "range": {
      "units": "touch"
    },
    "uses": {
      "per": "day"
    },
    "measureTemplate": {
      "size": "0"
    },
    "actionType": "",
    "damage": {
      "parts": [],
      "critParts": [],
      "nonCritParts": []
    },
    "attackParts": [],
    "effectNotes": [],
    "attackNotes": [],
    "changes": [],
    "contextNotes": [],
    "links": {
      "children": [],
      "charges": []
    },
    "armorProf": {
      "value": []
    },
    "weaponProf": {
      "value": []
    },
    "flags": {
      "boolean": [],
      "dictionary": []
    },
    "scriptCalls": [],
    "featType": "classFeat",
    "associations": {
      "classes": [
        [
          "Cleric"
        ]
      ]
    },
    "abilityType": "su"
  },
  "effects": [],
  "folder": null,
  "sort": 0,
  "permission": {
    "default": 0
  },
  "flags": {}
}