{
  "_id": "N393JvOpX0EJbfX0",
  "name": "Draining Touch",
  "type": "feat",
  "img": "systems/pf1/icons/spells/slice-spirit-3.jpg",
  "data": {
    "description": {
      "value": "<p>As a standard action, you can make a melee touch attack to drain vitality from a creature. If the attack hits, the target must succeed at a Fortitude save (DC = 10 + half your psychic level + your Wisdom modifier) or take 1d2 points of Charisma damage. If a creature is affected, the colors of its skin, hair, and eyes dull and become less vibrant.</p>\n<p>Whether or not the save is successful, a creature cannot be the target of this power again for 24 hours. You regain 1 point in your phrenic pool each time you successfully drain a creature this way.</p>\n<p>You can use this ability a number of times per day equal to your Wisdom modifier.</p>"
    },
    "tags": [],
    "activation": {
      "type": "standard"
    },
    "unchainedAction": {
      "activation": {
        "cost": 2,
        "type": "action"
      }
    },
    "duration": {
      "units": "inst"
    },
    "target": {
      "value": "creature touched"
    },
    "range": {
      "units": "touch"
    },
    "uses": {
      "per": "day"
    },
    "actionType": "msak",
    "damage": {
      "parts": [
        [
          "1d2",
          "Charisma"
        ]
      ],
      "critParts": [],
      "nonCritParts": []
    },
    "attackParts": [],
    "ability": {
      "attack": "dex",
      "damage": ""
    },
    "save": {
      "dc": "0",
      "type": "fort",
      "description": "Fortitude negates"
    },
    "effectNotes": [],
    "attackNotes": [],
    "changes": [],
    "contextNotes": [],
    "links": {
      "children": [],
      "charges": []
    },
    "armorProf": {
      "value": []
    },
    "weaponProf": {
      "value": []
    },
    "flags": {
      "boolean": [],
      "dictionary": []
    },
    "scriptCalls": [],
    "featType": "classFeat",
    "associations": {
      "classes": [
        [
          "Psychic"
        ]
      ]
    }
  },
  "effects": [],
  "folder": null,
  "sort": 0,
  "permission": {
    "default": 0
  },
  "flags": {}
}