{
  "_id": "oRHnlhP9YFKrKqUm",
  "name": "Ectoplasmic Form",
  "type": "feat",
  "img": "systems/pf1/icons/skills/green_25.jpg",
  "data": {
    "description": {
      "value": "<p>At 9th level, you can transform into a cloud of ectoplasm. Treat this as @Compendium[pf1.spells.mqdoexj35atgqafn]{Gaseous Form}, except that you can&nbsp;<a href=\"https://www.d20pfsrd.com/magic/all-spells/f/fly\">fly</a>&nbsp;at a speed of 30 feet, and you can solidify your form sufficiently to carry small objects, though fine manipulation is impossible. You can use this ability for a number of minutes per day equal to your&nbsp;<a href=\"https://www.d20pfsrd.com/classes/core-classes/sorcerer\">sorcerer</a>&nbsp;level.</p>\n<p>These minutes need not be consecutive, but must be used in 1-minute increments.</p>"
    },
    "tags": [],
    "activation": {
      "type": "free"
    },
    "unchainedAction": {
      "activation": {
        "type": "free"
      }
    },
    "duration": {
      "value": "1",
      "units": "minute"
    },
    "target": {
      "value": "Self"
    },
    "range": {
      "units": "personal"
    },
    "uses": {
      "per": "day"
    },
    "measureTemplate": {
      "size": "0"
    },
    "actionType": "",
    "damage": {
      "parts": [],
      "critParts": [],
      "nonCritParts": []
    },
    "attackParts": [],
    "effectNotes": [],
    "attackNotes": [],
    "changes": [],
    "contextNotes": [],
    "links": {
      "children": [],
      "charges": []
    },
    "armorProf": {
      "value": []
    },
    "weaponProf": {
      "value": []
    },
    "flags": {
      "boolean": [],
      "dictionary": []
    },
    "scriptCalls": [],
    "featType": "classFeat",
    "associations": {
      "classes": [
        [
          "Sorcerer"
        ]
      ]
    },
    "abilityType": "sp"
  },
  "effects": [],
  "folder": null,
  "sort": 0,
  "permission": {
    "default": 0
  },
  "flags": {}
}