{
  "_id": "1reA0SjOiORY0Qfh",
  "name": "Elemental Channeling",
  "type": "feat",
  "img": "systems/pf1/icons/spells/light-royal-1.jpg",
  "data": {
    "description": {
      "value": "<p>You can heal and harm elemental beings. You gain @Compendium[pf1.feats.f5rgOsdDlseGr4o5]{Elemental Channel} (your choice of air, earth, fire, or water) as a bonus feat. You gain the cleric’s channel energy ability, as a cleric of your oracle level, but only to use @Compendium[pf1.feats.f5rgOsdDlseGr4o5]{Elemental Channel}. The DC for this effect is 10 + half your oracle level + your Charisma modifier.</p>\n<p>At 5th, 10th, and 15th level, you gain @Compendium[pf1.feats.f5rgOsdDlseGr4o5]{Elemental Channel} with one of the remaining elemental subtypes as a bonus feat.</p>\n<p>You can take other feats to add to this ability, such as @Compendium[pf1.feats.1HfwfBOSWtdxFQ2s]{Improved Channel}, but not feats that alter this ability, such as @Compendium[pf1.feats.ieww7CP6JK5pwtpg]{Alignment Channel}. This revelation’s effects do not stack with levels in other classes that grant the channel energy ability.</p>"
    },
    "tags": [],
    "activation": {
      "type": "standard"
    },
    "unchainedAction": {
      "activation": {
        "cost": 2,
        "type": "action"
      }
    },
    "uses": {
      "per": "day"
    },
    "actionType": "",
    "damage": {
      "parts": [],
      "critParts": [],
      "nonCritParts": []
    },
    "attackParts": [],
    "effectNotes": [],
    "attackNotes": [],
    "changes": [],
    "contextNotes": [],
    "links": {
      "children": [],
      "charges": []
    },
    "armorProf": {
      "value": []
    },
    "weaponProf": {
      "value": []
    },
    "flags": {
      "boolean": [],
      "dictionary": []
    },
    "scriptCalls": [],
    "featType": "classFeat",
    "associations": {
      "classes": [
        [
          "Oracle"
        ]
      ]
    },
    "abilityType": "su"
  },
  "effects": [],
  "folder": null,
  "sort": 0,
  "permission": {
    "default": 0
  },
  "flags": {}
}