{
  "_id": "qNd52dl8ibXPExvL",
  "name": "Eye of Somnus",
  "type": "feat",
  "img": "systems/pf1/icons/skills/emerald_11.jpg",
  "data": {
    "description": {
      "value": "<p>At 15th level, you can project your consciousness as if using @Compendium[pf1.spells.fmuea6pmgrylbux7]{Arcane Eye}. In addition, at any point you can cause the @Compendium[pf1.spells.fmuea6pmgrylbux7]{Arcane Eye}&nbsp;to become visible. The eye can no longer be moved, but it acts as a @Compendium[pf1.spells.0khn0u6nd4fat6wb]{Symbol of Sleep}&nbsp;to all who see it. You may use this power once per day.</p>"
    },
    "tags": [],
    "activation": {
      "type": "standard"
    },
    "unchainedAction": {
      "activation": {
        "cost": 2,
        "type": "action"
      }
    },
    "uses": {
      "per": "day"
    },
    "measureTemplate": {
      "size": "0"
    },
    "actionType": "",
    "damage": {
      "parts": [],
      "critParts": [],
      "nonCritParts": []
    },
    "attackParts": [],
    "effectNotes": [],
    "attackNotes": [],
    "changes": [],
    "contextNotes": [],
    "links": {
      "children": [],
      "charges": []
    },
    "armorProf": {
      "value": []
    },
    "weaponProf": {
      "value": []
    },
    "flags": {
      "boolean": [],
      "dictionary": []
    },
    "scriptCalls": [],
    "featType": "classFeat",
    "associations": {
      "classes": [
        [
          "Sorcerer"
        ]
      ]
    },
    "abilityType": "sp"
  },
  "effects": [],
  "folder": null,
  "sort": 0,
  "permission": {
    "default": 0
  },
  "flags": {}
}