{
  "_id": "32fPRb3zIgNVv6Av",
  "name": "Gift of Life",
  "type": "feat",
  "img": "systems/pf1/icons/skills/affliction_07.jpg",
  "data": {
    "description": {
      "value": "<p>At 8th level, you can touch a creature that has died within the past minute to grant it a few moments of life. The dead creature returns to life for a number of rounds equal to your cleric level. Creatures returned to life in this way have a number of hit points equal to half your cleric level, and continue to be affected by any still-active spells, conditions, or afflictions present at the time of their death. At the end of this time, the creature dies again. The creature is free to act as it sees fit during this time. You are granted no control over it. You can use this power once per day at 8th level, plus one additional time per day for every four levels beyond 8th.</p>\n<p>This power replaces the Healer's Blessing power of the Healing Domain.</p>"
    },
    "tags": [],
    "activation": {
      "type": "standard"
    },
    "unchainedAction": {
      "activation": {
        "cost": 2,
        "type": "action"
      }
    },
    "duration": {
      "value": "@classes.cleric.level",
      "units": "round"
    },
    "target": {
      "value": "recently dead creature"
    },
    "range": {
      "units": "touch"
    },
    "uses": {
      "per": "day"
    },
    "measureTemplate": {
      "size": "0"
    },
    "actionType": "",
    "damage": {
      "parts": [],
      "critParts": [],
      "nonCritParts": []
    },
    "attackParts": [],
    "effectNotes": [],
    "attackNotes": [],
    "changes": [],
    "contextNotes": [],
    "links": {
      "children": [],
      "charges": []
    },
    "armorProf": {
      "value": []
    },
    "weaponProf": {
      "value": []
    },
    "flags": {
      "boolean": [],
      "dictionary": []
    },
    "scriptCalls": [],
    "featType": "classFeat",
    "associations": {
      "classes": [
        [
          "Cleric"
        ]
      ]
    },
    "abilityType": "su"
  },
  "effects": [],
  "folder": null,
  "sort": 0,
  "permission": {
    "default": 0
  },
  "flags": {}
}