{
  "_id": "uBx5tzUBqewNZuHk",
  "name": "Guardian of the North",
  "type": "feat",
  "img": "systems/pf1/icons/skills/violet_20.jpg",
  "data": {
    "description": {
      "value": "<p>As a standard action, the shaman assumes the form, as @Compendium[pf1.spells.br37848gchetel0q]{Beast Shape IV}, of one of the following animals:&nbsp;<a href=\"https://aonprd.com/MonsterDisplay.aspx?ItemName=Dire%20Bear%20(Cave%20Bear)\">dire bear</a>,&nbsp;<a href=\"https://aonprd.com/MonsterDisplay.aspx?ItemName=Dire%20Tiger%20(Smilodon)\">dire tiger</a>,&nbsp;<a href=\"https://aonprd.com/MonsterDisplay.aspx?ItemName=Mastodon\">mastodon</a>, or woolly rhinoceros.</p>\n<p>The duration of this transformation is 1 hour per level.</p>\n<p>The shaman can use this ability once per day.</p>"
    },
    "tags": [],
    "activation": {
      "type": "standard"
    },
    "unchainedAction": {
      "activation": {
        "cost": 2,
        "type": "action"
      }
    },
    "duration": {
      "value": "@classes.shaman.level",
      "units": "hour"
    },
    "target": {
      "value": "self"
    },
    "range": {
      "units": "personal"
    },
    "uses": {
      "per": "day"
    },
    "actionType": "",
    "damage": {
      "parts": [],
      "critParts": [],
      "nonCritParts": []
    },
    "attackParts": [],
    "effectNotes": [],
    "attackNotes": [],
    "changes": [],
    "contextNotes": [],
    "links": {
      "children": [],
      "charges": []
    },
    "armorProf": {
      "value": []
    },
    "weaponProf": {
      "value": []
    },
    "flags": {
      "boolean": [],
      "dictionary": []
    },
    "scriptCalls": [],
    "featType": "classFeat",
    "associations": {
      "classes": [
        [
          "Shaman"
        ]
      ]
    },
    "abilityType": "su"
  },
  "effects": [],
  "folder": null,
  "sort": 0,
  "permission": {
    "default": 0
  },
  "flags": {}
}