{
  "_id": "S4puXIZp2cBAaXmQ",
  "name": "Mantle of Moonlight",
  "type": "feat",
  "img": "systems/pf1/icons/spells/light-royal-1.jpg",
  "data": {
    "description": {
      "value": "<p>Your innate understanding of the moon renders you immune to lycanthropy. Additionally, you may disrupt a lycanthrope's connection to the moon with a successful touch attack. This action automatically forces the lycanthrope into its humanoid form, which it must remain in for a number of rounds equal to your oracle level. Upon reaching 5th level, you can use this ability to force others into a&nbsp;rage, as per the spell. Using this ability is a melee touch attack.</p>\n<p>You can use this ability once per day at 5th level plus one additional time per day for every 5 levels above 5th.</p>"
    },
    "tags": [],
    "activation": {
      "type": "standard"
    },
    "unchainedAction": {
      "activation": {
        "cost": 2,
        "type": "action"
      }
    },
    "uses": {
      "per": "day"
    },
    "actionType": "",
    "damage": {
      "parts": [],
      "critParts": [],
      "nonCritParts": []
    },
    "attackParts": [],
    "effectNotes": [],
    "attackNotes": [],
    "changes": [],
    "contextNotes": [],
    "links": {
      "children": [],
      "charges": []
    },
    "armorProf": {
      "value": []
    },
    "weaponProf": {
      "value": []
    },
    "flags": {
      "boolean": [],
      "dictionary": []
    },
    "scriptCalls": [],
    "featType": "classFeat",
    "associations": {
      "classes": [
        [
          "Oracle"
        ]
      ]
    },
    "abilityType": "su"
  },
  "effects": [],
  "folder": null,
  "sort": 0,
  "permission": {
    "default": 0
  },
  "flags": {}
}