{
  "_id": "sOwXPOtI5IlEBKwr",
  "name": "Martial Flexibility",
  "type": "feat",
  "img": "systems/pf1/icons/skills/yellow_27.jpg",
  "data": {
    "description": {
      "value": "<p>A brawler can take a move action to gain the benefit of a combat feat she doesn’t possess. This effect lasts for 1 minute. The brawler must meet all the feat’s prerequisites. She may use this ability a number of times per day equal to 3 + 1/2 her brawler level (minimum 1).<br><br>The brawler can use this ability again before the duration expires in order to replace the previous combat feat with another choice.<br><br>If a combat feat has a daily use limitation (such as @Compendium[pf1.feats.GsjouI6B8X7BA5wN]{Stunning Fist}), any uses of that combat feat while using this ability count toward that feat’s daily limit. At 6th level, a brawler can use this ability to gain the benefit of two combat feats at the same time. She may select one feat as a swift action or two feats as a move action. She may use one of these feats to meet a prerequisite of the second feat; doing so means that she cannot replace a feat currently fulfilling another’s prerequisite without also replacing those feats that require it. Each individual feat selected counts toward her daily uses of this ability.<br><br>At 10th level, a brawler can use this ability to gain the benefit of three combat feats at the same time. She may select one feat as a free action, two feats as a swift action, or three feats as a move action. She may use one of the feats to meet a prerequisite of the second and third feats, and use the second feat to meet a prerequisite of the third feat. Each individual feat selected counts toward her daily uses of this ability.<br><br>At 12th level, a brawler can use this ability to gain the benefit of one combat feat as an immediate action or three combat feats as a swift action. Each individual feat selected counts toward her daily uses of this ability.<br><br>At 20th level, a brawler can use this ability to gain the benefit of any number of combat feats as a swift action. Each feat selected counts toward her daily uses of this ability.</p>"
    },
    "tags": [],
    "activation": {
      "type": "special"
    },
    "unchainedAction": {
      "activation": {
        "type": "special"
      }
    },
    "uses": {
      "per": "day"
    },
    "actionType": "",
    "damage": {
      "parts": [],
      "critParts": [],
      "nonCritParts": []
    },
    "attackParts": [],
    "effectNotes": [],
    "attackNotes": [],
    "changes": [],
    "contextNotes": [],
    "links": {
      "children": [],
      "charges": []
    },
    "armorProf": {
      "value": []
    },
    "weaponProf": {
      "value": []
    },
    "flags": {
      "boolean": [],
      "dictionary": []
    },
    "scriptCalls": [],
    "featType": "classFeat",
    "associations": {
      "classes": [
        [
          "Brawler"
        ]
      ]
    },
    "abilityType": "ex"
  },
  "effects": [],
  "folder": null,
  "sort": 0,
  "permission": {
    "default": 0
  },
  "flags": {}
}