{
  "_id": "qJIdQ0udgHVZEhui",
  "name": "Nanite Resurgence",
  "type": "feat",
  "img": "systems/pf1/icons/skills/violet_06.jpg",
  "data": {
    "description": {
      "value": "<p>At 9th level, once per day as an&nbsp;<a href=\"https://www.d20pfsrd.com/gamemastering/combat#TOC-Immediate-Actions\">immediate action</a>&nbsp;upon being reduced to one-quarter your maximum&nbsp;<a href=\"https://www.d20pfsrd.com/gamemastering/combat#TOC-Hit-Points\">hit points</a>, you can force the mechanical&nbsp;<a href=\"https://www.d20pfsrd.com/bestiary/rules-for-monsters/creature-types#TOC-Swarm\">swarm</a>&nbsp;living inside you to keep you alive. This ability functions like a @Compendium[pf1.spells.u7y6niex9e7tbhyp]{Resurgent Transformation}&nbsp;spell using your&nbsp;<a href=\"https://www.d20pfsrd.com/classes/core-classes/sorcerer\">sorcerer</a>&nbsp;level as the&nbsp;<a href=\"https://www.d20pfsrd.com/magic#TOC-Caster-Level\">caster level</a>, except it is an extraordinary ability and cannot be dispelled.</p>\n<p>At 17th level, you can use this ability twice per day (though using this ability twice in one 24-hour period entails a chance of system shock and death; see the spell’s description for more details).</p>\n<p>At 20th level, you never die of system shock from using this ability.</p>"
    },
    "tags": [],
    "activation": {
      "type": "immediate"
    },
    "unchainedAction": {
      "activation": {
        "type": "reaction"
      }
    },
    "duration": {
      "units": "inst"
    },
    "target": {
      "value": "Self"
    },
    "range": {
      "units": "personal"
    },
    "uses": {
      "per": "day"
    },
    "measureTemplate": {
      "size": "0"
    },
    "actionType": "",
    "damage": {
      "parts": [],
      "critParts": [],
      "nonCritParts": []
    },
    "attackParts": [],
    "effectNotes": [],
    "attackNotes": [],
    "changes": [],
    "contextNotes": [],
    "links": {
      "children": [],
      "charges": []
    },
    "armorProf": {
      "value": []
    },
    "weaponProf": {
      "value": []
    },
    "flags": {
      "boolean": [],
      "dictionary": []
    },
    "scriptCalls": [],
    "featType": "classFeat",
    "associations": {
      "classes": [
        [
          "Sorcerer"
        ]
      ]
    },
    "abilityType": "ex"
  },
  "effects": [],
  "folder": null,
  "sort": 0,
  "permission": {
    "default": 0
  },
  "flags": {}
}