{
  "_id": "qzCj0dGiKmIMw4wf",
  "name": "Perfection of Self",
  "type": "feat",
  "img": "systems/pf1/icons/feats/stand-still.jpg",
  "data": {
    "description": {
      "value": "<p>At 8th level, as a&nbsp;<a href=\"https://www.d20pfsrd.com/gamemastering/combat#TOC-Swift-Actions\">swift action</a>&nbsp;you can grant yourself an&nbsp;<a href=\"https://www.d20pfsrd.com/basics-ability-scores/glossary#TOC-Enhancement-Bonus\">enhancement bonus</a>&nbsp;to a single ability score equal to 1/2 your wizard level (maximum +10) for one round. You may use this ability for a number of times per day equal to your wizard level.</p>"
    },
    "tags": [],
    "activation": {
      "type": "swift"
    },
    "unchainedAction": {
      "activation": {
        "type": "action"
      }
    },
    "duration": {
      "value": "1",
      "units": "round"
    },
    "target": {
      "value": "self"
    },
    "range": {
      "units": "personal"
    },
    "uses": {
      "per": "day"
    },
    "measureTemplate": {
      "size": "0"
    },
    "actionType": "",
    "damage": {
      "parts": [],
      "critParts": [],
      "nonCritParts": []
    },
    "attackParts": [],
    "effectNotes": [],
    "attackNotes": [],
    "changes": [],
    "contextNotes": [],
    "links": {
      "children": [],
      "charges": []
    },
    "armorProf": {
      "value": []
    },
    "weaponProf": {
      "value": []
    },
    "flags": {
      "boolean": [],
      "dictionary": []
    },
    "scriptCalls": [],
    "featType": "classFeat",
    "associations": {
      "classes": [
        [
          "Wizard"
        ]
      ]
    },
    "abilityType": "su"
  },
  "effects": [],
  "folder": null,
  "sort": 0,
  "permission": {
    "default": 0
  },
  "flags": {}
}