{
  "_id": "XRjR8RNkOIvNGFBA",
  "name": "Planar haze",
  "type": "feat",
  "img": "systems/pf1/icons/spells/light-royal-1.jpg",
  "data": {
    "description": {
      "value": "<p>You can fill an area with the smoky miasma of the Outer Rifts. Once per day when you cast a spell that has an area, as a swift action you may also fill that area with a thick haze that acts as @Compendium[pf1.spells.tuh5vc2bojaws3ig]{Obscuring Mist}, except it originates at the center of your spell effect and cannot expand beyond the spell’s area.</p>\n<p>At 10th level, the haze functions as @Compendium[pf1.spells.g33euis7yi9pwddy]{Fog Cloud}.</p>\n<p>You may use this ability one additional time per day at 7th level, and one additional time per day at 14th level.</p>"
    },
    "tags": [],
    "activation": {
      "type": "standard"
    },
    "unchainedAction": {
      "activation": {
        "cost": 2,
        "type": "action"
      }
    },
    "uses": {
      "per": "day"
    },
    "actionType": "",
    "damage": {
      "parts": [],
      "critParts": [],
      "nonCritParts": []
    },
    "attackParts": [],
    "effectNotes": [],
    "attackNotes": [],
    "changes": [],
    "contextNotes": [],
    "links": {
      "children": [],
      "charges": []
    },
    "armorProf": {
      "value": []
    },
    "weaponProf": {
      "value": []
    },
    "flags": {
      "boolean": [],
      "dictionary": []
    },
    "scriptCalls": [],
    "featType": "classFeat",
    "associations": {
      "classes": [
        [
          "Oracle"
        ]
      ]
    },
    "abilityType": "su"
  },
  "effects": [],
  "folder": null,
  "sort": 0,
  "permission": {
    "default": 0
  },
  "flags": {}
}