{
  "_id": "ROXURblDsoniL80a",
  "name": "Prayer Aura",
  "type": "feat",
  "img": "systems/pf1/icons/spells/slice-spirit-3.jpg",
  "data": {
    "description": {
      "value": "<p>At 13th level, as a free action, you can extend an aura around you to bolster your allies and make your enemies less effective. You can use this aura for a number of rounds per day equal to your psychic level. These rounds don’t need to be consecutive. This functions as the @Compendium[pf1.spells.hu8179fdqfkl0bqj]{Prayer} spell, granting your allies a +1 luck bonus on attack rolls, weapon damage rolls, saves, and skill checks and imposing a –1 penalty on your enemies’ rolls of those types.</p>\n<p>If you are chaotic, lawful, good, or evil, the penalty from your aura changes to –2 against creatures of an opposing alignment. The penalty doesn’t change further for a creature that opposes you on two alignment axes (such as a chaotic evil creature fighting a lawful good psychic).</p>"
    },
    "tags": [],
    "activation": {
      "type": "swift"
    },
    "unchainedAction": {
      "activation": {
        "type": "action"
      }
    },
    "duration": {
      "value": "1",
      "units": "round"
    },
    "uses": {
      "per": "day"
    },
    "actionType": "",
    "damage": {
      "parts": [],
      "critParts": [],
      "nonCritParts": []
    },
    "attackParts": [],
    "effectNotes": [],
    "attackNotes": [],
    "changes": [],
    "contextNotes": [],
    "links": {
      "children": [],
      "charges": []
    },
    "armorProf": {
      "value": []
    },
    "weaponProf": {
      "value": []
    },
    "flags": {
      "boolean": [],
      "dictionary": []
    },
    "scriptCalls": [],
    "featType": "classFeat",
    "associations": {
      "classes": [
        [
          "Psychic"
        ]
      ]
    },
    "abilityType": "su"
  },
  "effects": [],
  "folder": null,
  "sort": 0,
  "permission": {
    "default": 0
  },
  "flags": {}
}