{
  "_id": "lMof0b1yecCm92Uj",
  "name": "Prehensile Hair",
  "type": "feat",
  "img": "systems/pf1/icons/skills/violet_02.jpg",
  "data": {
    "description": {
      "value": "<p>The witch can instantly cause her hair (or even her eyebrows) to grow up to 10 feet long or to shrink to its normal length, and can manipulate her hair as if it were a limb with a Strength score equal to her Intelligence score. Her hair has reach 10 feet, and she can use it as a secondary natural attack that deals 1d3 points of damage (1d2 for a Small witch). Her hair can manipulate objects (but not weapons) as dexterously as a human hand. The hair cannot be sundered or attacked as a separate creature. Pieces cut from the witch's elongated hair shrink away to nothing. Using her hair does not harm the witch's head or neck, even if she lifts something heavy with it.</p>\n<p>The witch can manipulate her hair a number of minutes each day equal to her level; these minutes do not need to be consecutive, but must be spent in 1-minute increments.</p>\n<p>A typical male witch with this hex can also manipulate his beard, moustache, or eyebrows.</p>"
    },
    "tags": [],
    "activation": {
      "type": "standard"
    },
    "unchainedAction": {
      "activation": {
        "cost": 2,
        "type": "action"
      }
    },
    "duration": {
      "value": "1",
      "units": "minute"
    },
    "target": {
      "value": "self"
    },
    "range": {
      "units": "personal"
    },
    "uses": {
      "per": "day"
    },
    "actionType": "",
    "damage": {
      "parts": [],
      "critParts": [],
      "nonCritParts": []
    },
    "attackParts": [],
    "effectNotes": [],
    "attackNotes": [],
    "changes": [],
    "contextNotes": [],
    "links": {
      "children": [],
      "charges": []
    },
    "armorProf": {
      "value": []
    },
    "weaponProf": {
      "value": []
    },
    "flags": {
      "boolean": [],
      "dictionary": []
    },
    "scriptCalls": [],
    "featType": "classFeat",
    "associations": {
      "classes": [
        [
          "Witch"
        ]
      ]
    },
    "abilityType": "su"
  },
  "effects": [],
  "folder": null,
  "sort": 0,
  "permission": {
    "default": 0
  },
  "flags": {}
}