{
  "_id": "IYVmcGNgypL6Goah",
  "name": "Raise the Deep",
  "type": "feat",
  "img": "systems/pf1/icons/skills/emerald_03.jpg",
  "data": {
    "description": {
      "value": "<p>At 15th level, you raise water as per @Compendium[pf1.spells.7yf67b7y4byj96w7]{Control Water}, but no water need be present. This created water is stationary and does not flow out of the area where you create it; it lasts 1 round per sorcerer level and then disappears. At 20th level, the dimensions of the effect are doubled. You may use this ability once per day.</p>"
    },
    "tags": [],
    "activation": {
      "type": "standard"
    },
    "unchainedAction": {
      "activation": {
        "cost": 2,
        "type": "action"
      }
    },
    "duration": {
      "value": "@classes.sorcerer.level",
      "units": "round"
    },
    "uses": {
      "per": "day"
    },
    "measureTemplate": {
      "size": "0"
    },
    "actionType": "",
    "damage": {
      "parts": [],
      "critParts": [],
      "nonCritParts": []
    },
    "attackParts": [],
    "effectNotes": [],
    "attackNotes": [],
    "changes": [],
    "contextNotes": [],
    "links": {
      "children": [],
      "charges": []
    },
    "armorProf": {
      "value": []
    },
    "weaponProf": {
      "value": []
    },
    "flags": {
      "boolean": [],
      "dictionary": []
    },
    "scriptCalls": [],
    "featType": "classFeat",
    "associations": {
      "classes": [
        [
          "Sorcerer"
        ]
      ]
    },
    "abilityType": "sp"
  },
  "effects": [],
  "folder": null,
  "sort": 0,
  "permission": {
    "default": 0
  },
  "flags": {}
}