{
  "_id": "Pl9Rxa4aeany32su",
  "name": "Resiliency (UC)",
  "type": "feat",
  "img": "systems/pf1/icons/items/weapons/hunga-munga.PNG",
  "data": {
    "description": {
      "value": "<p>Once per day, a rogue with this ability can gain a number of temporary hit points equal to twice her rogue level. Activating this ability is an immediate action that can be performed only when the rogue is brought to below 0 hit points. This ability can be used to prevent the rogue from dying. These temporary hit points last for 1 minute. If the rogue’s hit points drop below 0 due to the loss of these temporary hit points, she falls unconscious and is dying as normal.</p>"
    },
    "tags": [],
    "activation": {
      "type": "immediate"
    },
    "unchainedAction": {
      "activation": {
        "type": "reaction"
      }
    },
    "uses": {
      "per": "day"
    },
    "actionType": "",
    "damage": {
      "parts": [],
      "critParts": [],
      "nonCritParts": []
    },
    "attackParts": [],
    "effectNotes": [],
    "attackNotes": [],
    "changes": [],
    "contextNotes": [],
    "links": {
      "children": [],
      "charges": []
    },
    "armorProf": {
      "value": []
    },
    "weaponProf": {
      "value": []
    },
    "flags": {
      "boolean": [],
      "dictionary": []
    },
    "scriptCalls": [],
    "featType": "classFeat",
    "associations": {
      "classes": [
        [
          "Rogue (Unchained)"
        ]
      ]
    },
    "abilityType": "ex"
  },
  "effects": [],
  "folder": null,
  "sort": 0,
  "permission": {
    "default": 0
  },
  "flags": {}
}