{
  "_id": "yotHT522pQoKDhID",
  "name": "Slayer's Advance",
  "type": "feat",
  "img": "systems/pf1/icons/feats/acrobatic-step.png",
  "data": {
    "description": {
      "value": "<p>At 13th level, a slayer can once per day move up to twice his base speed as a move action. He may use Stealth as part of this movement, but takes a –10 penalty to his check for doing so.</p>\n<p>At 17th level, he can do this twice per day.</p>"
    },
    "tags": [],
    "activation": {
      "type": "move"
    },
    "uses": {
      "per": "day"
    },
    "actionType": "",
    "damage": {
      "parts": [],
      "critParts": [],
      "nonCritParts": []
    },
    "attackParts": [],
    "effectNotes": [],
    "attackNotes": [],
    "changes": [],
    "contextNotes": [],
    "links": {
      "children": [],
      "charges": []
    },
    "armorProf": {
      "value": []
    },
    "weaponProf": {
      "value": []
    },
    "flags": {
      "boolean": [],
      "dictionary": []
    },
    "scriptCalls": [],
    "featType": "classFeat",
    "associations": {
      "classes": [
        [
          "Slayer"
        ]
      ]
    },
    "abilityType": "ex"
  },
  "effects": [],
  "folder": null,
  "sort": 0,
  "permission": {
    "default": 0
  },
  "flags": {}
}