{
  "_id": "O4NQ0ZjYO1LQICCr",
  "name": "Speak with Wood",
  "type": "feat",
  "img": "systems/pf1/icons/spells/light-royal-1.jpg",
  "data": {
    "description": {
      "value": "<p>You can talk to wood and learn what it knows. You must spend 1 minute meditating on and communing with the wood. At the end of this time, you can speak with the wood. This functions as the @Compendium[pf1.spells.wgm8mm1za909pwch]{Stone Tell} spell, except with wood instead of stones.</p>\n<p>You can use this ability for 1 minute per oracle level. This duration does not need to be consecutive, but it must be used in 1-minute increments. You can speak with natural or worked wood.</p>\n<p>You must be at least 11th level to select this revelation.</p>"
    },
    "tags": [],
    "activation": {
      "type": "minute"
    },
    "unchainedAction": {
      "activation": {
        "type": "minute"
      }
    },
    "duration": {
      "value": "1",
      "units": "minute"
    },
    "range": {
      "units": "personal"
    },
    "uses": {
      "per": "day"
    },
    "actionType": "",
    "damage": {
      "parts": [],
      "critParts": [],
      "nonCritParts": []
    },
    "attackParts": [],
    "effectNotes": [],
    "attackNotes": [],
    "changes": [],
    "contextNotes": [],
    "links": {
      "children": [],
      "charges": []
    },
    "armorProf": {
      "value": []
    },
    "weaponProf": {
      "value": []
    },
    "flags": {
      "boolean": [],
      "dictionary": []
    },
    "scriptCalls": [],
    "featType": "classFeat",
    "associations": {
      "classes": [
        [
          "Oracle"
        ]
      ]
    },
    "abilityType": "sp"
  },
  "effects": [],
  "folder": null,
  "sort": 0,
  "permission": {
    "default": 0
  },
  "flags": {}
}