{
  "_id": "zS6YHA2t8xoI7Ie7",
  "name": "Spell Trickery",
  "type": "feat",
  "img": "systems/pf1/icons/spells/enchant-red-3.jpg",
  "data": {
    "description": {
      "value": "<p>When the magus successfully performs a dirty trick combat maneuver, he can cast an illusion or enchantment spell he has prepared with a casting time of 1 standard action or less as a swift action. The magus can use this ability once per day.</p>\n<p>The magus must be at least 12th level before selecting this magus arcana.</p>"
    },
    "tags": [],
    "activation": {
      "type": "special"
    },
    "unchainedAction": {
      "activation": {
        "type": "special"
      }
    },
    "uses": {
      "per": "day"
    },
    "actionType": "",
    "damage": {
      "parts": [],
      "critParts": [],
      "nonCritParts": []
    },
    "attackParts": [],
    "effectNotes": [],
    "attackNotes": [],
    "changes": [],
    "contextNotes": [],
    "links": {
      "children": [],
      "charges": []
    },
    "armorProf": {
      "value": []
    },
    "weaponProf": {
      "value": []
    },
    "flags": {
      "boolean": [],
      "dictionary": []
    },
    "scriptCalls": [],
    "featType": "classFeat",
    "associations": {
      "classes": [
        [
          "Magus"
        ]
      ]
    },
    "abilityType": "ex"
  },
  "effects": [],
  "folder": null,
  "sort": 0,
  "permission": {
    "default": 0
  },
  "flags": {}
}