{
  "_id": "ab4bvaC7BkuADTDU",
  "name": "Thunderbolt",
  "type": "feat",
  "img": "systems/pf1/icons/spells/lighting-eerie-1.jpg",
  "data": {
    "description": {
      "value": "<p>At 9th level, you can command a stroke of lightning to strike from above in a 5-foot-radius cylinder 60 feet high. The thunderbolt inflicts 1d6 points of damage per sorcerer level; half of this damage is electricity and half is sonic. A&nbsp;<a href=\"https://www.d20pfsrd.com/gamemastering/combat#TOC-Reflex\">Reflex</a>&nbsp;save (DC 10 + 1/2 your sorcerer level + your&nbsp;<a href=\"https://www.d20pfsrd.com/basics-ability-scores/ability-scores#TOC-Charisma-Cha-\">Charisma</a>&nbsp;modifier) halves this damage. Creatures failing their saves are&nbsp;<a href=\"https://www.d20pfsrd.com/gamemastering/conditions#TOC-Deafened\">deafened</a>&nbsp;for 1 round. At 9th level, you can use this ability once per day, at 17th twice per day, and at 20th three times per day. This power has a range of 120 feet.</p>"
    },
    "tags": [],
    "activation": {
      "type": "standard"
    },
    "unchainedAction": {
      "activation": {
        "cost": 2,
        "type": "action"
      }
    },
    "duration": {
      "units": "inst"
    },
    "target": {
      "value": "5-ft. radius cylinder"
    },
    "uses": {
      "per": "day"
    },
    "measureTemplate": {
      "size": "0"
    },
    "actionType": "spellsave",
    "damage": {
      "parts": [
        [
          "(@classes.sorcerer.level)d6",
          "Electricity & Sonic"
        ]
      ],
      "critParts": [],
      "nonCritParts": []
    },
    "attackParts": [],
    "ability": {
      "damage": ""
    },
    "save": {
      "dc": "0",
      "type": "ref",
      "description": "Reflex half"
    },
    "effectNotes": [],
    "attackNotes": [],
    "changes": [],
    "contextNotes": [],
    "links": {
      "children": [],
      "charges": []
    },
    "armorProf": {
      "value": []
    },
    "weaponProf": {
      "value": []
    },
    "flags": {
      "boolean": [],
      "dictionary": []
    },
    "scriptCalls": [],
    "featType": "classFeat",
    "associations": {
      "classes": [
        [
          "Sorcerer"
        ]
      ]
    },
    "abilityType": "sp"
  },
  "effects": [],
  "folder": null,
  "sort": 0,
  "permission": {
    "default": 0
  },
  "flags": {}
}