{
  "_id": "YvEe9B32X53ZCuWs",
  "name": "Thundercloud",
  "type": "feat",
  "img": "systems/pf1/icons/spells/fog-blue-2.jpg",
  "data": {
    "description": {
      "value": "<p>At 8th level, you can, as a standard action, summon a storm cloud. This power functions as&nbsp;fog cloud&nbsp;except that creatures inside the cloud are deafened and take 2d6 points of electricity damage each round from the flashes of thunder and lightning. Once created, you can concentrate on the cloud to move it up to 30 feet each round. You can use this ability for a number of rounds per day equal to your cleric level. These rounds do not need to be consecutive.</p>\n<p>This power replaces the Electricity Resistance power of the Air Domain.</p>"
    },
    "tags": [],
    "activation": {
      "type": "standard"
    },
    "unchainedAction": {
      "activation": {
        "cost": 2,
        "type": "action"
      }
    },
    "duration": {
      "value": "1",
      "units": "round"
    },
    "uses": {
      "per": "day"
    },
    "measureTemplate": {
      "size": "0"
    },
    "actionType": "",
    "damage": {
      "parts": [],
      "critParts": [],
      "nonCritParts": []
    },
    "attackParts": [],
    "effectNotes": [],
    "attackNotes": [],
    "changes": [],
    "contextNotes": [],
    "links": {
      "children": [],
      "charges": []
    },
    "armorProf": {
      "value": []
    },
    "weaponProf": {
      "value": []
    },
    "flags": {
      "boolean": [],
      "dictionary": []
    },
    "scriptCalls": [],
    "featType": "classFeat",
    "associations": {
      "classes": [
        [
          "Cleric"
        ]
      ]
    },
    "abilityType": "su"
  },
  "effects": [],
  "folder": null,
  "sort": 0,
  "permission": {
    "default": 0
  },
  "flags": {}
}