{
  "_id": "eF2WDwa3qbtJhUYg",
  "name": "Time Seer",
  "type": "feat",
  "img": "systems/pf1/icons/spells/light-royal-1.jpg",
  "data": {
    "description": {
      "value": "<p>You can peer through the mists of time to see things as they truly are, as if using the @Compendium[pf1.spells.jbqo4o2b2tmdz7wv]{True Seeing} spell.</p>\n<p>At 15th level, this functions like @Compendium[pf1.spells.2vb5orfcy57lrfmc]{Moment of Prescience}.</p>\n<p>At 18th level, this functions like @Compendium[pf1.spells.vl7yer8k1leyuxld]{Foresight}.</p>\n<p>You can use this ability for a number of minutes per day equal to your oracle level, but these minutes do not need to be consecutive.</p>\n<p>You must be at least 11th level to select this revelation.</p>"
    },
    "tags": [],
    "activation": {
      "type": "standard"
    },
    "unchainedAction": {
      "activation": {
        "cost": 2,
        "type": "action"
      }
    },
    "duration": {
      "value": "1",
      "units": "minute"
    },
    "target": {
      "value": "self"
    },
    "range": {
      "units": "personal"
    },
    "uses": {
      "per": "day"
    },
    "actionType": "",
    "damage": {
      "parts": [],
      "critParts": [],
      "nonCritParts": []
    },
    "attackParts": [],
    "effectNotes": [],
    "attackNotes": [],
    "changes": [],
    "contextNotes": [],
    "links": {
      "children": [],
      "charges": []
    },
    "armorProf": {
      "value": []
    },
    "weaponProf": {
      "value": []
    },
    "flags": {
      "boolean": [],
      "dictionary": []
    },
    "scriptCalls": [],
    "featType": "classFeat",
    "associations": {
      "classes": [
        [
          "Oracle"
        ]
      ]
    },
    "abilityType": "su"
  },
  "effects": [],
  "folder": null,
  "sort": 0,
  "permission": {
    "default": 0
  },
  "flags": {}
}