{
  "_id": "aCvcjJIZZ4ZRSVC1",
  "name": "Time Flicker",
  "type": "feat",
  "img": "systems/pf1/icons/spells/light-royal-1.jpg",
  "data": {
    "description": {
      "value": "<p>As a standard action, you can flicker in and out of time, gaining concealment (as the @Compendium[pf1.spells.18kryvj2dfuymk9d]{Blur} spell). You can use this ability for 1 minute per oracle level that you possess per day. This duration does not need to be consecutive, but it must be spent in 1-minute increments.</p>\n<p>At 7th level, each time you activate this ability, you can treat it as the&nbsp;blink&nbsp;spell, though each round spent this way counts as 1 minute of your normal time flicker duration.</p>\n<p>You must be at least 3rd level to select this revelation.</p>"
    },
    "tags": [],
    "activation": {
      "type": "standard"
    },
    "unchainedAction": {
      "activation": {
        "cost": 2,
        "type": "action"
      }
    },
    "duration": {
      "value": "1",
      "units": "minute"
    },
    "target": {
      "value": "self"
    },
    "range": {
      "units": "personal"
    },
    "uses": {
      "per": "day"
    },
    "actionType": "",
    "damage": {
      "parts": [],
      "critParts": [],
      "nonCritParts": []
    },
    "attackParts": [],
    "effectNotes": [],
    "attackNotes": [],
    "changes": [],
    "contextNotes": [],
    "links": {
      "children": [],
      "charges": []
    },
    "armorProf": {
      "value": []
    },
    "weaponProf": {
      "value": []
    },
    "flags": {
      "boolean": [],
      "dictionary": []
    },
    "scriptCalls": [],
    "featType": "classFeat",
    "associations": {
      "classes": [
        [
          "Oracle"
        ]
      ]
    },
    "abilityType": "su"
  },
  "effects": [],
  "folder": null,
  "sort": 0,
  "permission": {
    "default": 0
  },
  "flags": {}
}