{
  "_id": "bzsr39prsg5a1Ory",
  "name": "Torag's Boon",
  "type": "feat",
  "img": "systems/pf1/icons/spells/light-royal-1.jpg",
  "data": {
    "description": {
      "value": "<p>As a standard action, you can call upon Torag’s protection to form a shield around you that blocks incoming attacks for a number of minutes equal to 1/2 your oracle level (minimum 1). The shield grants a +4 deflection bonus to your Armor Class.</p>\n<p>At 7th level, and again at 11th level and 15th level, this bonus increases by +1.</p>\n<p>At 19th level, the shield also grants you DR 2/chaos. The shield’s duration does not need to be consecutive, but it must be spent in 1-minute increments.</p>"
    },
    "tags": [],
    "activation": {
      "type": "standard"
    },
    "unchainedAction": {
      "activation": {
        "cost": 2,
        "type": "action"
      }
    },
    "duration": {
      "value": "1",
      "units": "minute"
    },
    "target": {
      "value": "self"
    },
    "range": {
      "units": "personal"
    },
    "uses": {
      "per": "day"
    },
    "actionType": "",
    "damage": {
      "parts": [],
      "critParts": [],
      "nonCritParts": []
    },
    "attackParts": [],
    "effectNotes": [],
    "attackNotes": [],
    "changes": [],
    "contextNotes": [],
    "links": {
      "children": [],
      "charges": []
    },
    "armorProf": {
      "value": []
    },
    "weaponProf": {
      "value": []
    },
    "flags": {
      "boolean": [],
      "dictionary": []
    },
    "scriptCalls": [],
    "featType": "classFeat",
    "associations": {
      "classes": [
        [
          "Oracle"
        ]
      ]
    },
    "abilityType": "su"
  },
  "effects": [],
  "folder": null,
  "sort": 0,
  "permission": {
    "default": 0
  },
  "flags": {}
}