{
  "_id": "mEwZ60gPM2NUr2wk",
  "name": "Wave Strike",
  "type": "feat",
  "img": "systems/pf1/icons/skills/violet_20.jpg",
  "data": {
    "description": {
      "value": "<p>As a standard action, the shaman can perform a melee touch attack that drenches a creature and pushes it away. The opponent takes 1d6 points of nonlethal damage + 1 point for every 2 shaman levels they possess and is pushed 5 feet directly away from the shaman. This movement does not provoke attacks of opportunity.</p>\n<p>A shaman can use this ability a number of times per day equal to 3 + her Charisma modifier.</p>\n<p>At 11th level, any melee weapon she wields is treated as if it had the&nbsp;quenching&nbsp;weapon special ability.</p>"
    },
    "tags": [],
    "activation": {
      "type": "standard"
    },
    "unchainedAction": {
      "activation": {
        "cost": 2,
        "type": "action"
      }
    },
    "duration": {
      "units": "inst"
    },
    "target": {
      "value": "creature touched"
    },
    "range": {
      "units": "touch"
    },
    "uses": {
      "per": "day"
    },
    "actionType": "msak",
    "damage": {
      "parts": [
        [
          "1d6 + floor(@classes.shaman.level / 2)",
          "Nonlethal"
        ]
      ],
      "critParts": [],
      "nonCritParts": []
    },
    "attackParts": [],
    "ability": {
      "attack": "dex",
      "damage": ""
    },
    "save": {
      "dc": "0"
    },
    "effectNotes": [],
    "attackNotes": [],
    "changes": [],
    "contextNotes": [],
    "links": {
      "children": [],
      "charges": []
    },
    "armorProf": {
      "value": []
    },
    "weaponProf": {
      "value": []
    },
    "flags": {
      "boolean": [],
      "dictionary": []
    },
    "scriptCalls": [],
    "featType": "classFeat",
    "associations": {
      "classes": [
        [
          "Shaman"
        ]
      ]
    },
    "abilityType": "su"
  },
  "effects": [],
  "folder": null,
  "sort": 0,
  "permission": {
    "default": 0
  },
  "flags": {}
}