{
  "_id": "ADUgheC6QFoV34Cu",
  "name": "Whispering Evil",
  "type": "feat",
  "img": "systems/pf1/icons/skills/shadow_20.jpg",
  "data": {
    "description": {
      "value": "<p>At 8th level, as a standard action, you can whisper a hypnotizing litany of empty promises. Each enemy within a 30-foot emanation that can hear you must succeed on a Will saving throw or become fascinated for as long as you continue the litany. You can use this power a number of rounds per day equal to your cleric level, but these rounds do not need to be consecutive. This is a mind-affecting effect.</p>\n<p>This power replaces the Scythe of Evil power of the Evil Domain.</p>"
    },
    "tags": [],
    "activation": {
      "type": "standard"
    },
    "unchainedAction": {
      "activation": {
        "cost": 2,
        "type": "action"
      }
    },
    "duration": {
      "value": "1",
      "units": "round"
    },
    "target": {
      "value": "foes within range"
    },
    "range": {
      "value": "30",
      "units": "ft"
    },
    "uses": {
      "per": "day"
    },
    "measureTemplate": {
      "size": "0"
    },
    "actionType": "",
    "damage": {
      "parts": [],
      "critParts": [],
      "nonCritParts": []
    },
    "attackParts": [],
    "effectNotes": [],
    "attackNotes": [],
    "changes": [],
    "contextNotes": [],
    "links": {
      "children": [],
      "charges": []
    },
    "armorProf": {
      "value": []
    },
    "weaponProf": {
      "value": []
    },
    "flags": {
      "boolean": [],
      "dictionary": []
    },
    "scriptCalls": [],
    "featType": "classFeat",
    "associations": {
      "classes": [
        [
          "Cleric"
        ]
      ]
    },
    "abilityType": "su"
  },
  "effects": [],
  "folder": null,
  "sort": 0,
  "permission": {
    "default": 0
  },
  "flags": {}
}