{
  "_id": "jEEmKcySkE2oxM6E",
  "name": "Dark Dancer",
  "type": "npc",
  "img": "systems/pf1/icons/races/human.jpg",
  "data": {
    "abilities": {
      "str": {
        "value": 11
      },
      "dex": {
        "value": 19
      },
      "con": {
        "value": 14
      },
      "int": {
        "value": 8
      },
      "cha": {
        "value": 13
      }
    },
    "attributes": {
      "hp": {
        "value": 21
      },
      "spells": {
        "usedSpellbooks": []
      }
    },
    "details": {
      "alignment": "cn"
    },
    "skills": {
      "clm": {
        "rank": 1
      },
      "per": {
        "rank": 4
      },
      "slt": {
        "rank": 1
      },
      "ste": {
        "rank": 4
      }
    },
    "traits": {
      "size": "sm",
      "senses": "see in darkness; Perception +4",
      "languages": {
        "value": [
          "dark"
        ]
      },
      "di": {
        "value": []
      },
      "dv": {
        "value": [],
        "custom": "Light Blindness"
      },
      "ci": {
        "value": []
      },
      "stature": ""
    }
  },
  "token": {
    "name": "Dark Dancer",
    "displayName": 20,
    "actorLink": false,
    "width": 1,
    "height": 1,
    "scale": 0.9,
    "mirrorX": false,
    "mirrorY": false,
    "lockRotation": false,
    "rotation": 0,
    "alpha": 1,
    "vision": false,
    "dimSight": 0,
    "brightSight": 0,
    "dimLight": 0,
    "brightLight": 0,
    "sightAngle": 0,
    "lightAngle": 0,
    "lightAlpha": 0.25,
    "lightAnimation": {
      "speed": 5,
      "intensity": 5
    },
    "disposition": -1,
    "displayBars": 20,
    "bar1": {
      "attribute": null
    },
    "bar2": {
      "attribute": null
    },
    "flags": {},
    "randomImg": false,
    "img": "systems/pf1/icons/races/human.jpg"
  },
  "items": [
    {
      "_id": "S38eYYsK7pRhPbwg",
      "name": "Humanoid (Dark Folk)",
      "type": "class",
      "img": "systems/pf1/icons/skills/blue_35.jpg",
      "data": {
        "description": {
          "value": "<p>A humanoid usually has two arms, two legs, and one head, or a human-like torso, arms, and a head. Humanoids have few or no supernatural or extraordinary abilities, but most can speak and usually have well-developed societies. They are usually Small or Medium (with the exception of giants). Every humanoid creature also has a specific subtype to match its race, such as human, giant, goblinoid, reptilian, or tengu.</p>\n<p>Humanoids with 1 Hit Die exchange the features of their humanoid Hit Die for the class features of a PC or NPC class. Humanoids of this sort are typically presented as 1st-level warriors, which means they have average combat ability and poor saving throws. Humanoids with more than 1 Hit Die are the only humanoids who make use of the features of the humanoid type.</p>\n<h2><span id=\"Features\">Features</span></h2>\n<p>A humanoid has the following features (unless otherwise noted in a creature’s entry).</p>\n<ul>\n<li>d8 Hit Die, or by character class.</li>\n<li>Base attack bonus equal to 3/4 total Hit Dice (medium progression).</li>\n<li>One good save, usually&nbsp;<a href=\"https://www.d20pfsrd.com/gamemastering/combat#TOC-Reflex\" rel=\"nofollow\">Reflex</a>.</li>\n<li>Skill points equal to 2 + Int modifier (minimum 1) per Hit Die or by character class. The following are class skills for humanoids without a character class: <a href=\"https://www.d20pfsrd.com/skills/climb\" rel=\"nofollow\">Climb</a>, <a href=\"https://www.d20pfsrd.com/skills/craft\" rel=\"nofollow\">Craft</a>, <a href=\"https://www.d20pfsrd.com/skills/handle-animal\" rel=\"nofollow\">Handle Animal</a>, <a href=\"https://www.d20pfsrd.com/skills/heal\" rel=\"nofollow\">Heal</a>, <a href=\"https://www.d20pfsrd.com/skills/profession\" rel=\"nofollow\">Profession</a>, <a href=\"https://www.d20pfsrd.com/skills/ride\" rel=\"nofollow\">Ride</a>, and <a href=\"https://www.d20pfsrd.com/skills/survival\" rel=\"nofollow\">Survival</a>. Humanoids with a character class use their class’s skill list instead.</li>\n</ul>\n<h2><span id=\"Traits\"><a name=\"TOC-Traits\"></a>Traits</span></h2>\n<p>A humanoid possesses the following traits (unless otherwise noted in a creature’s entry).</p>\n<ul>\n<li>Proficient with all simple weapons, or by character class.</li>\n<li>Proficient with whatever type of armor (light, medium, or heavy) it is described as wearing, or by character class. If a humanoid does not have a class and wears&nbsp;<a href=\"https://www.d20pfsrd.com/basics-ability-scores/glossary#TOC-Armor-Bonus\">armor</a>, it is proficient with that type of armor and all lighter types. Humanoids not indicated as wearing armor are not proficient with armor. Humanoids are proficient with shields if they are proficient with any form of armor.</li>\n<li>Humanoids breathe, eat, and sleep.</li>\n</ul>"
        },
        "tags": [],
        "changes": [],
        "links": "",
        "tag": "humanoid",
        "useCustomTag": true,
        "armorProf": {
          "value": []
        },
        "weaponProf": {
          "value": []
        },
        "flags": {
          "boolean": [],
          "dictionary": []
        },
        "scriptCalls": [],
        "classType": "racial",
        "level": 2,
        "hp": 17,
        "bab": "med",
        "skillsPerLevel": 2,
        "savingThrows": {
          "ref": {
            "value": "high"
          }
        },
        "classSkills": {
          "acr": false,
          "apr": false,
          "art": false,
          "blf": false,
          "clm": true,
          "crf": true,
          "dip": false,
          "dev": false,
          "dis": false,
          "esc": false,
          "fly": false,
          "han": true,
          "hea": true,
          "int": false,
          "kar": false,
          "kdu": false,
          "ken": false,
          "kge": false,
          "khi": false,
          "klo": false,
          "kna": false,
          "kno": false,
          "kpl": false,
          "kre": false,
          "lin": false,
          "lor": false,
          "per": false,
          "prf": false,
          "pro": true,
          "rid": true,
          "sen": false,
          "slt": false,
          "spl": false,
          "ste": false,
          "sur": true,
          "swm": false,
          "umd": false
        }
      },
      "effects": [],
      "folder": null,
      "sort": 0,
      "permission": {
        "default": 0
      },
      "flags": {}
    },
    {
      "_id": "bqhxllwvsvgygf74",
      "name": "Race: Humanoid",
      "type": "race",
      "img": "systems/pf1/icons/skills/blue_35.jpg",
      "data": {
        "description": {
          "value": "sbc | As no playable race was found a placeholder was generated."
        },
        "tags": [],
        "changes": [],
        "contextNotes": [],
        "links": {
          "children": []
        },
        "armorProf": {
          "value": []
        },
        "weaponProf": {
          "value": []
        },
        "flags": {
          "boolean": [],
          "dictionary": []
        },
        "scriptCalls": [],
        "subTypes": [
          [
            "dark folk"
          ]
        ]
      },
      "effects": [],
      "folder": null,
      "sort": 0,
      "permission": {
        "default": 0
      },
      "flags": {}
    },
    {
      "_id": "6wp81u4s904z0vi3",
      "name": "Sense: See In Darkness",
      "type": "feat",
      "img": "systems/pf1/icons/skills/shadow_17.jpg",
      "data": {
        "description": {
          "value": "Members of this race can see perfectly in darkness of any kind, including that created by spells such as deeper darkness."
        },
        "tags": [],
        "damage": {
          "parts": [],
          "critParts": [],
          "nonCritParts": []
        },
        "attackParts": [],
        "effectNotes": [],
        "attackNotes": [],
        "changes": [],
        "contextNotes": [],
        "links": {
          "children": [],
          "charges": []
        },
        "tag": "senseSeeInDarkness",
        "armorProf": {
          "value": []
        },
        "weaponProf": {
          "value": []
        },
        "flags": {
          "boolean": [],
          "dictionary": []
        },
        "scriptCalls": [],
        "featType": "racial",
        "associations": {
          "classes": []
        },
        "abilityType": "su"
      },
      "effects": [],
      "folder": null,
      "sort": 0,
      "permission": {
        "default": 0
      },
      "flags": {}
    },
    {
      "_id": "vWiTqHC4Y3Xn1Pme",
      "name": "Weapon Finesse",
      "type": "feat",
      "img": "systems/pf1/icons/feats/weapon-finesse.jpg",
      "data": {
        "description": {
          "value": "\n                <i>You are trained in using your agility in melee combat, as opposed to brute strength.</i>\n                <br />\n                <br />\n                \n                <p><b>Benefits</b></p>\n                <p><p class=\"stat-block-1\"> With a light weapon, rapier, whip, or spiked chain made for a creature of your size category, you may use your Dexterity modifier instead of your Strength modifier on attack rolls. If you carry a shield, its armor check penalty applies to your attack rolls.</p></p>\n                \n            <br />\n                <p><b>Special</b></p>\n                <p><p class=\"stat-block-1\"> Natural weapons are considered light weapons.</p></p>\n                \n            \n            "
        },
        "tags": [
          [
            "Combat"
          ],
          [
            "Weapon"
          ]
        ],
        "measureTemplate": {
          "size": "0"
        },
        "actionType": "",
        "damage": {
          "parts": [],
          "critParts": [],
          "nonCritParts": []
        },
        "attackParts": [],
        "effectNotes": [],
        "attackNotes": [],
        "changes": [],
        "contextNotes": [],
        "links": {
          "children": [],
          "charges": []
        },
        "tag": "weaponFinesse",
        "armorProf": {
          "value": []
        },
        "weaponProf": {
          "value": []
        },
        "flags": {
          "boolean": [],
          "dictionary": []
        },
        "scriptCalls": [],
        "associations": {
          "classes": []
        }
      },
      "effects": [],
      "folder": null,
      "sort": 0,
      "permission": {
        "default": 0
      },
      "flags": {}
    },
    {
      "_id": "kxp4rvpbevn4k4h5",
      "name": "Special Quality: Poison Use",
      "type": "feat",
      "img": "systems/pf1/icons/skills/yellow_36.jpg",
      "data": {
        "description": {
          "value": "sbc | Placeholder for Special Qualities, which in most statblocks are listed under SQ in the statistics block, but described in the Special Abilities. Remove duplicates as needed!"
        },
        "tags": [],
        "damage": {
          "parts": [],
          "critParts": [],
          "nonCritParts": []
        },
        "attackParts": [],
        "effectNotes": [],
        "attackNotes": [],
        "changes": [],
        "contextNotes": [],
        "links": {
          "children": [],
          "charges": []
        },
        "armorProf": {
          "value": []
        },
        "weaponProf": {
          "value": []
        },
        "flags": {
          "boolean": [],
          "dictionary": []
        },
        "scriptCalls": [],
        "featType": "misc",
        "associations": {
          "classes": []
        }
      },
      "effects": [],
      "folder": null,
      "sort": 0,
      "permission": {
        "default": 0
      },
      "flags": {}
    },
    {
      "_id": "09gpkq51oqxm97gx",
      "name": "Club",
      "type": "attack",
      "img": null,
      "data": {
        "tags": [],
        "activation": {
          "type": "attack"
        },
        "unchainedAction": {
          "activation": {
            "type": "attack"
          }
        },
        "duration": {
          "units": "inst"
        },
        "range": {
          "value": "",
          "units": "melee"
        },
        "attackName": "Club",
        "actionType": "mwak",
        "attackBonus": "0",
        "damage": {
          "parts": [
            [
              "1d4+0",
              "B"
            ]
          ],
          "critParts": [],
          "nonCritParts": []
        },
        "attackParts": [],
        "ability": {
          "attack": "str",
          "damage": "str"
        },
        "effectNotes": [],
        "attackNotes": [
          "club +2 (1d4 )"
        ],
        "links": {
          "children": [],
          "charges": [],
          "ammunition": []
        },
        "flags": {
          "boolean": [],
          "dictionary": []
        },
        "scriptCalls": [],
        "primaryAttack": false,
        "conditionals": []
      },
      "effects": [],
      "folder": null,
      "sort": 0,
      "permission": {
        "default": 0
      },
      "flags": {}
    },
    {
      "_id": "pk7wpb0fgpkzc3rt",
      "name": "Dagger",
      "type": "attack",
      "img": null,
      "data": {
        "tags": [],
        "activation": {
          "type": "attack"
        },
        "unchainedAction": {
          "activation": {
            "type": "attack"
          }
        },
        "duration": {
          "units": "inst"
        },
        "range": {
          "value": "",
          "units": "melee"
        },
        "attackName": "Dagger",
        "actionType": "mwak",
        "attackBonus": "4",
        "damage": {
          "parts": [
            [
              "1d3+0",
              "P or S"
            ]
          ],
          "critParts": [],
          "nonCritParts": []
        },
        "attackParts": [],
        "ability": {
          "attack": "str",
          "damage": "str",
          "critRange": "19"
        },
        "effectNotes": [
          "poison"
        ],
        "attackNotes": [
          "dagger +6 (1d3/19-20 plus poison)"
        ],
        "links": {
          "children": [],
          "charges": [],
          "ammunition": []
        },
        "flags": {
          "boolean": [],
          "dictionary": []
        },
        "scriptCalls": [],
        "primaryAttack": false,
        "conditionals": []
      },
      "effects": [],
      "folder": null,
      "sort": 0,
      "permission": {
        "default": 0
      },
      "flags": {}
    },
    {
      "_id": "xcp1ngsqvbje7y3r",
      "name": "Special Attack: Bardic Performance (7 Rounds)",
      "type": "attack",
      "img": "systems/pf1/icons/skills/yellow_36.jpg",
      "data": {
        "description": {
          "value": "sbc | Placeholder for Special Attacks, which in most statblocks are listed under 'Special Attacks' in the statistics block, but are described in the 'Special Abilities' block. Remove duplicates as needed!"
        },
        "tags": [],
        "damage": {
          "parts": [],
          "critParts": [],
          "nonCritParts": []
        },
        "attackParts": [],
        "effectNotes": [],
        "attackNotes": [],
        "links": {
          "children": [],
          "charges": [],
          "ammunition": []
        },
        "flags": {
          "boolean": [],
          "dictionary": []
        },
        "scriptCalls": [],
        "attackType": "misc",
        "conditionals": []
      },
      "effects": [],
      "folder": null,
      "sort": 0,
      "permission": {
        "default": 0
      },
      "flags": {}
    },
    {
      "_id": "yps957zu74bqmzj6",
      "name": "Special Attack:  Dark Curse",
      "type": "attack",
      "img": "systems/pf1/icons/skills/yellow_36.jpg",
      "data": {
        "description": {
          "value": "sbc | Placeholder for Special Attacks, which in most statblocks are listed under 'Special Attacks' in the statistics block, but are described in the 'Special Abilities' block. Remove duplicates as needed!"
        },
        "tags": [],
        "damage": {
          "parts": [],
          "critParts": [],
          "nonCritParts": []
        },
        "attackParts": [],
        "effectNotes": [],
        "attackNotes": [],
        "links": {
          "children": [],
          "charges": [],
          "ammunition": []
        },
        "flags": {
          "boolean": [],
          "dictionary": []
        },
        "scriptCalls": [],
        "attackType": "misc",
        "conditionals": []
      },
      "effects": [],
      "folder": null,
      "sort": 0,
      "permission": {
        "default": 0
      },
      "flags": {}
    },
    {
      "_id": "uh8md3ixujkh2573",
      "name": "Special Attack:  Death Throes",
      "type": "attack",
      "img": "systems/pf1/icons/skills/yellow_36.jpg",
      "data": {
        "description": {
          "value": "sbc | Placeholder for Special Attacks, which in most statblocks are listed under 'Special Attacks' in the statistics block, but are described in the 'Special Abilities' block. Remove duplicates as needed!"
        },
        "tags": [],
        "damage": {
          "parts": [],
          "critParts": [],
          "nonCritParts": []
        },
        "attackParts": [],
        "effectNotes": [],
        "attackNotes": [],
        "links": {
          "children": [],
          "charges": [],
          "ammunition": []
        },
        "flags": {
          "boolean": [],
          "dictionary": []
        },
        "scriptCalls": [],
        "attackType": "misc",
        "conditionals": []
      },
      "effects": [],
      "folder": null,
      "sort": 0,
      "permission": {
        "default": 0
      },
      "flags": {}
    },
    {
      "_id": "iffqlbmtnmvtdlg7",
      "name": "Special Attack:  Sneak Attack +1d6",
      "type": "attack",
      "img": "systems/pf1/icons/skills/yellow_36.jpg",
      "data": {
        "description": {
          "value": "sbc | Placeholder for Special Attacks, which in most statblocks are listed under 'Special Attacks' in the statistics block, but are described in the 'Special Abilities' block. Remove duplicates as needed!"
        },
        "tags": [],
        "damage": {
          "parts": [],
          "critParts": [],
          "nonCritParts": []
        },
        "attackParts": [],
        "effectNotes": [],
        "attackNotes": [],
        "links": {
          "children": [],
          "charges": [],
          "ammunition": []
        },
        "flags": {
          "boolean": [],
          "dictionary": []
        },
        "scriptCalls": [],
        "attackType": "misc",
        "conditionals": []
      },
      "effects": [],
      "folder": null,
      "sort": 0,
      "permission": {
        "default": 0
      },
      "flags": {}
    },
    {
      "_id": "krmsfc388p9if7la",
      "name": "Ecology",
      "type": "feat",
      "img": "icons/environment/wilderness/tree-oak.webp",
      "data": {
        "description": {
          "value": "<div><strong>Environment</strong>:  any underground</div><div><strong>Organization</strong>:  solitary, pair, troupe (3-5), or delegation (1 plus 1 dark stalker and 4-10 dark creepers)</div><div><strong>Treasure</strong>:  standard (club, dagger, black smear poison [3 doses; Pathfinder RPG Bestiary 54], other gear)</div>"
        },
        "tags": [],
        "damage": {
          "parts": [],
          "critParts": [],
          "nonCritParts": []
        },
        "attackParts": [],
        "effectNotes": [],
        "attackNotes": [],
        "changes": [],
        "contextNotes": [],
        "links": {
          "children": [],
          "charges": []
        },
        "armorProf": {
          "value": []
        },
        "weaponProf": {
          "value": []
        },
        "flags": {
          "boolean": [],
          "dictionary": []
        },
        "scriptCalls": [],
        "featType": "misc",
        "associations": {
          "classes": []
        }
      },
      "effects": [],
      "folder": null,
      "sort": 0,
      "permission": {
        "default": 0
      },
      "flags": {}
    },
    {
      "_id": "jyznayfku5ez7s20",
      "name": "Bardic Performance",
      "type": "feat",
      "img": "systems/pf1/icons/skills/yellow_36.jpg",
      "data": {
        "description": {
          "value": "A dark dancer can use its dancing to help its allies. A dark dancer can use bardic performance as a 2nd-level bard, but only for distraction and inspire courage effects."
        },
        "tags": [],
        "damage": {
          "parts": [],
          "critParts": [],
          "nonCritParts": []
        },
        "attackParts": [],
        "effectNotes": [],
        "attackNotes": [],
        "changes": [],
        "contextNotes": [],
        "links": {
          "children": [],
          "charges": []
        },
        "armorProf": {
          "value": []
        },
        "weaponProf": {
          "value": []
        },
        "flags": {
          "boolean": [],
          "dictionary": []
        },
        "scriptCalls": [],
        "featType": "classFeat",
        "associations": {
          "classes": []
        },
        "abilityType": "su"
      },
      "effects": [],
      "folder": null,
      "sort": 0,
      "permission": {
        "default": 0
      },
      "flags": {}
    },
    {
      "_id": "weejyv7m3wl9kevf",
      "name": "Dark Curse",
      "type": "feat",
      "img": "systems/pf1/icons/skills/yellow_36.jpg",
      "data": {
        "description": {
          "value": "As a standard action, a dark dancer can make a touch attack against a foe and curse it. The foe must succeed at a DC 12 Will saving throw to resist the effects. Creatures that fail the saving throw take a -2 penalty on all Dexterity and Charisma-based skill checks. This curse is permanent, but the victim of this curse can attempt a new saving throw each day."
        },
        "tags": [],
        "damage": {
          "parts": [],
          "critParts": [],
          "nonCritParts": []
        },
        "attackParts": [],
        "effectNotes": [],
        "attackNotes": [],
        "changes": [],
        "contextNotes": [],
        "links": {
          "children": [],
          "charges": []
        },
        "armorProf": {
          "value": []
        },
        "weaponProf": {
          "value": []
        },
        "flags": {
          "boolean": [],
          "dictionary": []
        },
        "scriptCalls": [],
        "featType": "classFeat",
        "associations": {
          "classes": []
        },
        "abilityType": "su"
      },
      "effects": [],
      "folder": null,
      "sort": 0,
      "permission": {
        "default": 0
      },
      "flags": {}
    },
    {
      "_id": "hzpcs1wg3qq46t61",
      "name": "Death Throes",
      "type": "feat",
      "img": "systems/pf1/icons/skills/yellow_36.jpg",
      "data": {
        "description": {
          "value": "When a dark dancer is slain, its body combusts in a flash of bright white light, leaving its gear in a heap on the ground. All creatures within a 10-foot burst must succeed at a DC 13 Fortitude save or be dazzled for 1d6 rounds. Other dark folk within 20 feet must succeed at a DC 13 Will save or be shaken for 1 round. The save DC is Constitution-based."
        },
        "tags": [],
        "damage": {
          "parts": [],
          "critParts": [],
          "nonCritParts": []
        },
        "attackParts": [],
        "effectNotes": [],
        "attackNotes": [],
        "changes": [],
        "contextNotes": [],
        "links": {
          "children": [],
          "charges": []
        },
        "armorProf": {
          "value": []
        },
        "weaponProf": {
          "value": []
        },
        "flags": {
          "boolean": [],
          "dictionary": []
        },
        "scriptCalls": [],
        "featType": "classFeat",
        "associations": {
          "classes": []
        },
        "abilityType": "su"
      },
      "effects": [],
      "folder": null,
      "sort": 0,
      "permission": {
        "default": 0
      },
      "flags": {}
    },
    {
      "_id": "IQPGvT5lQXta2mGe",
      "name": "sbc | Conversion Buff",
      "type": "buff",
      "img": "systems/pf1/icons/skills/yellow_36.jpg",
      "data": {
        "description": {
          "value": "<h2>sbc | Conversion Buff</h2>\n                        This Buff was created by <strong>sbc</strong> to compensate for differences between the input and the values FoundryVTT calculates automatically.\n                        <br><br>\n                        Especially when the pathfinder system gets upgraded, entries in compendiums get updated or foundry changes in some way, this buff may become outdated.\n                        <br><br>\n                        For most mooks the conversion should more or less work, but for important NPCs or creatures it is adviced to double check the conversion manually."
        },
        "tags": [],
        "changes": [
          {
            "formula": "-8",
            "modifier": "untypedPerm",
            "operator": "add",
            "priority": 0,
            "subTarget": "mhp",
            "target": "misc",
            "value": -8,
            "id": "9ewjt5nn"
          }
        ],
        "contextNotes": [],
        "links": {
          "children": []
        },
        "tag": "sbcConversionBuff",
        "useCustomTag": true,
        "flags": {
          "boolean": [],
          "dictionary": []
        },
        "scriptCalls": [],
        "buffType": "perm",
        "active": true,
        "hideFromToken": true
      },
      "effects": [],
      "folder": null,
      "sort": 0,
      "permission": {
        "default": 0,
        "iM1ACTqH0Ml6HJtd": 3
      },
      "flags": {}
    }
  ],
  "effects": [],
  "folder": null,
  "sort": 0,
  "permission": {
    "default": 0
  },
  "flags": {}
}