{
  "_id": "JKYj88oK2nco2hXG",
  "name": "Sire Devil (patraavex)",
  "type": "npc",
  "img": "systems/pf1/icons/skills/yellow_40.jpg",
  "data": {
    "abilities": {
      "str": {
        "value": 24
      },
      "dex": {
        "value": 20
      },
      "con": {
        "value": 21
      },
      "int": {
        "value": 14
      },
      "wis": {
        "value": 15
      },
      "cha": {
        "value": 19
      }
    },
    "attributes": {
      "naturalAC": "+6",
      "sr": {
        "formula": "18"
      },
      "hp": {
        "value": 94
      },
      "spells": {
        "usedSpellbooks": [
          "spelllike"
        ],
        "spellbooks": {
          "spelllike": {
            "altName": "Spell-like Abilities",
            "concentrationNotes": "sbc | Total in statblock was +12, adjust as needed.",
            "clNotes": "sbc | Total in statblock was CL 8, adjust as needed.",
            "autoSpellLevelCalculation": false,
            "autoSpellLevels": false,
            "arcaneSpellFailure": false,
            "domainSlotValue": 0
          }
        }
      }
    },
    "details": {
      "alignment": "le",
      "cr": {
        "base": 7
      }
    },
    "skills": {
      "blf": {
        "rank": 8
      },
      "dip": {
        "rank": 7
      },
      "dis": {
        "rank": 7
      },
      "int": {
        "rank": 11
      },
      "klo": {
        "rank": 8
      },
      "kno": {
        "rank": 11
      },
      "kpl": {
        "rank": 8
      },
      "per": {
        "rank": 8
      },
      "sen": {
        "rank": 8
      }
    },
    "traits": {
      "senses": "darkvision 60 ft., see in darkness, see invisibility; Perception +13",
      "dr": "5/good",
      "eres": "Acid 10;Cold 10;",
      "languages": {
        "value": [
          "celestial",
          "common",
          "infernal"
        ],
        "custom": "telepathy 100 ft."
      },
      "di": {
        "value": [
          "fire"
        ]
      },
      "dv": {
        "value": []
      },
      "ci": {
        "value": [
          "poison"
        ]
      },
      "stature": ""
    }
  },
  "token": {
    "name": "Sire Devil (patraavex)",
    "displayName": 20,
    "actorLink": false,
    "width": 1,
    "height": 1,
    "scale": 1,
    "mirrorX": false,
    "mirrorY": false,
    "lockRotation": false,
    "rotation": 0,
    "alpha": 1,
    "vision": false,
    "dimSight": 0,
    "brightSight": "60",
    "dimLight": 0,
    "brightLight": 0,
    "sightAngle": 0,
    "lightAngle": 0,
    "lightAlpha": 0.25,
    "lightAnimation": {
      "speed": 5,
      "intensity": 5
    },
    "disposition": -1,
    "displayBars": 20,
    "bar1": {
      "attribute": null
    },
    "bar2": {
      "attribute": null
    },
    "flags": {},
    "randomImg": false,
    "img": "systems/pf1/icons/skills/yellow_40.jpg"
  },
  "items": [
    {
      "_id": "cV7yHt8i5YCV0ZTd",
      "name": "Outsider (Devil, Evil, Extraplanar, Lawful, Shapechanger)",
      "type": "class",
      "img": "systems/pf1/icons/skills/yellow_40.jpg",
      "data": {
        "description": {
          "value": "<p>An outsider is at least partially composed of the essence (but not necessarily the material) of some plane other than the Material Plane. Some creatures start out as some other type and become outsiders when they attain a higher (or lower) state of spiritual existence.</p>\n<h2><span id=\"Features\">Features</span></h2>\n<p>An outsider has the following features.</p>\n<ul>\n<li>d10 Hit Dice.</li>\n<li>Base attack bonus equal to total Hit Dice (fast progression).</li>\n<li>Two good saving throws, usually&nbsp;<a href=\"https://www.d20pfsrd.com/gamemastering/combat#TOC-Reflex\" rel=\"nofollow\">Reflex</a>&nbsp;and Will.</li>\n<li>Skill points equal to 6 + Int modifier (minimum 1) per Hit Die. The following are class skills for outsiders: <a href=\"https://www.d20pfsrd.com/skills/bluff\" rel=\"nofollow\">Bluff</a>, <a href=\"https://www.d20pfsrd.com/skills/craft\" rel=\"nofollow\">Craft</a>, <a href=\"https://www.d20pfsrd.com/skills/knowledge\" rel=\"nofollow\">Knowledge</a>&nbsp;(planes), <a href=\"https://www.d20pfsrd.com/skills/perception\" rel=\"nofollow\">Perception</a>, <a href=\"https://www.d20pfsrd.com/skills/sense-motive\" rel=\"nofollow\">Sense Motive</a>, and <a href=\"https://www.d20pfsrd.com/skills/stealth\" rel=\"nofollow\">Stealth</a>. Due to their varied nature, outsiders also receive 4 additional class skills determined by the creature’s theme.</li>\n</ul>\n<h2><span id=\"Traits\">Traits</span></h2>\n<p>An outsider possesses the following traits (unless otherwise noted in a creature’s entry).</p>\n<ul>\n<li>Darkvision 60 feet.</li>\n<li>Unlike most living creatures, an outsider does not have a dual nature—its soul and body form one unit. When an outsider is slain, no soul is set loose. Spells that restore souls to their bodies, such as&nbsp;<a href=\"https://www.d20pfsrd.com/magic/all-spells/r/raise-dead\" rel=\"nofollow\">raise dead</a>,&nbsp;<a href=\"https://www.d20pfsrd.com/magic/all-spells/r/reincarnate\" rel=\"nofollow\">reincarnate</a>,&nbsp;and&nbsp;<a href=\"https://www.d20pfsrd.com/magic/all-spells/r/resurrection\" rel=\"nofollow\">resurrection</a>,&nbsp;don’t work on an outsider. It takes a different magical effect, such as&nbsp;<a href=\"https://www.d20pfsrd.com/magic/all-spells/l/limited-wish\" rel=\"nofollow\">limited wish</a>,&nbsp;<a href=\"https://www.d20pfsrd.com/magic/all-spells/w/wish\" rel=\"nofollow\">wish</a>,&nbsp;<a href=\"https://www.d20pfsrd.com/magic/all-spells/m/miracle\" rel=\"nofollow\">miracle</a>,&nbsp;or&nbsp;<a href=\"https://www.d20pfsrd.com/magic/all-spells/t/true-resurrection\" rel=\"nofollow\">true resurrection</a>&nbsp;to restore it to life. An outsider with the native subtype can be raised, reincarnated, or resurrected just as other living creatures can be.</li>\n<li>Proficient with all simple and martial weapons and any weapons mentioned in its entry.</li>\n<li>Proficient with whatever type of armor (light, medium, or heavy) it is described as wearing, as well as all lighter types. Outsiders not indicated as wearing armor are not proficient with armor. Outsiders are proficient with shields if they are proficient with any form of armor.</li>\n<li>Outsiders breathe, but do not need to eat or sleep (although they can do so if they wish). Native outsiders breathe, eat, and sleep.</li>\n</ul>"
        },
        "tags": [],
        "changes": [],
        "links": "",
        "tag": "outsider",
        "useCustomTag": true,
        "armorProf": {
          "value": []
        },
        "weaponProf": {
          "value": []
        },
        "flags": {
          "boolean": [],
          "dictionary": []
        },
        "scriptCalls": [],
        "classType": "racial",
        "level": 8,
        "hd": 10,
        "hp": 54,
        "bab": "high",
        "skillsPerLevel": 6,
        "savingThrows": {
          "ref": {
            "value": "high"
          },
          "will": {
            "value": "high"
          }
        },
        "classSkills": {
          "acr": false,
          "apr": false,
          "art": false,
          "blf": true,
          "clm": false,
          "crf": true,
          "dip": false,
          "dev": false,
          "dis": false,
          "esc": false,
          "fly": false,
          "han": false,
          "hea": false,
          "int": false,
          "kar": false,
          "kdu": false,
          "ken": false,
          "kge": false,
          "khi": false,
          "klo": false,
          "kna": false,
          "kno": false,
          "kpl": true,
          "kre": false,
          "lin": false,
          "lor": false,
          "per": true,
          "prf": false,
          "pro": false,
          "rid": false,
          "sen": true,
          "slt": false,
          "spl": false,
          "ste": true,
          "sur": false,
          "swm": false,
          "umd": false
        }
      },
      "effects": [],
      "folder": null,
      "sort": 0,
      "permission": {
        "default": 0
      },
      "flags": {}
    },
    {
      "_id": "hhiqc7sqc76rqm8w",
      "name": "Race: Outsider",
      "type": "race",
      "img": "systems/pf1/icons/skills/yellow_40.jpg",
      "data": {
        "description": {
          "value": "sbc | As no playable race was found a placeholder was generated."
        },
        "tags": [],
        "changes": [],
        "contextNotes": [],
        "links": {
          "children": []
        },
        "armorProf": {
          "value": []
        },
        "weaponProf": {
          "value": []
        },
        "flags": {
          "boolean": [],
          "dictionary": []
        },
        "scriptCalls": [],
        "creatureType": "outsider",
        "subTypes": [
          [
            "devil"
          ],
          [
            "evil"
          ],
          [
            "extraplanar"
          ],
          [
            "lawful"
          ],
          [
            "shapechanger"
          ]
        ]
      },
      "effects": [],
      "folder": null,
      "sort": 0,
      "permission": {
        "default": 0
      },
      "flags": {}
    },
    {
      "_id": "9ly22rv2lmff4782",
      "name": "Sense: Darkvision 60ft.",
      "type": "feat",
      "img": "systems/pf1/icons/skills/shadow_12.jpg",
      "data": {
        "description": {
          "value": "Darkvision is the extraordinary ability to see with no light source at all, out to a range specified for the creature. Darkvision is black-and-white only (colors cannot be discerned). It does not allow characters to see anything that they could not see otherwise—invisible objects are still invisible, and illusions are still visible as what they seem to be. Likewise, darkvision subjects a creature to gaze attacks normally. The presence of light does not spoil darkvision."
        },
        "tags": [],
        "damage": {
          "parts": [],
          "critParts": [],
          "nonCritParts": []
        },
        "attackParts": [],
        "effectNotes": [],
        "attackNotes": [],
        "changes": [],
        "contextNotes": [],
        "links": {
          "children": [],
          "charges": []
        },
        "tag": "senseDarkvision60ft",
        "armorProf": {
          "value": []
        },
        "weaponProf": {
          "value": []
        },
        "flags": {
          "boolean": [],
          "dictionary": []
        },
        "scriptCalls": [],
        "featType": "racial",
        "associations": {
          "classes": []
        },
        "abilityType": "ex"
      },
      "effects": [],
      "folder": null,
      "sort": 0,
      "permission": {
        "default": 0
      },
      "flags": {}
    },
    {
      "_id": "nkbcpoo2r1km4dgq",
      "name": "Sense: See In Darkness",
      "type": "feat",
      "img": "systems/pf1/icons/skills/shadow_17.jpg",
      "data": {
        "description": {
          "value": "Members of this race can see perfectly in darkness of any kind, including that created by spells such as deeper darkness."
        },
        "tags": [],
        "damage": {
          "parts": [],
          "critParts": [],
          "nonCritParts": []
        },
        "attackParts": [],
        "effectNotes": [],
        "attackNotes": [],
        "changes": [],
        "contextNotes": [],
        "links": {
          "children": [],
          "charges": []
        },
        "tag": "senseSeeInDarkness",
        "armorProf": {
          "value": []
        },
        "weaponProf": {
          "value": []
        },
        "flags": {
          "boolean": [],
          "dictionary": []
        },
        "scriptCalls": [],
        "featType": "racial",
        "associations": {
          "classes": []
        },
        "abilityType": "su"
      },
      "effects": [],
      "folder": null,
      "sort": 0,
      "permission": {
        "default": 0
      },
      "flags": {}
    },
    {
      "_id": "Zeq6RWYv5otvg8q7",
      "name": "Cleave",
      "type": "feat",
      "img": "systems/pf1/icons/feats/cleave.jpg",
      "data": {
        "description": {
          "value": "\n                <i>You can strike two adjacent foes with a single swing.</i>\n                <br />\n                <br />\n                \n                <p><b>Prerequisites</b></p>\n                <p> Str 13, Power Attack, base attack bonus +1.</p>\n                \n            <br />\n                <p><b>Benefits</b></p>\n                <p><p class=\"stat-block-1\"> As a standard action, you can make a single attack at your full base attack bonus against a foe within reach. If you hit, you deal damage normally and can make an additional attack (using your full base attack bonus) against a foe that is adjacent to the first and also within reach. You can only make one additional attack per round with this feat. When you use this feat, you take a &ndash;2 penalty to your Armor Class until your next turn.</p></p>\n                \n            \n            "
        },
        "tags": [
          [
            "Combat"
          ],
          [
            "Offensive"
          ]
        ],
        "measureTemplate": {
          "size": "0"
        },
        "actionType": "",
        "damage": {
          "parts": [],
          "critParts": [],
          "nonCritParts": []
        },
        "attackParts": [],
        "effectNotes": [],
        "attackNotes": [],
        "changes": [],
        "contextNotes": [],
        "links": {
          "children": [],
          "charges": []
        },
        "tag": "cleave",
        "armorProf": {
          "value": []
        },
        "weaponProf": {
          "value": []
        },
        "flags": {
          "boolean": [],
          "dictionary": []
        },
        "scriptCalls": [],
        "associations": {
          "classes": []
        }
      },
      "effects": [],
      "folder": null,
      "sort": 0,
      "permission": {
        "default": 0
      },
      "flags": {}
    },
    {
      "_id": "h9nHYLxXvIXBTmup",
      "name": "Combat Reflexes",
      "type": "feat",
      "img": "systems/pf1/icons/feats/combat-reflexes.jpg",
      "data": {
        "description": {
          "value": "\n                <i>You can make additional attacks of opportunity.</i>\n                <br />\n                <br />\n                \n                <p><b>Benefits</b></p>\n                <p><p class=\"stat-block-1\"> You may make a number of additional attacks of opportunity per round equal to your Dexterity bonus. With this feat, you may also make attacks of opportunity while flat-footed.</p></p>\n                \n            <br />\n                <p><b>Normal</b></p>\n                <p><p class=\"stat-block-1\"> A character without this feat can make only one attack of opportunity per round and can't make attacks of opportunity while flat-footed.</p></p>\n                \n            <br />\n                <p><b>Special</b></p>\n                <p><p class=\"stat-block-1\"> The Combat Reflexes feat does not allow a rogue to use her opportunist ability more than once per round.</p></p>\n                \n            \n            "
        },
        "tags": [
          [
            "Combat"
          ],
          [
            "Offensive"
          ]
        ],
        "measureTemplate": {
          "size": "0"
        },
        "actionType": "",
        "damage": {
          "parts": [],
          "critParts": [],
          "nonCritParts": []
        },
        "attackParts": [],
        "effectNotes": [],
        "attackNotes": [],
        "changes": [],
        "contextNotes": [],
        "links": {
          "children": [],
          "charges": []
        },
        "tag": "combatReflexes",
        "armorProf": {
          "value": []
        },
        "weaponProf": {
          "value": []
        },
        "flags": {
          "boolean": [],
          "dictionary": []
        },
        "scriptCalls": [],
        "associations": {
          "classes": []
        }
      },
      "effects": [],
      "folder": null,
      "sort": 0,
      "permission": {
        "default": 0
      },
      "flags": {}
    },
    {
      "_id": "TbOPtIL8Fv8obXtP",
      "name": "Improved Critical",
      "type": "feat",
      "img": "systems/pf1/icons/feats/improved-critical.jpg",
      "data": {
        "description": {
          "value": "\n                <i>Attacks made with your chosen weapon are quite deadly.</i>\n                <br />\n                <br />\n                \n                <p><b>Prerequisites</b></p>\n                <p> Proficient with weapon, base attack bonus +8.</p>\n                \n            <br />\n                <p><b>Benefits</b></p>\n                <p><p class=\"stat-block-1\"> When using the weapon you selected, your threat range is doubled.</p></p>\n                \n            <br />\n                <p><b>Special</b></p>\n                <p><p class=\"stat-block-1\"> You can gain Improved Critical multiple times. The effects do not stack. Each time you take the feat, it applies to a new type of weapon.</p><p class=\"stat-block-2\">This effect doesn't stack with any other effect that expands the threat range of a weapon.</p></p>\n                \n            \n            "
        },
        "tags": [
          [
            "Combat"
          ],
          [
            "Critical"
          ],
          [
            "Offensive"
          ]
        ],
        "measureTemplate": {
          "size": "0"
        },
        "actionType": "",
        "damage": {
          "parts": [],
          "critParts": [],
          "nonCritParts": []
        },
        "attackParts": [],
        "effectNotes": [],
        "attackNotes": [],
        "changes": [],
        "contextNotes": [],
        "links": {
          "children": [],
          "charges": []
        },
        "tag": "improvedCritical",
        "armorProf": {
          "value": []
        },
        "weaponProf": {
          "value": []
        },
        "flags": {
          "boolean": [],
          "dictionary": []
        },
        "scriptCalls": [],
        "associations": {
          "classes": []
        }
      },
      "effects": [],
      "folder": null,
      "sort": 0,
      "permission": {
        "default": 0
      },
      "flags": {}
    },
    {
      "_id": "FUW5mIXHNBBIQ1Sq",
      "name": "Power Attack",
      "type": "feat",
      "img": "systems/pf1/icons/feats/power-attack.jpg",
      "data": {
        "description": {
          "value": "\n                <i>You can make exceptionally deadly melee attacks by sacrificing accuracy for strength.</i>\n                <br />\n                <br />\n                \n                <p><b>Prerequisites</b></p>\n                <p> Str 13, base attack bonus +1.</p>\n                \n            <br />\n                <p><b>Benefits</b></p>\n                <p><p class=\"stat-block-1\"> You can choose to take a &ndash;1 penalty on all melee attack rolls and combat maneuver checks to gain a +2 bonus on all melee damage rolls. This bonus to damage is increased by half (+50%) if you are making an attack with a two-handed weapon, a one handed weapon using two hands, or a primary natural weapon that adds 1-1/2 times your Strength modifier on damage rolls. This bonus to damage is halved (&ndash;50%) if you are making an attack with an off-hand weapon or secondary natural weapon. When your base attack bonus reaches +4, and every 4 points thereafter, the penalty increases by &ndash;1 and the bonus to damage increases by +2. You must choose to use this feat before making an attack roll, and its effects last until your next turn. The bonus damage does not apply to touch attacks or effects that do not deal hit point damage.</p></p>\n                \n            \n            "
        },
        "tags": [
          [
            "Combat"
          ],
          [
            "Offensive"
          ]
        ],
        "measureTemplate": {
          "size": "0"
        },
        "actionType": "",
        "damage": {
          "parts": [],
          "critParts": [],
          "nonCritParts": []
        },
        "attackParts": [],
        "effectNotes": [],
        "attackNotes": [],
        "changes": [],
        "contextNotes": [],
        "links": {
          "children": [],
          "charges": []
        },
        "tag": "powerAttack",
        "armorProf": {
          "value": []
        },
        "weaponProf": {
          "value": []
        },
        "flags": {
          "boolean": [],
          "dictionary": []
        },
        "scriptCalls": [],
        "associations": {
          "classes": []
        }
      },
      "effects": [],
      "folder": null,
      "sort": 0,
      "permission": {
        "default": 0
      },
      "flags": {}
    },
    {
      "_id": "7950x7gqw4aprf7u",
      "name": "Special Quality: Taint Bloodline",
      "type": "feat",
      "img": "systems/pf1/icons/skills/yellow_36.jpg",
      "data": {
        "description": {
          "value": "sbc | Placeholder for Special Qualities, which in most statblocks are listed under SQ in the statistics block, but described in the Special Abilities. Remove duplicates as needed!"
        },
        "tags": [],
        "damage": {
          "parts": [],
          "critParts": [],
          "nonCritParts": []
        },
        "attackParts": [],
        "effectNotes": [],
        "attackNotes": [],
        "changes": [],
        "contextNotes": [],
        "links": {
          "children": [],
          "charges": []
        },
        "armorProf": {
          "value": []
        },
        "weaponProf": {
          "value": []
        },
        "flags": {
          "boolean": [],
          "dictionary": []
        },
        "scriptCalls": [],
        "featType": "misc",
        "associations": {
          "classes": []
        }
      },
      "effects": [],
      "folder": null,
      "sort": 0,
      "permission": {
        "default": 0
      },
      "flags": {}
    },
    {
      "_id": "tfm2qf2q8aezkk45",
      "name": "Special Quality: Change Shape (small Or Medium Humanoid,alter Self)",
      "type": "feat",
      "img": "systems/pf1/icons/skills/yellow_36.jpg",
      "data": {
        "description": {
          "value": "sbc | Placeholder for Special Qualities, which in most statblocks are listed under SQ in the statistics block, but described in the Special Abilities. Remove duplicates as needed!"
        },
        "tags": [],
        "damage": {
          "parts": [],
          "critParts": [],
          "nonCritParts": []
        },
        "attackParts": [],
        "effectNotes": [],
        "attackNotes": [],
        "changes": [],
        "contextNotes": [],
        "links": {
          "children": [],
          "charges": []
        },
        "armorProf": {
          "value": []
        },
        "weaponProf": {
          "value": []
        },
        "flags": {
          "boolean": [],
          "dictionary": []
        },
        "scriptCalls": [],
        "featType": "misc",
        "associations": {
          "classes": []
        }
      },
      "effects": [],
      "folder": null,
      "sort": 0,
      "permission": {
        "default": 0
      },
      "flags": {}
    },
    {
      "_id": "w22lau1z63q8rwbd",
      "name": "Caustic Blood",
      "type": "feat",
      "img": "systems/pf1/icons/skills/yellow_36.jpg",
      "data": {
        "description": {
          "value": "sbc | Placeholder"
        },
        "tags": [],
        "damage": {
          "parts": [],
          "critParts": [],
          "nonCritParts": []
        },
        "attackParts": [],
        "effectNotes": [],
        "attackNotes": [],
        "changes": [],
        "contextNotes": [],
        "links": {
          "children": [],
          "charges": []
        },
        "armorProf": {
          "value": []
        },
        "weaponProf": {
          "value": []
        },
        "flags": {
          "boolean": [],
          "dictionary": []
        },
        "scriptCalls": [],
        "featType": "classFeat",
        "associations": {
          "classes": []
        },
        "abilityType": ""
      },
      "effects": [],
      "folder": null,
      "sort": 0,
      "permission": {
        "default": 0
      },
      "flags": {}
    },
    {
      "_id": "7y80k45oelba045n",
      "name": "+1 Heavy Flail",
      "type": "attack",
      "img": null,
      "data": {
        "tags": [],
        "activation": {
          "type": "attack"
        },
        "unchainedAction": {
          "activation": {
            "type": "attack"
          }
        },
        "duration": {
          "units": "inst"
        },
        "range": {
          "value": "",
          "units": "melee"
        },
        "attackName": "Heavy Flail",
        "actionType": "mwak",
        "attackBonus": "-15",
        "damage": {
          "parts": [
            [
              "1d10+3",
              "B"
            ]
          ],
          "critParts": [],
          "nonCritParts": []
        },
        "attackParts": [
          [
            -5,
            "Iterative Attack with -5"
          ]
        ],
        "ability": {
          "attack": "str",
          "damage": "str",
          "critRange": "19"
        },
        "effectNotes": [],
        "attackNotes": [
          "+1 heavy flail +1/+5 (1d10+11/19-20 )",
          "Weapon Qualities: [disarm, trip]"
        ],
        "links": {
          "children": [],
          "charges": [],
          "ammunition": []
        },
        "flags": {
          "boolean": [],
          "dictionary": []
        },
        "scriptCalls": [],
        "masterwork": true,
        "enh": "1",
        "primaryAttack": false,
        "conditionals": []
      },
      "effects": [],
      "folder": null,
      "sort": 0,
      "permission": {
        "default": 0
      },
      "flags": {}
    },
    {
      "_id": "baieg2f4w0jprih3",
      "name": "Claws",
      "type": "attack",
      "img": "systems/pf1/icons/items/inventory/monster-paw-bear.jpg",
      "data": {
        "tags": [],
        "activation": {
          "type": "attack"
        },
        "unchainedAction": {
          "activation": {
            "type": "attack"
          }
        },
        "duration": {
          "units": "inst"
        },
        "range": {
          "value": "",
          "units": "melee"
        },
        "attackName": "Claws",
        "actionType": "mwak",
        "attackBonus": "0",
        "damage": {
          "parts": [
            [
              "1d4+0",
              "B and S"
            ]
          ],
          "critParts": [],
          "nonCritParts": []
        },
        "attackParts": [
          [
            "0",
            "Claws: 1"
          ]
        ],
        "ability": {
          "attack": "str",
          "damage": "str",
          "critRange": "19"
        },
        "effectNotes": [],
        "attackNotes": [
          "2 claws +15 (1d4+7/19-20 )"
        ],
        "links": {
          "children": [],
          "charges": [],
          "ammunition": []
        },
        "flags": {
          "boolean": [],
          "dictionary": []
        },
        "scriptCalls": [],
        "attackType": "natural",
        "conditionals": []
      },
      "effects": [],
      "folder": null,
      "sort": 0,
      "permission": {
        "default": 0
      },
      "flags": {}
    },
    {
      "_id": "gaouapofft503vq8",
      "name": "Special Attack: Rend (2 Claws, 1d4+10)",
      "type": "attack",
      "img": "systems/pf1/icons/skills/yellow_36.jpg",
      "data": {
        "description": {
          "value": "sbc | Placeholder for Special Attacks, which in most statblocks are listed under 'Special Attacks' in the statistics block, but are described in the 'Special Abilities' block. Remove duplicates as needed!"
        },
        "tags": [],
        "damage": {
          "parts": [],
          "critParts": [],
          "nonCritParts": []
        },
        "attackParts": [],
        "effectNotes": [],
        "attackNotes": [],
        "links": {
          "children": [],
          "charges": [],
          "ammunition": []
        },
        "flags": {
          "boolean": [],
          "dictionary": []
        },
        "scriptCalls": [],
        "attackType": "misc",
        "conditionals": []
      },
      "effects": [],
      "folder": null,
      "sort": 0,
      "permission": {
        "default": 0
      },
      "flags": {}
    },
    {
      "_id": "nokru6mxk9p3r513",
      "name": "Constant: See Invisibility",
      "type": "spell",
      "img": "systems/pf1/icons/misc/magic-swirl.png",
      "data": {
        "description": {
          "value": "<div class=\"spell-description\">\n  <p>\n    <strong>School</strong>&nbsp;divination;\n    <strong>Level</strong>&nbsp;adept 2, alchemist 2, bard 3, bloodrager 2, inquisitor 2, mesmerist 3, occultist 2, psychic 2, sorcerer/wizard 2, spiritualist 2, summoner 2, unchained Summoner 2, witch 2;\n    \n    <strong>Subdomain</strong>&nbsp;Revelation 2;\n    \n    <strong>Bloodline</strong>&nbsp;Marid 2;\n  </p>\n  <p>\n    <strong>Casting Time</strong>&nbsp;1 standard action<br>\n    <strong>Components</strong>&nbsp;V, S, M (talc and powdered silver)<br>\n  </p>\n  <p>\n    <strong>Range</strong>&nbsp;personal<br>\n    \n    <strong>Targets</strong>&nbsp;you<br>\n    \n    <strong>Duration</strong>&nbsp;10 min./level<br>\n    \n  </p>\n  <h2>Description</h2>\n  <p>You can see any objects or beings that are invisible within your range of vision, as well as any that are ethereal, as if they were normally visible. Such creatures are visible to you as translucent shapes, allowing you easily to discern the difference between visible, invisible, and ethereal creatures.</p><p>The spell does not reveal the method used to obtain <i>invisibility</i>.</p><p>It does not reveal illusions or enable you to see through opaque objects. It does not reveal creatures who are simply hiding, concealed, or otherwise hard to see.</p><p>See <i>invisibility</i> can be made permanent with a <i>permanency</i> spell.</p>\n</div>\n"
        },
        "tags": [],
        "activation": {
          "type": "standard"
        },
        "unchainedAction": {
          "activation": {
            "cost": 2,
            "type": "action"
          }
        },
        "target": {
          "value": "you"
        },
        "range": {
          "units": "personal"
        },
        "uses": {
          "value": 3,
          "per": "day"
        },
        "measureTemplate": {
          "size": "0"
        },
        "actionType": "",
        "damage": {
          "parts": [],
          "critParts": [],
          "nonCritParts": []
        },
        "attackParts": [],
        "ability": {
          "attack": "",
          "damage": ""
        },
        "save": {
          "dc": "0"
        },
        "effectNotes": [],
        "attackNotes": [],
        "links": {
          "children": []
        },
        "flags": {
          "boolean": [],
          "dictionary": []
        },
        "scriptCalls": [],
        "learnedAt": {
          "class": [
            [
              "sorcerer/wizard",
              2
            ],
            [
              "bard",
              3
            ],
            [
              "alchemist",
              2
            ],
            [
              "summoner",
              2
            ],
            [
              "witch",
              2
            ],
            [
              "inquisitor",
              2
            ],
            [
              "adept",
              2
            ],
            [
              "bloodrager",
              2
            ],
            [
              "psychic",
              2
            ],
            [
              "mesmerist",
              3
            ],
            [
              "occultist",
              2
            ],
            [
              "spiritualist",
              2
            ],
            [
              "unchained Summoner",
              2
            ]
          ],
          "domain": [],
          "subDomain": [
            [
              "Revelation",
              2
            ]
          ],
          "elementalSchool": [],
          "bloodline": [
            [
              "Marid",
              2
            ]
          ]
        },
        "level": 2,
        "school": "div",
        "conditionals": [],
        "components": {
          "verbal": true,
          "somatic": true,
          "material": true
        },
        "materials": {
          "value": "talc and powdered silver"
        },
        "spellbook": "spelllike",
        "preparation": {
          "preparedAmount": 1,
          "maxAmount": 1
        },
        "atWill": true,
        "sr": false,
        "shortDescription": "<p>You can see any objects or beings that are invisible within your range of vision, as well as any that are ethereal, as if they were normally visible. Such creatures are visible to you as translucent shapes, allowing you easily to discern the difference between visible, invisible, and ethereal creatures.</p><p>The spell does not reveal the method used to obtain <i>invisibility</i>.</p><p>It does not reveal illusions or enable you to see through opaque objects. It does not reveal creatures who are simply hiding, concealed, or otherwise hard to see.</p><p>See <i>invisibility</i> can be made permanent with a <i>permanency</i> spell.</p>",
        "spellDuration": "10 min./level"
      },
      "effects": [],
      "folder": null,
      "sort": 0,
      "permission": {
        "default": 0
      },
      "flags": {}
    },
    {
      "_id": "xllxylvvqr82o2d5",
      "name": "Constant: Detect Thoughts",
      "type": "spell",
      "img": "systems/pf1/icons/misc/magic-swirl.png",
      "data": {
        "description": {
          "value": "<div class=\"spell-description\">\n  <p>\n    <strong>School</strong>&nbsp;divination&nbsp;[mind-affecting];\n    <strong>Level</strong>&nbsp;alchemist 2, bard 2, inquisitor 2, medium 2, mesmerist 2, psychic 1, sorcerer/wizard 2, spiritualist 2, summoner 2, unchained Summoner 2, witch 2;\n    <strong>Domain</strong>&nbsp;Knowledge 2;\n    \n    \n    \n  </p>\n  <p>\n    <strong>Casting Time</strong>&nbsp;1 standard action<br>\n    <strong>Components</strong>&nbsp;V, S, F/DF (a copper piece)<br>\n  </p>\n  <p>\n    <strong>Range</strong>&nbsp;60 feet<br>\n    <strong>Area</strong>&nbsp;cone-shaped emanation<br>\n    \n    \n    <strong>Duration</strong>&nbsp;concentration, up to 1 min./level<br>\n    <strong>Saving Throw</strong>&nbsp;Will negates; see text;&nbsp;<strong>Spell Resistance</strong>&nbsp;no<br>\n  </p>\n  <h2>Description</h2>\n  <p>You detect surface thoughts. The amount of information revealed depends on how long you study a particular area or subject.</p><p><i>1st Round</i>: Presence or absence of thoughts (from conscious creatures with Intelligence scores of 1 or higher).</p><p><i>2nd Round</i>: Number of thinking minds and the Intelligence score of each. If the highest Intelligence is 26 or higher (and at least 10 points higher than your own Intelligence score), you are stunned for 1 round and the spell ends. This spell does not let you determine the location of the thinking minds if you can't see the creatures whose thoughts you are detecting.</p><p><i>3rd Round</i>: Surface thoughts of any mind in the area. A target's Will save prevents you from reading its thoughts, and you must cast <i>detect thoughts</i> again to have another chance. Creatures of animal intelligence (Int 1 or 2) have simple, instinctual thoughts.</p><p>Each round, you can turn to detect thoughts in a new area. The spell can penetrate barriers, but 1 foot of stone, 1 inch of common metal, a thin sheet of lead, or 3 feet of wood or dirt blocks it.</p>\n</div>\n"
        },
        "tags": [],
        "activation": {
          "type": "standard"
        },
        "unchainedAction": {
          "activation": {
            "cost": 2,
            "type": "action"
          }
        },
        "range": {
          "value": 60,
          "units": "ft"
        },
        "uses": {
          "value": 3,
          "per": "day"
        },
        "measureTemplate": {
          "size": "0"
        },
        "actionType": "spellsave",
        "damage": {
          "parts": [],
          "critParts": [],
          "nonCritParts": []
        },
        "attackParts": [],
        "ability": {
          "attack": "",
          "damage": ""
        },
        "save": {
          "dc": "0",
          "type": "will",
          "description": "Will negates; see text"
        },
        "effectNotes": [],
        "attackNotes": [],
        "links": {
          "children": []
        },
        "flags": {
          "boolean": [],
          "dictionary": []
        },
        "scriptCalls": [],
        "learnedAt": {
          "class": [
            [
              "sorcerer/wizard",
              2
            ],
            [
              "bard",
              2
            ],
            [
              "alchemist",
              2
            ],
            [
              "summoner",
              2
            ],
            [
              "witch",
              2
            ],
            [
              "inquisitor",
              2
            ],
            [
              "psychic",
              1
            ],
            [
              "medium",
              2
            ],
            [
              "mesmerist",
              2
            ],
            [
              "spiritualist",
              2
            ],
            [
              "unchained Summoner",
              2
            ]
          ],
          "domain": [
            [
              "Knowledge",
              2
            ]
          ],
          "subDomain": [],
          "elementalSchool": [],
          "bloodline": []
        },
        "level": 2,
        "school": "div",
        "types": "mind-affecting",
        "conditionals": [],
        "components": {
          "verbal": true,
          "somatic": true,
          "focus": true,
          "divineFocus": 3
        },
        "materials": {
          "focus": "a copper piece"
        },
        "spellbook": "spelllike",
        "preparation": {
          "preparedAmount": 1,
          "maxAmount": 1
        },
        "atWill": true,
        "sr": false,
        "shortDescription": "<p>You detect surface thoughts. The amount of information revealed depends on how long you study a particular area or subject.</p><p><i>1st Round</i>: Presence or absence of thoughts (from conscious creatures with Intelligence scores of 1 or higher).</p><p><i>2nd Round</i>: Number of thinking minds and the Intelligence score of each. If the highest Intelligence is 26 or higher (and at least 10 points higher than your own Intelligence score), you are stunned for 1 round and the spell ends. This spell does not let you determine the location of the thinking minds if you can't see the creatures whose thoughts you are detecting.</p><p><i>3rd Round</i>: Surface thoughts of any mind in the area. A target's Will save prevents you from reading its thoughts, and you must cast <i>detect thoughts</i> again to have another chance. Creatures of animal intelligence (Int 1 or 2) have simple, instinctual thoughts.</p><p>Each round, you can turn to detect thoughts in a new area. The spell can penetrate barriers, but 1 foot of stone, 1 inch of common metal, a thin sheet of lead, or 3 feet of wood or dirt blocks it.</p>",
        "spellDuration": "concentration, up to 1 min./level",
        "spellArea": "cone-shaped emanation"
      },
      "effects": [],
      "folder": null,
      "sort": 0,
      "permission": {
        "default": 0
      },
      "flags": {}
    },
    {
      "_id": "y7l8clnn37mlkv3i",
      "name": "Greater Teleport",
      "type": "spell",
      "img": "systems/pf1/icons/skills/yellow_36.jpg",
      "data": {
        "description": {
          "value": "sbc | As greater teleport could not be found in any compendium, a placeholder was generated."
        },
        "tags": [],
        "damage": {
          "parts": [],
          "critParts": [],
          "nonCritParts": []
        },
        "attackParts": [],
        "effectNotes": [],
        "attackNotes": [],
        "links": {
          "children": []
        },
        "flags": {
          "boolean": [],
          "dictionary": []
        },
        "scriptCalls": [],
        "learnedAt": {
          "class": [],
          "domain": [],
          "subDomain": [],
          "elementalSchool": [],
          "bloodline": []
        },
        "conditionals": [],
        "spellbook": "spelllike",
        "atWill": true
      },
      "effects": [],
      "folder": null,
      "sort": 0,
      "permission": {
        "default": 0
      },
      "flags": {}
    },
    {
      "_id": "71g6nmvy8qnodwyz",
      "name": "Constant: Protection from Good",
      "type": "spell",
      "img": "systems/pf1/icons/misc/magic-swirl.png",
      "data": {
        "description": {
          "value": "<div class=\"spell-description\">\n  <p>\n    <strong>School</strong>&nbsp;abjuration&nbsp;[evil];\n    <strong>Level</strong>&nbsp;adept 1, antipaladin 1, bloodrager 1, cleric/oracle 1, inquisitor 1, medium 1, shaman 1, sorcerer/wizard 1, spiritualist 1, summoner 1, unchained Summoner 1;\n    <strong>Domain</strong>&nbsp;Evil 1;\n    <strong>Subdomain</strong>&nbsp;Purity 1;\n    \n    <strong>Bloodline</strong>&nbsp;Infernal 1;\n  </p>\n  <p>\n    <strong>Casting Time</strong>&nbsp;1 standard action<br>\n    <strong>Components</strong>&nbsp;V, S<br>\n  </p>\n  <p>\n    <strong>Range</strong>&nbsp;touch<br>\n    \n    <strong>Targets</strong>&nbsp;creature touched<br>\n    \n    <strong>Duration</strong>&nbsp;1 min./level (D)<br>\n    <strong>Saving Throw</strong>&nbsp;Will negates (harmless);&nbsp;<strong>Spell Resistance</strong>&nbsp;no<br>\n  </p>\n  <h2>Description</h2>\n  <p>This spell functions like <i>Protection from Evil</i>, except that the deflection and resistance bonuses apply to attacks made by good creatures. The target receives a new saving throw against control by good creatures and good summoned creatures cannot touch the target.</p>\n</div>\n"
        },
        "tags": [],
        "activation": {
          "type": "standard"
        },
        "unchainedAction": {
          "activation": {
            "cost": 2,
            "type": "action"
          }
        },
        "target": {
          "value": "creature touched"
        },
        "range": {
          "units": "touch"
        },
        "uses": {
          "value": 3,
          "per": "day"
        },
        "measureTemplate": {
          "size": "0"
        },
        "actionType": "spellsave",
        "damage": {
          "parts": [],
          "critParts": [],
          "nonCritParts": []
        },
        "attackParts": [],
        "ability": {
          "attack": "",
          "damage": ""
        },
        "save": {
          "dc": "0",
          "type": "will",
          "description": "Will negates (harmless)"
        },
        "effectNotes": [],
        "attackNotes": [],
        "links": {
          "children": []
        },
        "flags": {
          "boolean": [],
          "dictionary": []
        },
        "scriptCalls": [],
        "learnedAt": {
          "class": [
            [
              "sorcerer/wizard",
              1
            ],
            [
              "cleric/oracle",
              1
            ],
            [
              "summoner",
              1
            ],
            [
              "inquisitor",
              1
            ],
            [
              "antipaladin",
              1
            ],
            [
              "adept",
              1
            ],
            [
              "bloodrager",
              1
            ],
            [
              "shaman",
              1
            ],
            [
              "medium",
              1
            ],
            [
              "spiritualist",
              1
            ],
            [
              "unchained Summoner",
              1
            ]
          ],
          "domain": [
            [
              "Evil",
              1
            ]
          ],
          "subDomain": [
            [
              "Purity",
              1
            ]
          ],
          "elementalSchool": [],
          "bloodline": [
            [
              "Infernal",
              1
            ]
          ]
        },
        "school": "abj",
        "types": "evil",
        "conditionals": [],
        "components": {
          "verbal": true,
          "somatic": true
        },
        "spellbook": "spelllike",
        "preparation": {
          "preparedAmount": 3,
          "maxAmount": 3
        },
        "atWill": true,
        "sr": false,
        "shortDescription": "<p>This spell functions like <i>Protection from Evil</i>, except that the deflection and resistance bonuses apply to attacks made by good creatures. The target receives a new saving throw against control by good creatures and good summoned creatures cannot touch the target.</p>",
        "spellDuration": "1 min./level (D)",
        "domain": true
      },
      "effects": [],
      "folder": null,
      "sort": 0,
      "permission": {
        "default": 0
      },
      "flags": {}
    },
    {
      "_id": "daon47zg2041mehc",
      "name": "Greater Magic Fang",
      "type": "spell",
      "img": "systems/pf1/icons/skills/yellow_36.jpg",
      "data": {
        "description": {
          "value": "sbc | As greater magic fang could not be found in any compendium, a placeholder was generated."
        },
        "tags": [],
        "uses": {
          "value": 1,
          "per": "day"
        },
        "damage": {
          "parts": [],
          "critParts": [],
          "nonCritParts": []
        },
        "attackParts": [],
        "effectNotes": [],
        "attackNotes": [],
        "links": {
          "children": []
        },
        "flags": {
          "boolean": [],
          "dictionary": []
        },
        "scriptCalls": [],
        "learnedAt": {
          "class": [],
          "domain": [],
          "subDomain": [],
          "elementalSchool": [],
          "bloodline": []
        },
        "conditionals": [],
        "spellbook": "spelllike",
        "preparation": {
          "preparedAmount": 1,
          "maxAmount": 1
        }
      },
      "effects": [],
      "folder": null,
      "sort": 0,
      "permission": {
        "default": 0
      },
      "flags": {}
    },
    {
      "_id": "krlcbzg2phtaq5kw",
      "name": "Summon",
      "type": "spell",
      "img": "systems/pf1/icons/skills/yellow_36.jpg",
      "data": {
        "description": {
          "value": "sbc | As summon could not be found in any compendium, a placeholder was generated."
        },
        "tags": [],
        "uses": {
          "value": 1,
          "per": "day"
        },
        "damage": {
          "parts": [],
          "critParts": [],
          "nonCritParts": []
        },
        "attackParts": [],
        "effectNotes": [],
        "attackNotes": [],
        "links": {
          "children": []
        },
        "flags": {
          "boolean": [],
          "dictionary": []
        },
        "scriptCalls": [],
        "learnedAt": {
          "class": [],
          "domain": [],
          "subDomain": [],
          "elementalSchool": [],
          "bloodline": []
        },
        "conditionals": [],
        "spellbook": "spelllike",
        "preparation": {
          "preparedAmount": 1,
          "maxAmount": 1
        }
      },
      "effects": [],
      "folder": null,
      "sort": 0,
      "permission": {
        "default": 0
      },
      "flags": {}
    },
    {
      "_id": "dekn7ozy6df78g2n",
      "name": "Ecology",
      "type": "feat",
      "img": "icons/environment/wilderness/tree-oak.webp",
      "data": {
        "description": {
          "value": "<div><strong>Environment</strong>:  any (Hell)</div><div><strong>Organization</strong>:  solitary</div><div><strong>Treasure</strong>:  standard (+1 heavy flail, other treasure)</div>"
        },
        "tags": [],
        "damage": {
          "parts": [],
          "critParts": [],
          "nonCritParts": []
        },
        "attackParts": [],
        "effectNotes": [],
        "attackNotes": [],
        "changes": [],
        "contextNotes": [],
        "links": {
          "children": [],
          "charges": []
        },
        "armorProf": {
          "value": []
        },
        "weaponProf": {
          "value": []
        },
        "flags": {
          "boolean": [],
          "dictionary": []
        },
        "scriptCalls": [],
        "featType": "misc",
        "associations": {
          "classes": []
        }
      },
      "effects": [],
      "folder": null,
      "sort": 0,
      "permission": {
        "default": 0
      },
      "flags": {}
    },
    {
      "_id": "iyeegtba7qetutiw",
      "name": "Caustic Blood",
      "type": "feat",
      "img": "systems/pf1/icons/skills/yellow_36.jpg",
      "data": {
        "description": {
          "value": "A patraavex’s blood is highly acidic. A creature that deals piercing or slashing damage to a sire devil as part of a melee attack with a natural weapon or unarmed strike must succeed at a DC 19 Reflex saving throw or take 2d6 points of acid damage. A creature that deals piercing or slashing damage to a sire devil with a melee weapon must succeed at a DC 19 Reflex saving throw or the weapon takes 2d6 points of acid damage (objects take full damage from this acid); if this damage exceeds the weapon’s hardness, the weapon gains the broken condition. The save DC is Constitution-based."
        },
        "tags": [],
        "damage": {
          "parts": [],
          "critParts": [],
          "nonCritParts": []
        },
        "attackParts": [],
        "effectNotes": [],
        "attackNotes": [],
        "changes": [],
        "contextNotes": [],
        "links": {
          "children": [],
          "charges": []
        },
        "armorProf": {
          "value": []
        },
        "weaponProf": {
          "value": []
        },
        "flags": {
          "boolean": [],
          "dictionary": []
        },
        "scriptCalls": [],
        "featType": "classFeat",
        "associations": {
          "classes": []
        },
        "abilityType": "ex"
      },
      "effects": [],
      "folder": null,
      "sort": 0,
      "permission": {
        "default": 0
      },
      "flags": {}
    },
    {
      "_id": "g1t1x4fa6no72pdc",
      "name": "Taint Bloodline",
      "type": "feat",
      "img": "systems/pf1/icons/skills/yellow_36.jpg",
      "data": {
        "description": {
          "value": "As a full-round action, a sire devil can touch a willing, living mortal creature and infuse the creature with its infernal power, ensuring that all children born to the mortal from then on will be hellspawn tieflings. Offspring resulting from unions between sire devils and humanoids are always tieflings; patraavexes cannot create half-fiends through procreation."
        },
        "tags": [],
        "damage": {
          "parts": [],
          "critParts": [],
          "nonCritParts": []
        },
        "attackParts": [],
        "effectNotes": [],
        "attackNotes": [],
        "changes": [],
        "contextNotes": [],
        "links": {
          "children": [],
          "charges": []
        },
        "armorProf": {
          "value": []
        },
        "weaponProf": {
          "value": []
        },
        "flags": {
          "boolean": [],
          "dictionary": []
        },
        "scriptCalls": [],
        "featType": "classFeat",
        "associations": {
          "classes": []
        },
        "abilityType": "su"
      },
      "effects": [],
      "folder": null,
      "sort": 0,
      "permission": {
        "default": 0
      },
      "flags": {}
    },
    {
      "_id": "wiWhrO8Hdke1a5YV",
      "name": "sbc | Conversion Buff",
      "type": "buff",
      "img": "systems/pf1/icons/skills/yellow_36.jpg",
      "data": {
        "description": {
          "value": "<h2>sbc | Conversion Buff</h2>\n                        This Buff was created by <strong>sbc</strong> to compensate for differences between the input and the values FoundryVTT calculates automatically.\n                        <br><br>\n                        Especially when the pathfinder system gets upgraded, entries in compendiums get updated or foundry changes in some way, this buff may become outdated.\n                        <br><br>\n                        For most mooks the conversion should more or less work, but for important NPCs or creatures it is adviced to double check the conversion manually."
        },
        "tags": [],
        "changes": [
          {
            "formula": "-10",
            "modifier": "untypedPerm",
            "operator": "add",
            "priority": 0,
            "subTarget": "mhp",
            "target": "misc",
            "value": -10,
            "id": "8w0muzko"
          },
          {
            "formula": "4",
            "modifier": "untypedPerm",
            "operator": "add",
            "priority": 0,
            "subTarget": "fort",
            "target": "savingThrows",
            "value": 4,
            "id": "hifm2i51"
          },
          {
            "formula": "-4",
            "modifier": "untypedPerm",
            "operator": "add",
            "priority": 0,
            "subTarget": "will",
            "target": "savingThrows",
            "value": -4,
            "id": "hmfl0mx4"
          }
        ],
        "contextNotes": [],
        "links": {
          "children": []
        },
        "tag": "sbcConversionBuff",
        "useCustomTag": true,
        "flags": {
          "boolean": [],
          "dictionary": []
        },
        "scriptCalls": [],
        "buffType": "perm",
        "active": true,
        "hideFromToken": true
      },
      "effects": [],
      "folder": null,
      "sort": 0,
      "permission": {
        "default": 0,
        "iM1ACTqH0Ml6HJtd": 3
      },
      "flags": {}
    }
  ],
  "effects": [],
  "folder": null,
  "sort": 0,
  "permission": {
    "default": 0
  },
  "flags": {}
}