{
  "_id": "l7md0v50d8lstz5s",
  "name": "Animus Mine, Greater",
  "type": "spell",
  "img": "systems/pf1/icons/misc/magic-swirl.png",
  "data": {
    "description": {
      "value": "<div class=\"spell-description\">\n  <p>\n    <strong>School</strong>&nbsp;abjuration&nbsp;[mind-affecting];\n    <strong>Level</strong>&nbsp;mesmerist 4, psychic 5;\n    \n    \n    \n    \n  </p>\n  <p>\n    <strong>Casting Time</strong>&nbsp;1 standard<br>\n    <strong>Components</strong>&nbsp;V, S<br>\n  </p>\n  <p>\n    <strong>Range</strong>&nbsp;personal<br>\n    \n    \n    \n    <strong>Duration</strong>&nbsp;1 hour/level or until discharged<br>\n  </p>\n  <h2>Description</h2>\n  <p>This functions as per @Compendium[pf1.spells.3cwzop9xd0gl8vnd]{animus mine}, except the triggering creature is @Compendium[pf1.conditions.assqfdN6G1URo9MZ]{stunned} for 1d4 rounds instead of @Compendium[pf1.conditions.6LpiJdKskDFD4zLC]{staggered}. If the target succeeds at a Will saving throw, it takes only half damage and negates the stunned effect. If the target fails this Will saving throw, you automatically succeed at any saving throw against the mind-affecting effect that triggered the mine.</p>\n</div>\n"
    },
    "tags": [],
    "activation": {
      "type": "standard"
    },
    "unchainedAction": {
      "activation": {
        "cost": 2,
        "type": "action"
      }
    },
    "range": {
      "units": "personal"
    },
    "uses": {
      "per": ""
    },
    "measureTemplate": {
      "size": "0"
    },
    "actionType": "spellsave",
    "damage": {
      "parts": [],
      "critParts": [],
      "nonCritParts": []
    },
    "attackParts": [],
    "ability": {
      "attack": "",
      "damage": ""
    },
    "save": {
      "dc": "0",
      "type": "will",
      "description": "Will negates (harmless)"
    },
    "effectNotes": [],
    "attackNotes": [],
    "links": {
      "children": []
    },
    "flags": {
      "boolean": [],
      "dictionary": []
    },
    "scriptCalls": [],
    "learnedAt": {
      "class": [
        [
          "psychic",
          5
        ],
        [
          "mesmerist",
          4
        ]
      ],
      "domain": [],
      "subDomain": [],
      "elementalSchool": [],
      "bloodline": []
    },
    "level": 5,
    "school": "abj",
    "types": "mind-affecting",
    "conditionals": [],
    "components": {
      "verbal": true,
      "somatic": true
    },
    "spellbook": "",
    "sr": false,
    "shortDescription": "<p>This functions as per @Compendium[pf1.spells.3cwzop9xd0gl8vnd]{animus mine}, except the triggering creature is @Compendium[pf1.conditions.assqfdN6G1URo9MZ]{stunned} for 1d4 rounds instead of @Compendium[pf1.conditions.6LpiJdKskDFD4zLC]{staggered}. If the target succeeds at a Will saving throw, it takes only half damage and negates the stunned effect. If the target fails this Will saving throw, you automatically succeed at any saving throw against the mind-affecting effect that triggered the mine.</p>",
    "spellDuration": "1 hour/level or until discharged"
  },
  "effects": [],
  "folder": null,
  "sort": 0,
  "permission": {
    "default": 0
  },
  "flags": {}
}