{
  "_id": "ra0wa7oz7qdmh60l",
  "name": "Apparent Treachery",
  "type": "spell",
  "img": "systems/pf1/icons/misc/magic-swirl.png",
  "data": {
    "description": {
      "value": "<div class=\"spell-description\">\n  <p>\n    <strong>School</strong>&nbsp;enchantment&nbsp;(compulsion)&nbsp;[mind-affecting];\n    <strong>Level</strong>&nbsp;bard 3, inquisitor 3, sorcerer/wizard 4;\n    \n    \n    \n    \n  </p>\n  <p>\n    <strong>Casting Time</strong>&nbsp;1 standard<br>\n    <strong>Components</strong>&nbsp;V, S<br>\n  </p>\n  <p>\n    <strong>Range</strong>&nbsp;close (25 ft. + 5 ft./2 levels)<br>\n    \n    <strong>Targets</strong>&nbsp;one creature/level, no two of which can be more than 30 ft. apart<br>\n    \n    <strong>Duration</strong>&nbsp;1 round/level (D)<br>\n      <strong>Saving Throw</strong>&nbsp;Will negates;&nbsp;\n      <strong>Spell Resistance</strong>&nbsp;yes<br>\n  </p>\n  <h2>Description</h2>\n  <p>You shroud a number of creatures in an aura of suspicion and fill them with extreme paranoia regarding their allies. Affected targets believe their companions are behaving erratically, nervously, and seemingly with an eye towards betrayal.  Creatures under the effect of <i>apparent treachery</i> do not have allies and are not considered to be an ally to any other creature, including other creatures affected by this spell. They cannot move freely through their allies' spaces, flank creatures with them, cooperate with them using teamwork feats, or give or receive benefits from the aid another action or any spells or effect that affects only allies. If creatures affected by this spell are able to take attacks of opportunity, they always do so against provoking opponents, including those who were their allies before being affected by this spell.  A creature not under the effects of the spell who is trying to cast a spell against an affected target must succeed at an attack roll to touch the target, even if the spell is harmless, though the affected creature is not forced to attempt saving throws against harmless effects.</p>\n</div>\n"
    },
    "tags": [],
    "activation": {
      "type": "standard"
    },
    "unchainedAction": {
      "activation": {
        "cost": 2,
        "type": "action"
      }
    },
    "target": {
      "value": "one creature/level, no two of which can be more than 30 ft. apart"
    },
    "range": {
      "units": "close"
    },
    "uses": {
      "per": ""
    },
    "measureTemplate": {
      "size": "0"
    },
    "actionType": "spellsave",
    "damage": {
      "parts": [],
      "critParts": [],
      "nonCritParts": []
    },
    "attackParts": [],
    "ability": {
      "attack": "",
      "damage": ""
    },
    "save": {
      "dc": "0",
      "type": "will",
      "description": "Will negates"
    },
    "effectNotes": [],
    "attackNotes": [],
    "links": {
      "children": []
    },
    "flags": {
      "boolean": [],
      "dictionary": []
    },
    "scriptCalls": [],
    "learnedAt": {
      "class": [
        [
          "sorcerer/wizard",
          4
        ],
        [
          "bard",
          3
        ],
        [
          "inquisitor",
          3
        ]
      ],
      "domain": [],
      "subDomain": [],
      "elementalSchool": [],
      "bloodline": []
    },
    "level": 4,
    "school": "enc",
    "subschool": "compulsion",
    "types": "mind-affecting",
    "conditionals": [],
    "components": {
      "verbal": true,
      "somatic": true
    },
    "shortDescription": "<p>You shroud a number of creatures in an aura of suspicion and fill them with extreme paranoia regarding their allies. Affected targets believe their companions are behaving erratically, nervously, and seemingly with an eye towards betrayal.  Creatures under the effect of <i>apparent treachery</i> do not have allies and are not considered to be an ally to any other creature, including other creatures affected by this spell. They cannot move freely through their allies' spaces, flank creatures with them, cooperate with them using teamwork feats, or give or receive benefits from the aid another action or any spells or effect that affects only allies. If creatures affected by this spell are able to take attacks of opportunity, they always do so against provoking opponents, including those who were their allies before being affected by this spell.  A creature not under the effects of the spell who is trying to cast a spell against an affected target must succeed at an attack roll to touch the target, even if the spell is harmless, though the affected creature is not forced to attempt saving throws against harmless effects.</p>",
    "spellDuration": "1 round/level (D)"
  },
  "effects": [],
  "folder": null,
  "sort": 0,
  "permission": {
    "default": 0
  },
  "flags": {}
}