{
  "_id": "swgcncddonco19vh",
  "name": "Assume Appearance, Greater",
  "type": "spell",
  "img": "systems/pf1/icons/misc/magic-swirl.png",
  "data": {
    "description": {
      "value": "<div class=\"spell-description\">\n  <p>\n    <strong>School</strong>&nbsp;transmutation&nbsp;(polymorph);\n    <strong>Level</strong>&nbsp;alchemist 4, bard 4, medium 4, mesmerist 4, occultist 4, psychic 4, shaman 4, sorcerer/wizard 4, spiritualist 4, summoner 4, unchained Summoner 4, witch 4;\n    \n    \n    \n    \n  </p>\n  <p>\n    <strong>Casting Time</strong>&nbsp;1 minute<br>\n    <strong>Components</strong>&nbsp;V, S, F (corpse or likeness of the deceased creature whose form you plan to assume)<br>\n  </p>\n  <p>\n    <strong>Range</strong>&nbsp;personal<br>\n    \n    <strong>Targets</strong>&nbsp;you<br>\n    \n    <strong>Duration</strong>&nbsp;1 day/level (D)<br>\n  </p>\n  <h2>Description</h2>\n  <p>This spell functions similar to @Compendium[pf1.spells.73wog6v19ui2au25]{assume appearance}, except that you can imitate a creature even if you have only a likeness (such as a sketch or painting) that is fairly accurate. If there is an age difference between the likeness and the actual creature, you take on the appearance of the creature near the end of its life. If you have heard the creature whose form you plan to assume speak aloud, you can also copy its voice as @Compendium[pf1.spells.26g4tysnax570dxo]{vocal alteration} (@Compendium[pf1.spells.byn5q46du0ck592a]{speak with dead} can also be used to fulfill this requirement). The spell doesn't grant insight into the dead creature's mannerisms. Additionally, if a likeness used as a focus for the spell is kept on your person or within 30 feet at all times, the aura of greater <em>assume appearance</em> is redirected to the likeness instead of to you, similar to a reverse application of the @Compendium[pf1.spells.8nrt26t37v7koqr8]{misdirection} spell.</p>\n</div>\n"
    },
    "tags": [],
    "activation": {
      "type": "minute"
    },
    "unchainedAction": {
      "activation": {
        "type": "minute"
      }
    },
    "target": {
      "value": "you"
    },
    "range": {
      "units": "personal"
    },
    "uses": {
      "per": ""
    },
    "measureTemplate": {
      "size": "0"
    },
    "actionType": "",
    "damage": {
      "parts": [],
      "critParts": [],
      "nonCritParts": []
    },
    "attackParts": [],
    "ability": {
      "attack": "",
      "damage": ""
    },
    "save": {
      "dc": "0"
    },
    "effectNotes": [],
    "attackNotes": [],
    "links": {
      "children": []
    },
    "flags": {
      "boolean": [],
      "dictionary": []
    },
    "scriptCalls": [],
    "learnedAt": {
      "class": [
        [
          "sorcerer/wizard",
          4
        ],
        [
          "bard",
          4
        ],
        [
          "alchemist",
          4
        ],
        [
          "summoner",
          4
        ],
        [
          "witch",
          4
        ],
        [
          "shaman",
          4
        ],
        [
          "psychic",
          4
        ],
        [
          "medium",
          4
        ],
        [
          "mesmerist",
          4
        ],
        [
          "occultist",
          4
        ],
        [
          "spiritualist",
          4
        ],
        [
          "unchained Summoner",
          4
        ]
      ],
      "domain": [],
      "subDomain": [],
      "elementalSchool": [],
      "bloodline": []
    },
    "level": 4,
    "school": "trs",
    "subschool": "polymorph",
    "conditionals": [],
    "components": {
      "verbal": true,
      "somatic": true,
      "focus": true
    },
    "materials": {
      "focus": "corpse or likeness of the deceased creature whose form you plan to assume"
    },
    "spellbook": "",
    "sr": false,
    "shortDescription": "<p>This spell functions similar to @Compendium[pf1.spells.73wog6v19ui2au25]{assume appearance}, except that you can imitate a creature even if you have only a likeness (such as a sketch or painting) that is fairly accurate. If there is an age difference between the likeness and the actual creature, you take on the appearance of the creature near the end of its life. If you have heard the creature whose form you plan to assume speak aloud, you can also copy its voice as @Compendium[pf1.spells.26g4tysnax570dxo]{vocal alteration} (@Compendium[pf1.spells.byn5q46du0ck592a]{speak with dead} can also be used to fulfill this requirement). The spell doesn't grant insight into the dead creature's mannerisms. Additionally, if a likeness used as a focus for the spell is kept on your person or within 30 feet at all times, the aura of greater <em>assume appearance</em> is redirected to the likeness instead of to you, similar to a reverse application of the @Compendium[pf1.spells.8nrt26t37v7koqr8]{misdirection} spell.</p>",
    "spellDuration": "1 day/level (D)"
  },
  "effects": [],
  "folder": null,
  "sort": 0,
  "permission": {
    "default": 0
  },
  "flags": {}
}