{
  "_id": "h9qiwo9kx8d1hqrn",
  "name": "Awaken",
  "type": "spell",
  "img": "systems/pf1/icons/misc/magic-swirl.png",
  "data": {
    "description": {
      "value": "<div class=\"spell-description\">\n  <p>\n    <strong>School</strong>&nbsp;transmutation;\n    <strong>Level</strong>&nbsp;druid 5, hunter 5, shaman 6;\n    \n    \n    \n    \n  </p>\n  <p>\n    <strong>Casting Time</strong>&nbsp;24 hours<br>\n    <strong>Components</strong>&nbsp;V, S, M (herbs and oils worth 2,000 gp), DF<br>\n  </p>\n  <p>\n    <strong>Range</strong>&nbsp;touch<br>\n    \n    <strong>Targets</strong>&nbsp;animal or tree touched<br>\n    \n    <strong>Duration</strong>&nbsp;instantaneous<br>\n      <strong>Saving Throw</strong>&nbsp;Will negates;&nbsp;\n      <strong>Spell Resistance</strong>&nbsp;yes<br>\n  </p>\n  <h2>Description</h2>\n  <p>You awaken a tree or animal to human-like sentience. To succeed, you must make a Will save (DC 10 + the animal's current HD, or the HD the tree will have once awakened). The awakened animal or tree is friendly toward you. You have no special empathy or connection with a creature you awaken, although it serves you in specific tasks or endeavors if you communicate your desires to it. If you cast <i>awaken</i> again, any previously awakened creatures remain friendly to you, but they no longer undertake tasks for you unless it is in their best interests.</p><p>An awakened tree has characteristics as if it were an animated object, except that it gains the plant type and its Intelligence, Wisdom, and Charisma scores are each 3d6. An awakened plant gains the ability to move its limbs, roots, vines, creepers, and so forth, and it has senses similar to a human's.</p><p>An awakened animal gets 3d6 Intelligence, +1d3 Charisma, and +2 HD. Its type becomes magical beast (augmented animal). An awakened animal can't serve as an animal companion, familiar, or special mount.</p><p>An awakened tree or animal can speak one language that you know, plus one additional language that you know per point of Intelligence bonus (if any). This spell does not function on an animal or plant with an Intelligence greater than 2.</p>\n</div>\n"
    },
    "tags": [],
    "activation": {
      "cost": 24,
      "type": "hour"
    },
    "unchainedAction": {
      "activation": {
        "cost": 24,
        "type": "hour"
      }
    },
    "target": {
      "value": "animal or tree touched"
    },
    "range": {
      "units": "touch"
    },
    "uses": {
      "per": ""
    },
    "measureTemplate": {
      "size": "0"
    },
    "actionType": "spellsave",
    "damage": {
      "parts": [],
      "critParts": [],
      "nonCritParts": []
    },
    "attackParts": [],
    "ability": {
      "attack": "",
      "damage": ""
    },
    "save": {
      "dc": "0",
      "type": "will",
      "description": "Will negates"
    },
    "effectNotes": [],
    "attackNotes": [],
    "links": {
      "children": []
    },
    "flags": {
      "boolean": [],
      "dictionary": []
    },
    "scriptCalls": [],
    "learnedAt": {
      "class": [
        [
          "druid",
          5
        ],
        [
          "shaman",
          6
        ],
        [
          "hunter",
          5
        ]
      ],
      "domain": [],
      "subDomain": [],
      "elementalSchool": [],
      "bloodline": []
    },
    "level": 5,
    "school": "trs",
    "conditionals": [],
    "components": {
      "verbal": true,
      "somatic": true,
      "material": true,
      "divineFocus": 1
    },
    "materials": {
      "value": "herbs and oils worth 2,000 gp",
      "gpValue": 2000
    },
    "spellbook": "",
    "preparation": {
      "autoDeductCharges": false,
      "spontaneousPrepared": false
    },
    "shortDescription": "<p>You awaken a tree or animal to human-like sentience. To succeed, you must make a Will save (DC 10 + the animal's current HD, or the HD the tree will have once awakened). The awakened animal or tree is friendly toward you. You have no special empathy or connection with a creature you awaken, although it serves you in specific tasks or endeavors if you communicate your desires to it. If you cast <i>awaken</i> again, any previously awakened creatures remain friendly to you, but they no longer undertake tasks for you unless it is in their best interests.</p><p>An awakened tree has characteristics as if it were an animated object, except that it gains the plant type and its Intelligence, Wisdom, and Charisma scores are each 3d6. An awakened plant gains the ability to move its limbs, roots, vines, creepers, and so forth, and it has senses similar to a human's.</p><p>An awakened animal gets 3d6 Intelligence, +1d3 Charisma, and +2 HD. Its type becomes magical beast (augmented animal). An awakened animal can't serve as an animal companion, familiar, or special mount.</p><p>An awakened tree or animal can speak one language that you know, plus one additional language that you know per point of Intelligence bonus (if any). This spell does not function on an animal or plant with an Intelligence greater than 2.</p>",
    "spellDuration": "instantaneous",
    "spellPoints": {
      "cost": ""
    }
  },
  "effects": [],
  "folder": null,
  "sort": 0,
  "permission": {
    "default": 0
  },
  "flags": {}
}