{
  "_id": "i8kzwa73sjjd07v4",
  "name": "Bite the Hand",
  "type": "spell",
  "img": "systems/pf1/icons/misc/magic-swirl.png",
  "data": {
    "description": {
      "value": "<div class=\"spell-description\">\n  <p>\n    <strong>School</strong>&nbsp;enchantment&nbsp;(compulsion);\n    <strong>Level</strong>&nbsp;druid 3, hunter 3, inquisitor 3, sorcerer/wizard 4, summoner 3, unchained Summoner 3, witch 4;\n    \n    \n    \n    \n  </p>\n  <p>\n    <strong>Casting Time</strong>&nbsp;1 standard<br>\n    <strong>Components</strong>&nbsp;V, S, DF<br>\n  </p>\n  <p>\n    <strong>Range</strong>&nbsp;close (25 ft. + 5 ft./2 levels)<br>\n    \n    <strong>Targets</strong>&nbsp;one creature summoned by a spell or spell-like ability<br>\n    \n    <strong>Duration</strong>&nbsp;1 round/level (D)<br>\n      <strong>Saving Throw</strong>&nbsp;Will negates;&nbsp;\n      <strong>Spell Resistance</strong>&nbsp;yes<br>\n  </p>\n  <h2>Description</h2>\n  <p>With a short command and a wave of the hand, you compel the target creature to attack the being who summoned it, to the best of its ability. If the being who summoned it is not present, the creature acts normally according to its last task or instructions. This spell has no effect on called creatures, summoned creatures not brought forth by spells or spell-like abilities (such as a summoner's eidolon), or bonded creatures not explicitly summoned, such as a paladin's mount or wizard's familiar.</p>\n</div>\n"
    },
    "tags": [],
    "activation": {
      "type": "standard"
    },
    "unchainedAction": {
      "activation": {
        "cost": 2,
        "type": "action"
      }
    },
    "target": {
      "value": "one creature summoned by a spell or spell-like ability"
    },
    "range": {
      "units": "close"
    },
    "uses": {
      "per": ""
    },
    "measureTemplate": {
      "size": "0"
    },
    "actionType": "spellsave",
    "damage": {
      "parts": [],
      "critParts": [],
      "nonCritParts": []
    },
    "attackParts": [],
    "ability": {
      "attack": "",
      "damage": ""
    },
    "save": {
      "dc": "0",
      "type": "will",
      "description": "Will negates"
    },
    "effectNotes": [],
    "attackNotes": [],
    "links": {
      "children": []
    },
    "flags": {
      "boolean": [],
      "dictionary": []
    },
    "scriptCalls": [],
    "learnedAt": {
      "class": [
        [
          "sorcerer/wizard",
          4
        ],
        [
          "druid",
          3
        ],
        [
          "summoner",
          3
        ],
        [
          "witch",
          4
        ],
        [
          "inquisitor",
          3
        ],
        [
          "hunter",
          3
        ],
        [
          "unchained Summoner",
          3
        ]
      ],
      "domain": [],
      "subDomain": [],
      "elementalSchool": [],
      "bloodline": []
    },
    "level": 4,
    "school": "enc",
    "subschool": "compulsion",
    "conditionals": [],
    "components": {
      "verbal": true,
      "somatic": true,
      "divineFocus": 1
    },
    "shortDescription": "<p>With a short command and a wave of the hand, you compel the target creature to attack the being who summoned it, to the best of its ability. If the being who summoned it is not present, the creature acts normally according to its last task or instructions. This spell has no effect on called creatures, summoned creatures not brought forth by spells or spell-like abilities (such as a summoner's eidolon), or bonded creatures not explicitly summoned, such as a paladin's mount or wizard's familiar.</p>",
    "spellDuration": "1 round/level (D)"
  },
  "effects": [],
  "folder": null,
  "sort": 0,
  "permission": {
    "default": 0
  },
  "flags": {}
}