{
  "_id": "yhv83gip7jzr0ur2",
  "name": "Burning Arc",
  "type": "spell",
  "img": "systems/pf1/icons/misc/magic-swirl.png",
  "data": {
    "description": {
      "value": "<div class=\"spell-description\">\n  <p>\n    <strong>School</strong>&nbsp;evocation&nbsp;[fire];\n    <strong>Level</strong>&nbsp;sorcerer/wizard 2;\n    \n    \n    \n    \n  </p>\n  <p>\n    <strong>Casting Time</strong>&nbsp;1 standard<br>\n    <strong>Components</strong>&nbsp;V, S<br>\n  </p>\n  <p>\n    <strong>Range</strong>&nbsp;close (25 ft. + 5 ft./2 levels)<br>\n    \n    <strong>Targets</strong>&nbsp;one primary target plus one additional target/3 levels  (each of which must be within 15 ft. of the primary target)<br>\n    \n    <strong>Duration</strong>&nbsp;instantaneous<br>\n      <strong>Saving Throw</strong>&nbsp;Reflex half;&nbsp;\n      <strong>Spell Resistance</strong>&nbsp;yes<br>\n  </p>\n  <h2>Description</h2>\n  <p>Keleshites brag that they stole this spell from genie-kind thousands of years ago while other civilizations struggled without fire.</p><p>This spell causes an arc of flame to leap from your fingers, burning a number of enemies nearby. It deals 1d6 points of fire damage per caster level (maximum 10d6). For every additional target the discharge arcs to, reduce the number of damage dice by half (rounded down). Therefore, at 9th level, your <i>burning arc</i> deals 9d6 points of fire damage to the primary target, then 4d6 points of fire damage to a secondary target, then 2d6 points of fire damage to an additional target.</p><p>Each target can attempt a Reflex saving throw for half damage. The Reflex DC to halve the damage of the secondary bolts is 2 lower than the DC to halve the damage of the primary bolt. You may choose secondary targets as you like, but they must all be within 15 feet of the primary target, and no target can be struck more than once. You can choose to affect fewer secondary targets than the maximum.</p>\n</div>\n"
    },
    "tags": [],
    "activation": {
      "type": "standard"
    },
    "unchainedAction": {
      "activation": {
        "cost": 2,
        "type": "action"
      }
    },
    "target": {
      "value": "one primary target plus one additional target/3 levels  (each of which must be within 15 ft. of the primary target)"
    },
    "range": {
      "units": "close"
    },
    "uses": {
      "per": ""
    },
    "measureTemplate": {
      "size": "0"
    },
    "actionType": "spellsave",
    "damage": {
      "parts": [
        [
          "(min(@cl, 10))d6",
          "fire"
        ],
        [
          "(min(floor(@cl / 2), 5))d6",
          "fire"
        ],
        [
          "(min(floor(@cl / 4), 5))d6",
          "fire"
        ],
        [
          "(min(floor(@cl / 8), 5))d6",
          "fire"
        ]
      ],
      "critParts": [],
      "nonCritParts": []
    },
    "attackParts": [],
    "formulaicAttacks": {
      "label": ""
    },
    "ability": {
      "attack": "",
      "damage": ""
    },
    "save": {
      "dc": "0",
      "type": "ref",
      "description": "Reflex half"
    },
    "effectNotes": [],
    "attackNotes": [],
    "links": {
      "children": []
    },
    "flags": {
      "boolean": [],
      "dictionary": []
    },
    "scriptCalls": [],
    "learnedAt": {
      "class": [
        [
          "sorcerer/wizard",
          2
        ]
      ],
      "domain": [],
      "subDomain": [],
      "elementalSchool": [],
      "bloodline": []
    },
    "level": 2,
    "school": "evo",
    "types": "fire",
    "conditionals": [],
    "components": {
      "verbal": true,
      "somatic": true
    },
    "spellbook": "",
    "shortDescription": "<p>Keleshites brag that they stole this spell from genie-kind thousands of years ago while other civilizations struggled without fire.</p><p>This spell causes an arc of flame to leap from your fingers, burning a number of enemies nearby. It deals 1d6 points of fire damage per caster level (maximum 10d6). For every additional target the discharge arcs to, reduce the number of damage dice by half (rounded down). Therefore, at 9th level, your <i>burning arc</i> deals 9d6 points of fire damage to the primary target, then 4d6 points of fire damage to a secondary target, then 2d6 points of fire damage to an additional target.</p><p>Each target can attempt a Reflex saving throw for half damage. The Reflex DC to halve the damage of the secondary bolts is 2 lower than the DC to halve the damage of the primary bolt. You may choose secondary targets as you like, but they must all be within 15 feet of the primary target, and no target can be struck more than once. You can choose to affect fewer secondary targets than the maximum.</p>",
    "spellDuration": "instantaneous"
  },
  "effects": [],
  "folder": null,
  "sort": 0,
  "permission": {
    "default": 0
  },
  "flags": {}
}