{
  "_id": "sjugnxmneoak6xm8",
  "name": "Celestial Companion",
  "type": "spell",
  "img": "systems/pf1/icons/misc/magic-swirl.png",
  "data": {
    "description": {
      "value": "<div class=\"spell-description\">\n  <p>\n    <strong>School</strong>&nbsp;transmutation;\n    <strong>Level</strong>&nbsp;druid 2, hunter 2, paladin 1, ranger 2, shaman 2, sorcerer/wizard 2, summoner 1, witch 2;\n    \n    \n    \n    \n  </p>\n  <p>\n    <strong>Casting Time</strong>&nbsp;1 standard<br>\n    <strong>Components</strong>&nbsp;V, S<br>\n  </p>\n  <p>\n    <strong>Range</strong>&nbsp;touch<br>\n    \n    <strong>Targets</strong>&nbsp;animal companion, eidolon, familiar, or mount<br>\n    \n    <strong>Duration</strong>&nbsp;1 minute/level (D)<br>\n      <strong>Saving Throw</strong>&nbsp;Will negates (harmless);&nbsp;\n      <strong>Spell Resistance</strong>&nbsp;yes<br>\n  </p>\n  <h2>Description</h2>\n  <p>You bestow divine protection on your companion. The target gains spell resistance equal to 5 plus half your caster level against spells and spell-like effects produced by evil creatures. The target also gains a +1 sacred bonus on saving throws and DR 5/evil or silver. Creatures under the effects of this spell often take on a celestial appearance, such as golden feathers or a radiant aura, but they are not truly celestial creatures.</p>\n</div>\n"
    },
    "tags": [],
    "activation": {
      "type": "standard"
    },
    "unchainedAction": {
      "activation": {
        "cost": 2,
        "type": "action"
      }
    },
    "target": {
      "value": "animal companion, eidolon, familiar, or mount"
    },
    "range": {
      "units": "touch"
    },
    "uses": {
      "per": ""
    },
    "measureTemplate": {
      "size": "0"
    },
    "actionType": "spellsave",
    "damage": {
      "parts": [],
      "critParts": [],
      "nonCritParts": []
    },
    "attackParts": [],
    "ability": {
      "attack": "",
      "damage": ""
    },
    "save": {
      "dc": "0",
      "type": "will",
      "description": "Will negates (harmless)"
    },
    "effectNotes": [],
    "attackNotes": [],
    "links": {
      "children": []
    },
    "flags": {
      "boolean": [],
      "dictionary": []
    },
    "scriptCalls": [],
    "learnedAt": {
      "class": [
        [
          "sorcerer/wizard",
          2
        ],
        [
          "druid",
          2
        ],
        [
          "ranger",
          2
        ],
        [
          "paladin",
          1
        ],
        [
          "summoner",
          1
        ],
        [
          "witch",
          2
        ],
        [
          "shaman",
          2
        ],
        [
          "hunter",
          2
        ]
      ],
      "domain": [],
      "subDomain": [],
      "elementalSchool": [],
      "bloodline": []
    },
    "level": 2,
    "school": "trs",
    "conditionals": [],
    "components": {
      "verbal": true,
      "somatic": true
    },
    "shortDescription": "<p>You bestow divine protection on your companion. The target gains spell resistance equal to 5 plus half your caster level against spells and spell-like effects produced by evil creatures. The target also gains a +1 sacred bonus on saving throws and DR 5/evil or silver. Creatures under the effects of this spell often take on a celestial appearance, such as golden feathers or a radiant aura, but they are not truly celestial creatures.</p>",
    "spellDuration": "1 minute/level (D)"
  },
  "effects": [],
  "folder": null,
  "sort": 0,
  "permission": {
    "default": 0
  },
  "flags": {}
}