{
  "_id": "jbnhp4833ce9317z",
  "name": "Commune with Plane",
  "type": "spell",
  "img": "systems/pf1/icons/misc/magic-swirl.png",
  "data": {
    "description": {
      "value": "<div class=\"spell-description\">\n  <p>\n    <strong>School</strong>&nbsp;divination;\n    <strong>Level</strong>&nbsp;cleric/oracle 5, hunter 4, psychic 5, ranger 4, summoner 5, witch 5;\n    \n    \n    \n    \n  </p>\n  <p>\n    <strong>Casting Time</strong>&nbsp;10 minutes<br>\n    <strong>Components</strong>&nbsp;V, S<br>\n  </p>\n  <p>\n    \n    \n    \n    \n    <strong>Duration</strong>&nbsp;instantaneous<br>\n      <strong>Saving Throw</strong>&nbsp;none;&nbsp;\n      <strong>Spell Resistance</strong>&nbsp;no<br>\n  </p>\n  <h2>Description</h2>\n  <p>You become one with the plane around you, attaining knowledge of the surrounding territory. You instantly gain knowledge of as many as three facts from among the following subjects: areas with different planar traits, the layout and topography of local terrain, local divine influences, planar phenomena, portals between planes, presence of creatures native to the plane, presence of powerful nonnative creatures, the general state of the plane, or valuable planar substances.  On standard planes, the spell operates with a radius of 1 mile per caster level. On demiplanes, the spell is less powerful, and its radius is limited to 100 feet per caster level. This spell has no effect when cast on the Material Plane.</p>\n</div>\n"
    },
    "tags": [],
    "activation": {
      "cost": 10,
      "type": "minute"
    },
    "unchainedAction": {
      "activation": {
        "cost": 10,
        "type": "minute"
      }
    },
    "uses": {
      "per": ""
    },
    "measureTemplate": {
      "size": "0"
    },
    "actionType": "",
    "damage": {
      "parts": [],
      "critParts": [],
      "nonCritParts": []
    },
    "attackParts": [],
    "ability": {
      "attack": "",
      "damage": ""
    },
    "save": {
      "dc": "0"
    },
    "effectNotes": [],
    "attackNotes": [],
    "links": {
      "children": []
    },
    "flags": {
      "boolean": [],
      "dictionary": []
    },
    "scriptCalls": [],
    "learnedAt": {
      "class": [
        [
          "cleric/oracle",
          5
        ],
        [
          "ranger",
          4
        ],
        [
          "summoner",
          5
        ],
        [
          "witch",
          5
        ],
        [
          "psychic",
          5
        ],
        [
          "hunter",
          4
        ]
      ],
      "domain": [],
      "subDomain": [],
      "elementalSchool": [],
      "bloodline": []
    },
    "level": 5,
    "school": "div",
    "conditionals": [],
    "components": {
      "verbal": true,
      "somatic": true
    },
    "sr": false,
    "shortDescription": "<p>You become one with the plane around you, attaining knowledge of the surrounding territory. You instantly gain knowledge of as many as three facts from among the following subjects: areas with different planar traits, the layout and topography of local terrain, local divine influences, planar phenomena, portals between planes, presence of creatures native to the plane, presence of powerful nonnative creatures, the general state of the plane, or valuable planar substances.  On standard planes, the spell operates with a radius of 1 mile per caster level. On demiplanes, the spell is less powerful, and its radius is limited to 100 feet per caster level. This spell has no effect when cast on the Material Plane.</p>",
    "spellDuration": "instantaneous"
  },
  "effects": [],
  "folder": null,
  "sort": 0,
  "permission": {
    "default": 0
  },
  "flags": {}
}