{
  "_id": "gq2ereen2neiyaxb",
  "name": "Compel Tongue, Mass",
  "type": "spell",
  "img": "systems/pf1/icons/misc/magic-swirl.png",
  "data": {
    "description": {
      "value": "<div class=\"spell-description\">\n  <p>\n    <strong>School</strong>&nbsp;enchantment&nbsp;(compulsion)&nbsp;[mind-affecting];\n    <strong>Level</strong>&nbsp;bard 4, cleric/oracle 5, druid 5, hunter 5, medium 4, mesmerist 4, sorcerer/wizard 5, witch 5;\n    \n    \n    \n    \n  </p>\n  <p>\n    <strong>Casting Time</strong>&nbsp;1 standard<br>\n    <strong>Components</strong>&nbsp;V, S, M (a wooden block carved with a letter)<br>\n  </p>\n  <p>\n    <strong>Range</strong>&nbsp;touch<br>\n    \n    <strong>Targets</strong>&nbsp;one creature/level, no two of which can be more than 30 ft. apart<br>\n    \n    <strong>Duration</strong>&nbsp;1 hour/level (D)<br>\n      <strong>Saving Throw</strong>&nbsp;Will negates;&nbsp;\n      <strong>Spell Resistance</strong>&nbsp;yes<br>\n  </p>\n  <h2>Description</h2>\n  <p>This spell functions as <i>compel tongue</i>, except it affects multiple creatures. The same language restriction applies to all creatures, and the same language must be imparted to all creatures affected by the same casting of this spell.</p>\n</div>\n"
    },
    "tags": [],
    "activation": {
      "type": "standard"
    },
    "unchainedAction": {
      "activation": {
        "cost": 2,
        "type": "action"
      }
    },
    "target": {
      "value": "one creature/level, no two of which can be more than 30 ft. apart"
    },
    "range": {
      "units": "touch"
    },
    "uses": {
      "per": ""
    },
    "measureTemplate": {
      "size": "0"
    },
    "actionType": "spellsave",
    "damage": {
      "parts": [],
      "critParts": [],
      "nonCritParts": []
    },
    "attackParts": [],
    "ability": {
      "attack": "",
      "damage": ""
    },
    "save": {
      "dc": "0",
      "type": "will",
      "description": "Will negates"
    },
    "effectNotes": [],
    "attackNotes": [],
    "links": {
      "children": []
    },
    "flags": {
      "boolean": [],
      "dictionary": []
    },
    "scriptCalls": [],
    "learnedAt": {
      "class": [
        [
          "sorcerer/wizard",
          5
        ],
        [
          "cleric/oracle",
          5
        ],
        [
          "druid",
          5
        ],
        [
          "bard",
          4
        ],
        [
          "witch",
          5
        ],
        [
          "medium",
          4
        ],
        [
          "mesmerist",
          4
        ],
        [
          "hunter",
          5
        ]
      ],
      "domain": [],
      "subDomain": [],
      "elementalSchool": [],
      "bloodline": []
    },
    "level": 5,
    "school": "enc",
    "subschool": "compulsion",
    "types": "mind-affecting",
    "conditionals": [],
    "components": {
      "verbal": true,
      "somatic": true,
      "material": true
    },
    "materials": {
      "value": "a wooden block carved with a letter"
    },
    "shortDescription": "<p>This spell functions as <i>compel tongue</i>, except it affects multiple creatures. The same language restriction applies to all creatures, and the same language must be imparted to all creatures affected by the same casting of this spell.</p>",
    "spellDuration": "1 hour/level (D)"
  },
  "effects": [],
  "folder": null,
  "sort": 0,
  "permission": {
    "default": 0
  },
  "flags": {}
}