{
  "_id": "fj0qbqdf9gjttc8h",
  "name": "Cone Of Slime",
  "type": "spell",
  "img": "systems/pf1/icons/misc/magic-swirl.png",
  "data": {
    "description": {
      "value": "<div class=\"spell-description\">\n  <p>\n    <strong>School</strong>&nbsp;conjuration&nbsp;(summoning);\n    <strong>Level</strong>&nbsp;cleric/oracle 5, sorcerer/wizard 4, summoner 4;\n    \n    \n    \n    \n  </p>\n  <p>\n    <strong>Casting Time</strong>&nbsp;1 round<br>\n    <strong>Components</strong>&nbsp;V, S, M (small flask of green slime)<br>\n  </p>\n  <p>\n    <strong>Range</strong>&nbsp;close (25 ft. + 5 ft./2 levels)<br>\n    <strong>Area</strong>&nbsp;cone-shaped burst<br>\n    \n    \n    <strong>Duration</strong>&nbsp;1 round/level (D)<br>\n      <strong>Saving Throw</strong>&nbsp;none;&nbsp;\n      <strong>Spell Resistance</strong>&nbsp;no<br>\n  </p>\n  <h2>Description</h2>\n  <p>This spell conjures a 30 ft. cone of green slime from the fingertips of the caster. Anyone within the area of effect must make a DC 15 Reflex save or be engulfed in green slime. Engulfed creatures begin to dissolve into green slime. Armor and equipment dissolves in 1d2 rounds. Once armor and clothing dissolve, the victim begins suffering 1d4 points of Con damage per round. When the victim reaches 0 Constitution, he becomes one with the slime. The slime can only be destroyed by a <i>cure disease</i> spell, or by the victim being exposed to 10 points of cold or heat damage.</p>\n</div>\n"
    },
    "tags": [],
    "activation": {
      "type": "round"
    },
    "unchainedAction": {
      "activation": {
        "cost": 3,
        "type": "action"
      }
    },
    "range": {
      "units": "close"
    },
    "uses": {
      "per": ""
    },
    "measureTemplate": {
      "size": "0"
    },
    "actionType": "",
    "damage": {
      "parts": [],
      "critParts": [],
      "nonCritParts": []
    },
    "attackParts": [],
    "ability": {
      "attack": "",
      "damage": ""
    },
    "save": {
      "dc": "0"
    },
    "effectNotes": [],
    "attackNotes": [],
    "links": {
      "children": []
    },
    "flags": {
      "boolean": [],
      "dictionary": []
    },
    "scriptCalls": [],
    "learnedAt": {
      "class": [
        [
          "sorcerer/wizard",
          4
        ],
        [
          "cleric/oracle",
          5
        ],
        [
          "summoner",
          4
        ]
      ],
      "domain": [],
      "subDomain": [],
      "elementalSchool": [],
      "bloodline": []
    },
    "level": 4,
    "school": "con",
    "subschool": "summoning",
    "conditionals": [],
    "components": {
      "verbal": true,
      "somatic": true,
      "material": true
    },
    "materials": {
      "value": "small flask of green slime"
    },
    "sr": false,
    "shortDescription": "<p>This spell conjures a 30 ft. cone of green slime from the fingertips of the caster. Anyone within the area of effect must make a DC 15 Reflex save or be engulfed in green slime. Engulfed creatures begin to dissolve into green slime. Armor and equipment dissolves in 1d2 rounds. Once armor and clothing dissolve, the victim begins suffering 1d4 points of Con damage per round. When the victim reaches 0 Constitution, he becomes one with the slime. The slime can only be destroyed by a <i>cure disease</i> spell, or by the victim being exposed to 10 points of cold or heat damage.</p>",
    "spellDuration": "1 round/level (D)",
    "spellArea": "cone-shaped burst"
  },
  "effects": [],
  "folder": null,
  "sort": 0,
  "permission": {
    "default": 0
  },
  "flags": {}
}