{
  "_id": "nps3dp225ifmbdss",
  "name": "Contest of Skill",
  "type": "spell",
  "img": "systems/pf1/icons/misc/magic-swirl.png",
  "data": {
    "description": {
      "value": "<div class=\"spell-description\">\n  <p>\n    <strong>School</strong>&nbsp;transmutation&nbsp;[curse];\n    <strong>Level</strong>&nbsp;bard 2, cleric/oracle 3, magus 2, paladin 2;\n    \n    \n    \n    \n  </p>\n  <p>\n    <strong>Casting Time</strong>&nbsp;1 standard<br>\n    <strong>Components</strong>&nbsp;V, S, M (a tiny gong)<br>\n  </p>\n  <p>\n    <strong>Range</strong>&nbsp;close (25 ft. + 5 ft./2 levels)<br>\n    \n    <strong>Targets</strong>&nbsp;one creature<br>\n    \n    <strong>Duration</strong>&nbsp;1 minute/level<br>\n      <strong>Saving Throw</strong>&nbsp;Will negates;&nbsp;\n      <strong>Spell Resistance</strong>&nbsp;yes<br>\n  </p>\n  <h2>Description</h2>\n  <p>The randomness of critical hits has long vexed certain duelists in the Aldori school who consider luck to be an unwelcome addition to duels, which they view as contests of skill rather than chance. The creature targeted by this spell is infused with magical power, altering the odds of combat to weaken lucky strikes. Critical threats made by the affected creature automatically fail to confirm. Critical threats that automatically confirm due to class features or feats, such as the fighter's weapon mastery, are unaffected by this spell. In addition, when the initial target of this spell fails its Will save to resist <i>Contest of Skill</i>, it can select one additional creature within range of the spell to suffer the effects of the spell as well (Will negates). If this secondary target negates this spell with a successful save, the duration of <i>Contest of Skill</i> on the primary target is reduced to 1 round.</p>\n</div>\n"
    },
    "tags": [],
    "activation": {
      "type": "standard"
    },
    "unchainedAction": {
      "activation": {
        "cost": 2,
        "type": "action"
      }
    },
    "target": {
      "value": "one creature"
    },
    "range": {
      "units": "close"
    },
    "uses": {
      "per": ""
    },
    "measureTemplate": {
      "size": "0"
    },
    "actionType": "spellsave",
    "damage": {
      "parts": [],
      "critParts": [],
      "nonCritParts": []
    },
    "attackParts": [],
    "ability": {
      "attack": "",
      "damage": ""
    },
    "save": {
      "dc": "0",
      "type": "will",
      "description": "Will negates"
    },
    "effectNotes": [],
    "attackNotes": [],
    "links": {
      "children": []
    },
    "flags": {
      "boolean": [],
      "dictionary": []
    },
    "scriptCalls": [],
    "learnedAt": {
      "class": [
        [
          "cleric/oracle",
          3
        ],
        [
          "bard",
          2
        ],
        [
          "paladin",
          2
        ],
        [
          "magus",
          2
        ]
      ],
      "domain": [],
      "subDomain": [],
      "elementalSchool": [],
      "bloodline": []
    },
    "level": 3,
    "school": "trs",
    "types": "curse",
    "conditionals": [],
    "components": {
      "verbal": true,
      "somatic": true,
      "material": true
    },
    "materials": {
      "value": "a tiny gong"
    },
    "shortDescription": "<p>The randomness of critical hits has long vexed certain duelists in the Aldori school who consider luck to be an unwelcome addition to duels, which they view as contests of skill rather than chance. The creature targeted by this spell is infused with magical power, altering the odds of combat to weaken lucky strikes. Critical threats made by the affected creature automatically fail to confirm. Critical threats that automatically confirm due to class features or feats, such as the fighter's weapon mastery, are unaffected by this spell. In addition, when the initial target of this spell fails its Will save to resist <i>Contest of Skill</i>, it can select one additional creature within range of the spell to suffer the effects of the spell as well (Will negates). If this secondary target negates this spell with a successful save, the duration of <i>Contest of Skill</i> on the primary target is reduced to 1 round.</p>",
    "spellDuration": "1 minute/level"
  },
  "effects": [],
  "folder": null,
  "sort": 0,
  "permission": {
    "default": 0
  },
  "flags": {}
}