{
  "_id": "2hvmdscy72tsrh5p",
  "name": "Contact Nalfeshnee",
  "type": "spell",
  "img": "systems/pf1/icons/misc/magic-swirl.png",
  "data": {
    "description": {
      "value": "<div class=\"spell-description\">\n  <p>\n    <strong>School</strong>&nbsp;divination;\n    <strong>Level</strong>&nbsp;cleric/oracle 6, sorcerer/wizard 6, witch 6;\n    \n    \n    \n    \n  </p>\n  <p>\n    <strong>Casting Time</strong>&nbsp;1 round<br>\n    <strong>Components</strong>&nbsp;V, S, M (powdered sapphire worth 250 gp), F (bejeweled cold iron mirror worth at least 2,000 gp)<br>\n  </p>\n  <p>\n    <strong>Range</strong>&nbsp;personal<br>\n    \n    <strong>Targets</strong>&nbsp;you<br>\n    \n    <strong>Duration</strong>&nbsp;concentration<br>\n  </p>\n  <h2>Description</h2>\n  <p>When you cast this spell, you fall into a trance and become helpless as long as you continue concentrating. Choose any one Knowledge skill other than arcana or planes. Your mind is placed in telepathic contact with a nalfeshnee demon skilled at that particular Knowledge skill, in addition to arcana and planes. Each round that you continue to concentrate, you may ask the nalfeshnee one question and it will answer as best it can. If you ask a question about arcana or planes, the nalfeshnee has a +23 bonus to the skill check. If you ask about the Knowledge skill you selected, the nalfeshnee has a +20 bonus. It cannot answer questions pertaining to other Knowledge skills-to do so, you must cast the spell again.  Contact with Abyssal minds is dangerous, and each time the nalfeshnee answers a question, you suffer 1d4 points of ability drain to Intelligence, Wisdom, or Charisma (determined randomly) unless you make a DC 22 Will save. Each additional question you ask with this spell over the course of a single 24-hour period imparts a cumulative -1 penalty on this saving throw. Chaotic evil spellcasters always gain a +4 bonus on this saving throw.</p>\n</div>\n"
    },
    "tags": [],
    "activation": {
      "type": "round"
    },
    "unchainedAction": {
      "activation": {
        "cost": 3,
        "type": "action"
      }
    },
    "target": {
      "value": "you"
    },
    "range": {
      "units": "personal"
    },
    "uses": {
      "per": ""
    },
    "measureTemplate": {
      "size": "0"
    },
    "actionType": "",
    "damage": {
      "parts": [],
      "critParts": [],
      "nonCritParts": []
    },
    "attackParts": [],
    "ability": {
      "attack": "",
      "damage": ""
    },
    "save": {
      "dc": "0"
    },
    "effectNotes": [],
    "attackNotes": [],
    "links": {
      "children": []
    },
    "flags": {
      "boolean": [],
      "dictionary": []
    },
    "scriptCalls": [],
    "learnedAt": {
      "class": [
        [
          "sorcerer/wizard",
          6
        ],
        [
          "cleric/oracle",
          6
        ],
        [
          "witch",
          6
        ]
      ],
      "domain": [],
      "subDomain": [],
      "elementalSchool": [],
      "bloodline": []
    },
    "level": 6,
    "school": "div",
    "conditionals": [],
    "components": {
      "verbal": true,
      "somatic": true,
      "material": true,
      "focus": true
    },
    "materials": {
      "value": "powdered sapphire worth 250 gp",
      "focus": "bejeweled cold iron mirror worth at least 2,000 gp",
      "gpValue": 250
    },
    "spellbook": "",
    "preparation": {
      "autoDeductCharges": false,
      "spontaneousPrepared": false
    },
    "sr": false,
    "shortDescription": "<p>When you cast this spell, you fall into a trance and become helpless as long as you continue concentrating. Choose any one Knowledge skill other than arcana or planes. Your mind is placed in telepathic contact with a nalfeshnee demon skilled at that particular Knowledge skill, in addition to arcana and planes. Each round that you continue to concentrate, you may ask the nalfeshnee one question and it will answer as best it can. If you ask a question about arcana or planes, the nalfeshnee has a +23 bonus to the skill check. If you ask about the Knowledge skill you selected, the nalfeshnee has a +20 bonus. It cannot answer questions pertaining to other Knowledge skills-to do so, you must cast the spell again.  Contact with Abyssal minds is dangerous, and each time the nalfeshnee answers a question, you suffer 1d4 points of ability drain to Intelligence, Wisdom, or Charisma (determined randomly) unless you make a DC 22 Will save. Each additional question you ask with this spell over the course of a single 24-hour period imparts a cumulative -1 penalty on this saving throw. Chaotic evil spellcasters always gain a +4 bonus on this saving throw.</p>",
    "spellDuration": "concentration",
    "spellPoints": {
      "cost": ""
    }
  },
  "effects": [],
  "folder": null,
  "sort": 0,
  "permission": {
    "default": 0
  },
  "flags": {}
}