{
  "_id": "gjj3otzeutoykuee",
  "name": "Death Candle",
  "type": "spell",
  "img": "systems/pf1/icons/misc/magic-swirl.png",
  "data": {
    "description": {
      "value": "<div class=\"spell-description\">\n  <p>\n    <strong>School</strong>&nbsp;necromancy&nbsp;[death, evil, fire];\n    <strong>Level</strong>&nbsp;antipaladin 1, cleric/oracle 2, inquisitor 2, witch 2;\n    \n    \n    \n    \n  </p>\n  <p>\n    <strong>Casting Time</strong>&nbsp;1 round<br>\n    <strong>Components</strong>&nbsp;V, S<br>\n  </p>\n  <p>\n    <strong>Range</strong>&nbsp;touch<br>\n    \n    <strong>Targets</strong>&nbsp;living creature touched<br>\n    \n    <strong>Duration</strong>&nbsp;instantaneous/10 minutes per HD of subject; see text<br>\n      <strong>Saving Throw</strong>&nbsp;Fortitude negates;&nbsp;\n      <strong>Spell Resistance</strong>&nbsp;yes<br>\n  </p>\n  <h2>Description</h2>\n  <p>This spell functions like <i>death knell</i>, except instead of using the slain target's life energy to enhance yourself, you use it to summon a Small fire elemental resembling a burning, howling version of the slain creature. The elemental acts immediately on your turn and otherwise behaves as if you had summoned it with <i>summon monster II</i>. The elemental remains for a number of rounds equal to the Hit Dice of the slain creature.</p>\n</div>\n"
    },
    "tags": [],
    "activation": {
      "type": "round"
    },
    "unchainedAction": {
      "activation": {
        "cost": 3,
        "type": "action"
      }
    },
    "target": {
      "value": "living creature touched"
    },
    "range": {
      "units": "touch"
    },
    "uses": {
      "per": ""
    },
    "measureTemplate": {
      "size": "0"
    },
    "actionType": "spellsave",
    "damage": {
      "parts": [],
      "critParts": [],
      "nonCritParts": []
    },
    "attackParts": [],
    "ability": {
      "attack": "",
      "damage": ""
    },
    "save": {
      "dc": "0",
      "type": "fort",
      "description": "Fortitude negates"
    },
    "effectNotes": [],
    "attackNotes": [],
    "links": {
      "children": []
    },
    "flags": {
      "boolean": [],
      "dictionary": []
    },
    "scriptCalls": [],
    "learnedAt": {
      "class": [
        [
          "cleric/oracle",
          2
        ],
        [
          "witch",
          2
        ],
        [
          "inquisitor",
          2
        ],
        [
          "antipaladin",
          1
        ]
      ],
      "domain": [],
      "subDomain": [],
      "elementalSchool": [],
      "bloodline": []
    },
    "level": 2,
    "school": "nec",
    "types": "death, evil, fire",
    "conditionals": [],
    "components": {
      "verbal": true,
      "somatic": true
    },
    "shortDescription": "<p>This spell functions like <i>death knell</i>, except instead of using the slain target's life energy to enhance yourself, you use it to summon a Small fire elemental resembling a burning, howling version of the slain creature. The elemental acts immediately on your turn and otherwise behaves as if you had summoned it with <i>summon monster II</i>. The elemental remains for a number of rounds equal to the Hit Dice of the slain creature.</p>",
    "spellDuration": "instantaneous/10 minutes per HD of subject; see text"
  },
  "effects": [],
  "folder": null,
  "sort": 0,
  "permission": {
    "default": 0
  },
  "flags": {}
}