{
  "_id": "597thk7efof38132",
  "name": "Delay Disease",
  "type": "spell",
  "img": "systems/pf1/icons/misc/magic-swirl.png",
  "data": {
    "description": {
      "value": "<div class=\"spell-description\">\n  <p>\n    <strong>School</strong>&nbsp;conjuration&nbsp;(healing);\n    <strong>Level</strong>&nbsp;alchemist 2, cleric/oracle 2, druid 2, hunter 2, inquisitor 2, mesmerist 2, paladin 2, ranger 2, witch 1;\n    \n    \n    \n    \n  </p>\n  <p>\n    <strong>Casting Time</strong>&nbsp;1 standard<br>\n    <strong>Components</strong>&nbsp;V, S, DF<br>\n  </p>\n  <p>\n    <strong>Range</strong>&nbsp;touch<br>\n    \n    <strong>Targets</strong>&nbsp;creature touched<br>\n    \n    <strong>Duration</strong>&nbsp;1 day<br>\n      <strong>Saving Throw</strong>&nbsp;Fortitude negates (harmless);&nbsp;\n      <strong>Spell Resistance</strong>&nbsp;yes<br>\n  </p>\n  <h2>Description</h2>\n  <p>The target becomes temporarily immune to disease. Any disease to which it is exposed during the spell's duration does not affect the target until the spell's duration has expired. If the target is currently infected with a disease, you must make a caster level check against the disease's DC to suspend it for the duration of the spell; otherwise, that disease affects the target normally. <i>Delay disease</i> does not cure any damage a disease may have already done.</p>\n</div>\n"
    },
    "tags": [],
    "activation": {
      "type": "standard"
    },
    "unchainedAction": {
      "activation": {
        "cost": 2,
        "type": "action"
      }
    },
    "target": {
      "value": "creature touched"
    },
    "range": {
      "units": "touch"
    },
    "uses": {
      "per": ""
    },
    "measureTemplate": {
      "size": "0"
    },
    "actionType": "heal",
    "damage": {
      "parts": [],
      "critParts": [],
      "nonCritParts": []
    },
    "attackParts": [],
    "ability": {
      "attack": "",
      "damage": ""
    },
    "save": {
      "dc": "0",
      "type": "fort",
      "description": "Fortitude negates (harmless)"
    },
    "effectNotes": [],
    "attackNotes": [],
    "links": {
      "children": []
    },
    "flags": {
      "boolean": [],
      "dictionary": []
    },
    "scriptCalls": [],
    "learnedAt": {
      "class": [
        [
          "cleric/oracle",
          2
        ],
        [
          "druid",
          2
        ],
        [
          "ranger",
          2
        ],
        [
          "paladin",
          2
        ],
        [
          "alchemist",
          2
        ],
        [
          "witch",
          1
        ],
        [
          "inquisitor",
          2
        ],
        [
          "mesmerist",
          2
        ],
        [
          "hunter",
          2
        ]
      ],
      "domain": [],
      "subDomain": [],
      "elementalSchool": [],
      "bloodline": []
    },
    "level": 2,
    "school": "con",
    "subschool": "healing",
    "conditionals": [],
    "components": {
      "verbal": true,
      "somatic": true,
      "divineFocus": 1
    },
    "shortDescription": "<p>The target becomes temporarily immune to disease. Any disease to which it is exposed during the spell's duration does not affect the target until the spell's duration has expired. If the target is currently infected with a disease, you must make a caster level check against the disease's DC to suspend it for the duration of the spell; otherwise, that disease affects the target normally. <i>Delay disease</i> does not cure any damage a disease may have already done.</p>",
    "spellDuration": "1 day"
  },
  "effects": [],
  "folder": null,
  "sort": 0,
  "permission": {
    "default": 0
  },
  "flags": {}
}