{
  "_id": "pbmyom76oatconaq",
  "name": "Demanding Message",
  "type": "spell",
  "img": "systems/pf1/icons/misc/magic-swirl.png",
  "data": {
    "description": {
      "value": "<div class=\"spell-description\">\n  <p>\n    <strong>School</strong>&nbsp;enchantment&nbsp;(compulsion)&nbsp;[language-dependent, mind-affecting];\n    <strong>Level</strong>&nbsp;bard 3, medium 3, mesmerist 3, occultist 4, psychic 3, sorcerer/wizard 4, witch 4;\n    \n    \n    \n    \n  </p>\n  <p>\n    <strong>Casting Time</strong>&nbsp;1 standard<br>\n    <strong>Components</strong>&nbsp;V, S, F (a piece of copper wire)<br>\n  </p>\n  <p>\n    <strong>Range</strong>&nbsp;medium (100 ft. + 10 ft./level)<br>\n    \n    <strong>Targets</strong>&nbsp;one creature/level<br>\n    \n    <strong>Duration</strong>&nbsp;10 minutes/level, then 1 hour/level or until completed (D); see text<br>\n      <strong>Saving Throw</strong>&nbsp;Will negates (see text);&nbsp;\n      <strong>Spell Resistance</strong>&nbsp;yes<br>\n  </p>\n  <h2>Description</h2>\n  <p>This spell initially functions as <i>message</i> (allowing no save or spell resistance). Once during the <i>message</i> effect, you can concentrate as a standard action to issue a <i>suggestion</i> to one target as part of delivering a <i>message</i>. Spell resistance and a Will save apply to the <i>suggestion</i>, and it lasts for 1 hour per level or until completed.</p>\n</div>\n"
    },
    "tags": [],
    "activation": {
      "type": "standard"
    },
    "unchainedAction": {
      "activation": {
        "cost": 2,
        "type": "action"
      }
    },
    "target": {
      "value": "one creature/level"
    },
    "range": {
      "units": "medium"
    },
    "uses": {
      "per": ""
    },
    "measureTemplate": {
      "size": "0"
    },
    "actionType": "spellsave",
    "damage": {
      "parts": [],
      "critParts": [],
      "nonCritParts": []
    },
    "attackParts": [],
    "ability": {
      "attack": "",
      "damage": ""
    },
    "save": {
      "dc": "0",
      "type": "will",
      "description": "Will negates (see text)"
    },
    "effectNotes": [],
    "attackNotes": [],
    "links": {
      "children": []
    },
    "flags": {
      "boolean": [],
      "dictionary": []
    },
    "scriptCalls": [],
    "learnedAt": {
      "class": [
        [
          "sorcerer/wizard",
          4
        ],
        [
          "bard",
          3
        ],
        [
          "witch",
          4
        ],
        [
          "psychic",
          3
        ],
        [
          "medium",
          3
        ],
        [
          "mesmerist",
          3
        ],
        [
          "occultist",
          4
        ]
      ],
      "domain": [],
      "subDomain": [],
      "elementalSchool": [],
      "bloodline": []
    },
    "level": 4,
    "school": "enc",
    "subschool": "compulsion",
    "types": "language-dependent, mind-affecting",
    "conditionals": [],
    "components": {
      "verbal": true,
      "somatic": true,
      "focus": true
    },
    "materials": {
      "focus": "a piece of copper wire"
    },
    "shortDescription": "<p>This spell initially functions as <i>message</i> (allowing no save or spell resistance). Once during the <i>message</i> effect, you can concentrate as a standard action to issue a <i>suggestion</i> to one target as part of delivering a <i>message</i>. Spell resistance and a Will save apply to the <i>suggestion</i>, and it lasts for 1 hour per level or until completed.</p>",
    "spellDuration": "10 minutes/level, then 1 hour/level or until completed (D); see text"
  },
  "effects": [],
  "folder": null,
  "sort": 0,
  "permission": {
    "default": 0
  },
  "flags": {}
}