{
  "_id": "viq93vkjaungdbul",
  "name": "Detect Scrying",
  "type": "spell",
  "img": "systems/pf1/icons/misc/magic-swirl.png",
  "data": {
    "description": {
      "value": "<div class=\"spell-description\">\n  <p>\n    <strong>School</strong>&nbsp;divination;\n    <strong>Level</strong>&nbsp;bard 4, inquisitor 4, medium 3, mesmerist 4, occultist 4, psychic 4, shaman 4, sorcerer/wizard 4, spiritualist 4, witch 4;\n    \n    <strong>Subdomain</strong>&nbsp;Solitude 4;\n    \n    <strong>Bloodline</strong>&nbsp;Rakshasa 4;\n  </p>\n  <p>\n    <strong>Casting Time</strong>&nbsp;1 standard<br>\n    <strong>Components</strong>&nbsp;V, S, M (a piece of mirror and a miniature brass hearing trumpet)<br>\n  </p>\n  <p>\n    <strong>Range</strong>&nbsp;40 feet<br>\n    <strong>Area</strong>&nbsp;40-ft.-radius emanation centered on you<br>\n    \n    \n    <strong>Duration</strong>&nbsp;24 hours<br>\n      <strong>Saving Throw</strong>&nbsp;none;&nbsp;\n      <strong>Spell Resistance</strong>&nbsp;no<br>\n  </p>\n  <h2>Description</h2>\n  <p>You immediately become aware of any attempt to observe you by means of a divination (scrying) spell or effect. The spell's area radiates from you and moves as you move. You know the location of every magical sensor within the spell's area.</p><p>If the scrying attempt originates within the area, you also know its location; otherwise, you and the scrier immediately make opposed caster level checks (1d20 + caster level). If you at least match the scrier's result, you get a visual image of the scrier and an accurate sense of his direction and distance from you.</p>\n</div>\n"
    },
    "tags": [],
    "activation": {
      "type": "standard"
    },
    "unchainedAction": {
      "activation": {
        "cost": 2,
        "type": "action"
      }
    },
    "range": {
      "value": 40,
      "units": "ft"
    },
    "uses": {
      "per": ""
    },
    "measureTemplate": {
      "size": "0"
    },
    "actionType": "",
    "damage": {
      "parts": [],
      "critParts": [],
      "nonCritParts": []
    },
    "attackParts": [],
    "ability": {
      "attack": "",
      "damage": ""
    },
    "save": {
      "dc": "0"
    },
    "effectNotes": [],
    "attackNotes": [],
    "links": {
      "children": []
    },
    "flags": {
      "boolean": [],
      "dictionary": []
    },
    "scriptCalls": [],
    "learnedAt": {
      "class": [
        [
          "sorcerer/wizard",
          4
        ],
        [
          "bard",
          4
        ],
        [
          "witch",
          4
        ],
        [
          "inquisitor",
          4
        ],
        [
          "shaman",
          4
        ],
        [
          "psychic",
          4
        ],
        [
          "medium",
          3
        ],
        [
          "mesmerist",
          4
        ],
        [
          "occultist",
          4
        ],
        [
          "spiritualist",
          4
        ]
      ],
      "domain": [],
      "subDomain": [
        [
          "Solitude",
          4
        ]
      ],
      "elementalSchool": [],
      "bloodline": [
        [
          "Rakshasa",
          4
        ]
      ]
    },
    "level": 4,
    "school": "div",
    "conditionals": [],
    "components": {
      "verbal": true,
      "somatic": true,
      "material": true
    },
    "materials": {
      "value": "a piece of mirror and a miniature brass hearing trumpet"
    },
    "sr": false,
    "shortDescription": "<p>You immediately become aware of any attempt to observe you by means of a divination (scrying) spell or effect. The spell's area radiates from you and moves as you move. You know the location of every magical sensor within the spell's area.</p><p>If the scrying attempt originates within the area, you also know its location; otherwise, you and the scrier immediately make opposed caster level checks (1d20 + caster level). If you at least match the scrier's result, you get a visual image of the scrier and an accurate sense of his direction and distance from you.</p>",
    "spellDuration": "24 hours",
    "spellArea": "40-ft.-radius emanation centered on you"
  },
  "effects": [],
  "folder": null,
  "sort": 0,
  "permission": {
    "default": 0
  },
  "flags": {}
}