{
  "_id": "7e22urxux6i2mua5",
  "name": "Dictum",
  "type": "spell",
  "img": "systems/pf1/icons/misc/magic-swirl.png",
  "data": {
    "description": {
      "value": "<div class=\"spell-description\">\n  <p>\n    <strong>School</strong>&nbsp;evocation&nbsp;[lawful, sonic];\n    <strong>Level</strong>&nbsp;cleric/oracle 7, inquisitor 6;\n    <strong>Domain</strong>&nbsp;Law 7;\n    \n    \n    \n  </p>\n  <p>\n    <strong>Casting Time</strong>&nbsp;1 standard<br>\n    <strong>Components</strong>&nbsp;V<br>\n  </p>\n  <p>\n    <strong>Range</strong>&nbsp;40 feet<br>\n    <strong>Area</strong>&nbsp;nonlawful creatures in a 40-ft.-radius spread centered on you<br>\n    \n    \n    <strong>Duration</strong>&nbsp;instantaneous<br>\n      <strong>Saving Throw</strong>&nbsp;none or Will negates; see text;&nbsp;\n      <strong>Spell Resistance</strong>&nbsp;yes<br>\n  </p>\n  <h2>Description</h2>\n  <p>Any nonlawful creature within the area of a <i>dictum</i> spell suffers the following ill effects.</p><p>HD Effect Equal to caster level <i>Deafened</i> Up to caster level -1 <i>Staggered</i>, deafened Up to caster level -5 <i>Paralyzed</i>, staggered, deafened Up to caster level -10 <i>Killed</i>, paralyzed, staggered, deafened The effects are cumulative and concurrent. A successful Will save reduces or eliminates these effects. Creatures affected by multiple effects make only one save and apply the result to all the effects.</p><p><i>Deafened</i>: The creature is deafened for 1d4 rounds. Save negates.</p><p><i>Staggered</i>: The creature is staggered for 2d4 rounds. Save reduces the staggered effect to 1d4 rounds.</p><p><i>Paralyzed</i>: The creature is paralyzed and helpless for 1d10 minutes. Save reduces the paralyzed effect to 1 round.</p><p><i>Killed</i>: Living creatures die. Undead creatures are destroyed. Save negates. If the save is successful, the creature instead takes 3d6 points of damage + 1 point per caster level (maximum +25).</p><p>Furthermore, if you are on your home plane when you cast this spell, nonlawful extraplanar creatures within the area are instantly banished back to their home planes. Creatures so banished cannot return for at least 24 hours. This effect takes place regardless of whether the creatures hear the <i>dictum</i> or not. The banishment allows a Will save (at a -4 penalty) to negate.</p><p>Creatures whose Hit Dice exceed your caster level are unaffected by <i>dictum</i>.</p>\n</div>\n"
    },
    "tags": [],
    "activation": {
      "type": "standard"
    },
    "unchainedAction": {
      "activation": {
        "cost": 2,
        "type": "action"
      }
    },
    "range": {
      "value": 40,
      "units": "ft"
    },
    "uses": {
      "per": ""
    },
    "measureTemplate": {
      "size": "0"
    },
    "actionType": "spellsave",
    "damage": {
      "parts": [],
      "critParts": [],
      "nonCritParts": []
    },
    "attackParts": [],
    "ability": {
      "attack": "",
      "damage": ""
    },
    "save": {
      "dc": "0",
      "type": "will",
      "description": "none or Will negates; see text"
    },
    "effectNotes": [],
    "attackNotes": [],
    "links": {
      "children": []
    },
    "flags": {
      "boolean": [],
      "dictionary": []
    },
    "scriptCalls": [],
    "learnedAt": {
      "class": [
        [
          "cleric/oracle",
          7
        ],
        [
          "inquisitor",
          6
        ]
      ],
      "domain": [
        [
          "Law",
          7
        ]
      ],
      "subDomain": [],
      "elementalSchool": [],
      "bloodline": []
    },
    "level": 7,
    "school": "evo",
    "types": "lawful, sonic",
    "conditionals": [],
    "components": {
      "verbal": true
    },
    "shortDescription": "<p>Any nonlawful creature within the area of a <i>dictum</i> spell suffers the following ill effects.</p><p>HD Effect Equal to caster level <i>Deafened</i> Up to caster level -1 <i>Staggered</i>, deafened Up to caster level -5 <i>Paralyzed</i>, staggered, deafened Up to caster level -10 <i>Killed</i>, paralyzed, staggered, deafened The effects are cumulative and concurrent. A successful Will save reduces or eliminates these effects. Creatures affected by multiple effects make only one save and apply the result to all the effects.</p><p><i>Deafened</i>: The creature is deafened for 1d4 rounds. Save negates.</p><p><i>Staggered</i>: The creature is staggered for 2d4 rounds. Save reduces the staggered effect to 1d4 rounds.</p><p><i>Paralyzed</i>: The creature is paralyzed and helpless for 1d10 minutes. Save reduces the paralyzed effect to 1 round.</p><p><i>Killed</i>: Living creatures die. Undead creatures are destroyed. Save negates. If the save is successful, the creature instead takes 3d6 points of damage + 1 point per caster level (maximum +25).</p><p>Furthermore, if you are on your home plane when you cast this spell, nonlawful extraplanar creatures within the area are instantly banished back to their home planes. Creatures so banished cannot return for at least 24 hours. This effect takes place regardless of whether the creatures hear the <i>dictum</i> or not. The banishment allows a Will save (at a -4 penalty) to negate.</p><p>Creatures whose Hit Dice exceed your caster level are unaffected by <i>dictum</i>.</p>",
    "spellDuration": "instantaneous",
    "spellArea": "nonlawful creatures in a 40-ft.-radius spread centered on you"
  },
  "effects": [],
  "folder": null,
  "sort": 0,
  "permission": {
    "default": 0
  },
  "flags": {}
}