{
  "_id": "h9hncq6x9od8opnv",
  "name": "Divine Pursuit",
  "type": "spell",
  "img": "systems/pf1/icons/misc/magic-swirl.png",
  "data": {
    "description": {
      "value": "<div class=\"spell-description\">\n  <p>\n    <strong>School</strong>&nbsp;transmutation;\n    <strong>Level</strong>&nbsp;inquisitor 5;\n    \n    \n    \n    \n  </p>\n  <p>\n    <strong>Casting Time</strong>&nbsp;1 standard<br>\n    <strong>Components</strong>&nbsp;V, S<br>\n  </p>\n  <p>\n    <strong>Range</strong>&nbsp;personal<br>\n    \n    <strong>Targets</strong>&nbsp;you<br>\n    \n    <strong>Duration</strong>&nbsp;1 minute/level; see text<br>\n  </p>\n  <h2>Description</h2>\n  <p>Select one creature within 60 feet that you have damaged. If that creature has a burrow, climb, fly, or swim speed, you gain that form of movement for the duration of the spell at the same speed and maneuverability as the selected creature. If this gives you the burrow or swim speed, you can breathe while burrowing or swimming. If the creature moves 1,000 feet or more from you, the spell ends. If the creature has more than one of these types of movement, you select one from the types available to the creature.</p>\n</div>\n"
    },
    "tags": [],
    "activation": {
      "type": "standard"
    },
    "unchainedAction": {
      "activation": {
        "cost": 2,
        "type": "action"
      }
    },
    "target": {
      "value": "you"
    },
    "range": {
      "units": "personal"
    },
    "uses": {
      "per": ""
    },
    "measureTemplate": {
      "size": "0"
    },
    "actionType": "",
    "damage": {
      "parts": [],
      "critParts": [],
      "nonCritParts": []
    },
    "attackParts": [],
    "ability": {
      "attack": "",
      "damage": ""
    },
    "save": {
      "dc": "0"
    },
    "effectNotes": [],
    "attackNotes": [],
    "links": {
      "children": []
    },
    "flags": {
      "boolean": [],
      "dictionary": []
    },
    "scriptCalls": [],
    "learnedAt": {
      "class": [
        [
          "inquisitor",
          5
        ]
      ],
      "domain": [],
      "subDomain": [],
      "elementalSchool": [],
      "bloodline": []
    },
    "level": 5,
    "school": "trs",
    "conditionals": [],
    "components": {
      "verbal": true,
      "somatic": true
    },
    "sr": false,
    "shortDescription": "<p>Select one creature within 60 feet that you have damaged. If that creature has a burrow, climb, fly, or swim speed, you gain that form of movement for the duration of the spell at the same speed and maneuverability as the selected creature. If this gives you the burrow or swim speed, you can breathe while burrowing or swimming. If the creature moves 1,000 feet or more from you, the spell ends. If the creature has more than one of these types of movement, you select one from the types available to the creature.</p>",
    "spellDuration": "1 minute/level; see text"
  },
  "effects": [],
  "folder": null,
  "sort": 0,
  "permission": {
    "default": 0
  },
  "flags": {}
}