{
  "_id": "7saj33kvf1gpiupy",
  "name": "Dungeonsight",
  "type": "spell",
  "img": "systems/pf1/icons/misc/magic-swirl.png",
  "data": {
    "description": {
      "value": "<div class=\"spell-description\">\n  <p>\n    <strong>School</strong>&nbsp;divination;\n    <strong>Level</strong>&nbsp;bard 4, cleric/oracle 5, inquisitor 4, sorcerer/wizard 5;\n    \n    \n    \n    \n  </p>\n  <p>\n    <strong>Casting Time</strong>&nbsp;1 standard<br>\n    <strong>Components</strong>&nbsp;V, S, F (a small glass orb worth 150 gp)<br>\n  </p>\n  <p>\n    <strong>Range</strong>&nbsp;personal<br>\n    <strong>Area</strong>&nbsp;60-ft.-radius emanation<br>\n    \n    \n    <strong>Duration</strong>&nbsp;instantaneous<br>\n  </p>\n  <h2>Description</h2>\n  <p>You receive a clear and memorable view of the layout of chambers, barriers, and connecting passages within the area of effect. This spell does not reveal the contents or inhabitants of any of these locations, only the basic architecture of the space. For example, a staircase leading up to a pair of doors would be apparent, but the iron golems guarding the doors would not. This spell does identify the locations of secret doors and hidden passages but gives no clue as to the means of opening or accessing them.</p>\n</div>\n"
    },
    "tags": [],
    "activation": {
      "type": "standard"
    },
    "unchainedAction": {
      "activation": {
        "cost": 2,
        "type": "action"
      }
    },
    "range": {
      "units": "personal"
    },
    "uses": {
      "per": ""
    },
    "measureTemplate": {
      "size": "0"
    },
    "actionType": "",
    "damage": {
      "parts": [],
      "critParts": [],
      "nonCritParts": []
    },
    "attackParts": [],
    "ability": {
      "attack": "",
      "damage": ""
    },
    "save": {
      "dc": "0"
    },
    "effectNotes": [],
    "attackNotes": [],
    "links": {
      "children": []
    },
    "flags": {
      "boolean": [],
      "dictionary": []
    },
    "scriptCalls": [],
    "learnedAt": {
      "class": [
        [
          "sorcerer/wizard",
          5
        ],
        [
          "cleric/oracle",
          5
        ],
        [
          "bard",
          4
        ],
        [
          "inquisitor",
          4
        ]
      ],
      "domain": [],
      "subDomain": [],
      "elementalSchool": [],
      "bloodline": []
    },
    "level": 5,
    "school": "div",
    "conditionals": [],
    "components": {
      "verbal": true,
      "somatic": true,
      "focus": true
    },
    "materials": {
      "focus": "a small glass orb worth 150 gp"
    },
    "sr": false,
    "shortDescription": "<p>You receive a clear and memorable view of the layout of chambers, barriers, and connecting passages within the area of effect. This spell does not reveal the contents or inhabitants of any of these locations, only the basic architecture of the space. For example, a staircase leading up to a pair of doors would be apparent, but the iron golems guarding the doors would not. This spell does identify the locations of secret doors and hidden passages but gives no clue as to the means of opening or accessing them.</p>",
    "spellDuration": "instantaneous",
    "spellArea": "60-ft.-radius emanation"
  },
  "effects": [],
  "folder": null,
  "sort": 0,
  "permission": {
    "default": 0
  },
  "flags": {}
}