{
  "_id": "0zzlhjlpogqfyi71",
  "name": "Endothermic Touch",
  "type": "spell",
  "img": "systems/pf1/icons/misc/magic-swirl.png",
  "data": {
    "description": {
      "value": "<div class=\"spell-description\">\n  <p>\n    <strong>School</strong>&nbsp;transmutation;\n    <strong>Level</strong>&nbsp;druid 1, hunter 1, shaman 1, sorcerer/wizard 1, witch 1;\n    \n    \n    \n    \n  </p>\n  <p>\n    <strong>Casting Time</strong>&nbsp;1 standard<br>\n    <strong>Components</strong>&nbsp;V, S, M/DF (a small bit of snakeskin)<br>\n  </p>\n  <p>\n    <strong>Range</strong>&nbsp;touch<br>\n    \n    <strong>Targets</strong>&nbsp;one living creature that has the dragon type or the reptilian subtype<br>\n    \n    <strong>Duration</strong>&nbsp;1 round/level<br>\n      <strong>Saving Throw</strong>&nbsp;Fort negates;&nbsp;\n      <strong>Spell Resistance</strong>&nbsp;yes<br>\n  </p>\n  <h2>Description</h2>\n  <p>This spell slows the metabolism and other bodily functions of a creature for a short amount of time. The target is staggered and moves at half its normal speed (round down to the next 5-foot increment), but it can hold its breath for twice as long as normal.</p>\n</div>\n"
    },
    "tags": [],
    "activation": {
      "type": "standard"
    },
    "unchainedAction": {
      "activation": {
        "cost": 2,
        "type": "action"
      }
    },
    "target": {
      "value": "one living creature that has the dragon type or the reptilian subtype"
    },
    "range": {
      "units": "touch"
    },
    "uses": {
      "per": ""
    },
    "measureTemplate": {
      "size": "0"
    },
    "actionType": "spellsave",
    "damage": {
      "parts": [],
      "critParts": [],
      "nonCritParts": []
    },
    "attackParts": [],
    "ability": {
      "attack": "",
      "damage": ""
    },
    "save": {
      "dc": "0",
      "type": "fort",
      "description": "Fort negates"
    },
    "effectNotes": [],
    "attackNotes": [],
    "links": {
      "children": []
    },
    "flags": {
      "boolean": [],
      "dictionary": []
    },
    "scriptCalls": [],
    "learnedAt": {
      "class": [
        [
          "sorcerer/wizard",
          1
        ],
        [
          "druid",
          1
        ],
        [
          "witch",
          1
        ],
        [
          "shaman",
          1
        ],
        [
          "hunter",
          1
        ]
      ],
      "domain": [],
      "subDomain": [],
      "elementalSchool": [],
      "bloodline": []
    },
    "school": "trs",
    "conditionals": [],
    "components": {
      "verbal": true,
      "somatic": true,
      "material": true,
      "divineFocus": 2
    },
    "materials": {
      "value": "a small bit of snakeskin"
    },
    "shortDescription": "<p>This spell slows the metabolism and other bodily functions of a creature for a short amount of time. The target is staggered and moves at half its normal speed (round down to the next 5-foot increment), but it can hold its breath for twice as long as normal.</p>",
    "spellDuration": "1 round/level"
  },
  "effects": [],
  "folder": null,
  "sort": 0,
  "permission": {
    "default": 0
  },
  "flags": {}
}