{
  "_id": "85seyvrlrputrpe7",
  "name": "Erase Impressions",
  "type": "spell",
  "img": "systems/pf1/icons/misc/magic-swirl.png",
  "data": {
    "description": {
      "value": "<div class=\"spell-description\">\n  <p>\n    <strong>School</strong>&nbsp;abjuration;\n    <strong>Level</strong>&nbsp;medium 3, mesmerist 4, occultist 3, psychic 5, spiritualist 4;\n    \n    \n    \n    \n  </p>\n  <p>\n    <strong>Casting Time</strong>&nbsp;1 round<br>\n    <strong>Components</strong>&nbsp;V, S<br>\n  </p>\n  <p>\n    <strong>Range</strong>&nbsp;touch<br>\n    \n    <strong>Targets</strong>&nbsp;object touched<br>\n    \n    <strong>Duration</strong>&nbsp;instantaneous<br>\n      <strong>Saving Throw</strong>&nbsp;Will negates (object);&nbsp;\n      <strong>Spell Resistance</strong>&nbsp;yes<br>\n  </p>\n  <h2>Description</h2>\n  <p>You banish psychic impressions from the object touched, rendering it devoid of recent history. You choose how much time to erase, up to a maximum of 1 day per caster level. You must <i>erase impressions</i> from the present time back; you cannot choose to leave recent events untouched. Impressions erased in this manner cannot be recovered via <i>object reading</i>, <i>legend lore</i>, or similar measures.  Casting <i>erase impressions</i> o n a corpse r emoves recent psychic impressions from when the creature was alive as well, making those memories unavailable to <i>speak with dead</i>. For example, a 5th-level caster casting the spell on a 2-day-old corpse could erase the past 2 days of psychic impressions from the corpse and 3 additional days of information from just before the creature died.</p>\n</div>\n"
    },
    "tags": [],
    "activation": {
      "type": "round"
    },
    "unchainedAction": {
      "activation": {
        "cost": 3,
        "type": "action"
      }
    },
    "target": {
      "value": "object touched"
    },
    "range": {
      "units": "touch"
    },
    "uses": {
      "per": ""
    },
    "measureTemplate": {
      "size": "0"
    },
    "actionType": "spellsave",
    "damage": {
      "parts": [],
      "critParts": [],
      "nonCritParts": []
    },
    "attackParts": [],
    "ability": {
      "attack": "",
      "damage": ""
    },
    "save": {
      "dc": "0",
      "type": "will",
      "description": "Will negates (object)"
    },
    "effectNotes": [],
    "attackNotes": [],
    "links": {
      "children": []
    },
    "flags": {
      "boolean": [],
      "dictionary": []
    },
    "scriptCalls": [],
    "learnedAt": {
      "class": [
        [
          "psychic",
          5
        ],
        [
          "medium",
          3
        ],
        [
          "mesmerist",
          4
        ],
        [
          "occultist",
          3
        ],
        [
          "spiritualist",
          4
        ]
      ],
      "domain": [],
      "subDomain": [],
      "elementalSchool": [],
      "bloodline": []
    },
    "level": 5,
    "school": "abj",
    "conditionals": [],
    "components": {
      "verbal": true,
      "somatic": true
    },
    "shortDescription": "<p>You banish psychic impressions from the object touched, rendering it devoid of recent history. You choose how much time to erase, up to a maximum of 1 day per caster level. You must <i>erase impressions</i> from the present time back; you cannot choose to leave recent events untouched. Impressions erased in this manner cannot be recovered via <i>object reading</i>, <i>legend lore</i>, or similar measures.  Casting <i>erase impressions</i> o n a corpse r emoves recent psychic impressions from when the creature was alive as well, making those memories unavailable to <i>speak with dead</i>. For example, a 5th-level caster casting the spell on a 2-day-old corpse could erase the past 2 days of psychic impressions from the corpse and 3 additional days of information from just before the creature died.</p>",
    "spellDuration": "instantaneous"
  },
  "effects": [],
  "folder": null,
  "sort": 0,
  "permission": {
    "default": 0
  },
  "flags": {}
}