{
  "_id": "xeewy48u4zmoec3i",
  "name": "Expeditious Construction",
  "type": "spell",
  "img": "systems/pf1/icons/misc/magic-swirl.png",
  "data": {
    "description": {
      "value": "<div class=\"spell-description\">\n  <p>\n    <strong>School</strong>&nbsp;conjuration&nbsp;(creation)&nbsp;[earth];\n    <strong>Level</strong>&nbsp;druid 1, hunter 1, sorcerer/wizard 1;\n    \n    \n    \n    \n  </p>\n  <p>\n    <strong>Casting Time</strong>&nbsp;1 standard<br>\n    <strong>Components</strong>&nbsp;V, S, M (a handful of earth or stone)<br>\n  </p>\n  <p>\n    <strong>Range</strong>&nbsp;close (25 ft. + 5 ft./2 levels)<br>\n    \n    \n    <strong>Effect</strong>&nbsp;a low wall 10 feet long per 3 levels (minimum 10 feet) (S)<br>\n    <strong>Duration</strong>&nbsp;instantaneous<br>\n      <strong>Saving Throw</strong>&nbsp;none;&nbsp;\n      <strong>Spell Resistance</strong>&nbsp;no<br>\n  </p>\n  <h2>Description</h2>\n  <p>You create a low wall or other simple structure of packed earth or loose stone measuring 3 feet thick, 3 feet tall, and 10 feet long per 3 caster levels you possess (minimum 10 feet). Each square of the structure can appear only in unoccupied spaces atop earthen or stone surfaces able to support it. The wall grants cover as per a low wall and can be climbed with a successful DC 5 Climb check. Large and larger creatures don't need to attempt a Climb check to climb over it.  At your discretion, you can make the structure half as long but thicker by forming it into a berm consisting of a steep slope on each side. Characters moving uphill (to an adjacent square of higher elevation) must spend 2 squares of movement to enter a square of steep slope. Characters running or charging downhill (moving to an adjacent square  of lower elevation) must attempt a DC 10 Acrobatics check upon entering the first steep slope square. Mounted characters attempt a DC 10 Ride check instead. Characters who fail this check stumble and must end their movement 1d2 x 5 feet later. Characters who fail by 5 or more fall prone in the square where they end their movement. A steep slope increases the DC of Acrobatics checks by 2.</p>\n</div>\n"
    },
    "tags": [],
    "activation": {
      "type": "standard"
    },
    "unchainedAction": {
      "activation": {
        "cost": 2,
        "type": "action"
      }
    },
    "range": {
      "units": "close"
    },
    "uses": {
      "per": ""
    },
    "measureTemplate": {
      "size": "0"
    },
    "actionType": "other",
    "damage": {
      "parts": [],
      "critParts": [],
      "nonCritParts": []
    },
    "attackParts": [],
    "ability": {
      "attack": "",
      "damage": ""
    },
    "save": {
      "dc": "0"
    },
    "effectNotes": [],
    "attackNotes": [],
    "links": {
      "children": []
    },
    "flags": {
      "boolean": [],
      "dictionary": []
    },
    "scriptCalls": [],
    "learnedAt": {
      "class": [
        [
          "sorcerer/wizard",
          1
        ],
        [
          "druid",
          1
        ],
        [
          "hunter",
          1
        ]
      ],
      "domain": [],
      "subDomain": [],
      "elementalSchool": [],
      "bloodline": []
    },
    "school": "con",
    "subschool": "creation",
    "types": "earth",
    "conditionals": [],
    "components": {
      "verbal": true,
      "somatic": true,
      "material": true
    },
    "materials": {
      "value": "a handful of earth or stone"
    },
    "sr": false,
    "shortDescription": "<p>You create a low wall or other simple structure of packed earth or loose stone measuring 3 feet thick, 3 feet tall, and 10 feet long per 3 caster levels you possess (minimum 10 feet). Each square of the structure can appear only in unoccupied spaces atop earthen or stone surfaces able to support it. The wall grants cover as per a low wall and can be climbed with a successful DC 5 Climb check. Large and larger creatures don't need to attempt a Climb check to climb over it.  At your discretion, you can make the structure half as long but thicker by forming it into a berm consisting of a steep slope on each side. Characters moving uphill (to an adjacent square of higher elevation) must spend 2 squares of movement to enter a square of steep slope. Characters running or charging downhill (moving to an adjacent square  of lower elevation) must attempt a DC 10 Acrobatics check upon entering the first steep slope square. Mounted characters attempt a DC 10 Ride check instead. Characters who fail this check stumble and must end their movement 1d2 x 5 feet later. Characters who fail by 5 or more fall prone in the square where they end their movement. A steep slope increases the DC of Acrobatics checks by 2.</p>",
    "spellDuration": "instantaneous",
    "spellEffect": "a low wall 10 feet long per 3 levels (minimum 10 feet) (S)"
  },
  "effects": [],
  "folder": null,
  "sort": 0,
  "permission": {
    "default": 0
  },
  "flags": {}
}