{
  "_id": "3v1k7qnzd13s5dj3",
  "name": "Expeditious Excavation",
  "type": "spell",
  "img": "systems/pf1/icons/misc/magic-swirl.png",
  "data": {
    "description": {
      "value": "<div class=\"spell-description\">\n  <p>\n    <strong>School</strong>&nbsp;transmutation&nbsp;[earth];\n    <strong>Level</strong>&nbsp;druid 1, hunter 1, sorcerer/wizard 1;\n    \n    \n    \n    \n  </p>\n  <p>\n    <strong>Casting Time</strong>&nbsp;1 standard<br>\n    <strong>Components</strong>&nbsp;V, S, M (tiny shovel)<br>\n  </p>\n  <p>\n    <strong>Range</strong>&nbsp;close (25 ft. + 5 ft./2 levels)<br>\n    <strong>Area</strong>&nbsp;dirt in a 5-ft. cube<br>\n    \n    \n    <strong>Duration</strong>&nbsp;instantaneous<br>\n      <strong>Saving Throw</strong>&nbsp;see text;&nbsp;\n      <strong>Spell Resistance</strong>&nbsp;no<br>\n  </p>\n  <h2>Description</h2>\n  <p>You can excavate and move earth, dust, and sand up to the size of a 5-foot cube. If you are buried, you may open a 5-foot cube around yourself, but the spell cannot be used for tunneling.</p><p>Besides its mundane applications, you can open a 5-foot-deep pit at a creature's feet. A Medium or smaller creature falls prone in the pit unless it succeeds on a Reflex save. With a successful save, it can choose to land harmlessly on its feet in the pit or hop to an adjacent square; this movement does not provoke attacks of opportunity. A creature can escape a 5-foot-deep pit with a DC 5 Climb check. Larger creatures may ignore pits smaller than their size.</p><p>The earth excavated by this spell is ordinarily distributed harmlessly across the spell's range, but you may choose to throw up a burst of grit and debris when you dig a pit. This cloud of debris provides concealment to any creatures in the square affected and all adjacent squares for 1 round. <i>Expeditious excavation</i> has no effect on solid rock or earth creatures.</p>\n</div>\n"
    },
    "tags": [],
    "activation": {
      "type": "standard"
    },
    "unchainedAction": {
      "activation": {
        "cost": 2,
        "type": "action"
      }
    },
    "range": {
      "units": "close"
    },
    "uses": {
      "per": ""
    },
    "measureTemplate": {
      "size": "0"
    },
    "actionType": "spellsave",
    "damage": {
      "parts": [],
      "critParts": [],
      "nonCritParts": []
    },
    "attackParts": [],
    "ability": {
      "attack": "",
      "damage": ""
    },
    "save": {
      "dc": "0",
      "description": "see text"
    },
    "effectNotes": [],
    "attackNotes": [],
    "links": {
      "children": []
    },
    "flags": {
      "boolean": [],
      "dictionary": []
    },
    "scriptCalls": [],
    "learnedAt": {
      "class": [
        [
          "sorcerer/wizard",
          1
        ],
        [
          "druid",
          1
        ],
        [
          "hunter",
          1
        ]
      ],
      "domain": [],
      "subDomain": [],
      "elementalSchool": [],
      "bloodline": []
    },
    "school": "trs",
    "types": "earth",
    "conditionals": [],
    "components": {
      "verbal": true,
      "somatic": true,
      "material": true
    },
    "materials": {
      "value": "tiny shovel"
    },
    "sr": false,
    "shortDescription": "<p>You can excavate and move earth, dust, and sand up to the size of a 5-foot cube. If you are buried, you may open a 5-foot cube around yourself, but the spell cannot be used for tunneling.</p><p>Besides its mundane applications, you can open a 5-foot-deep pit at a creature's feet. A Medium or smaller creature falls prone in the pit unless it succeeds on a Reflex save. With a successful save, it can choose to land harmlessly on its feet in the pit or hop to an adjacent square; this movement does not provoke attacks of opportunity. A creature can escape a 5-foot-deep pit with a DC 5 Climb check. Larger creatures may ignore pits smaller than their size.</p><p>The earth excavated by this spell is ordinarily distributed harmlessly across the spell's range, but you may choose to throw up a burst of grit and debris when you dig a pit. This cloud of debris provides concealment to any creatures in the square affected and all adjacent squares for 1 round. <i>Expeditious excavation</i> has no effect on solid rock or earth creatures.</p>",
    "spellDuration": "instantaneous",
    "spellArea": "dirt in a 5-ft. cube"
  },
  "effects": [],
  "folder": null,
  "sort": 0,
  "permission": {
    "default": 0
  },
  "flags": {}
}