{
  "_id": "ce52lzu5he8eglfh",
  "name": "Familiar Melding",
  "type": "spell",
  "img": "systems/pf1/icons/misc/magic-swirl.png",
  "data": {
    "description": {
      "value": "<div class=\"spell-description\">\n  <p>\n    <strong>School</strong>&nbsp;necromancy;\n    <strong>Level</strong>&nbsp;shaman 4, sorcerer/wizard 4, witch 4;\n    \n    \n    \n    \n  </p>\n  <p>\n    <strong>Casting Time</strong>&nbsp;1 standard<br>\n    <strong>Components</strong>&nbsp;V, S<br>\n  </p>\n  <p>\n    <strong>Range</strong>&nbsp;medium (100 ft. + 10 ft./level)<br>\n    \n    <strong>Targets</strong>&nbsp;your familiar<br>\n    \n    <strong>Duration</strong>&nbsp;1 hour/level or until you return to your body<br>\n      <strong>Saving Throw</strong>&nbsp;Will negates (harmless);&nbsp;\n      <strong>Spell Resistance</strong>&nbsp;yes<br>\n  </p>\n  <h2>Description</h2>\n  <p>You project your soul into your familiar, taking over its body while leaving its consciousness intact. When you transfer your soul upon casting, your body is, as near as anyone can tell, dead.</p><p>While possessing your familiar, you can communicate with it telepathically. You keep your Intelligence, Wisdom, Charisma, level, class, base attack bonus, base save bonuses, alignment, and mental abilities. The familiar's body retains its own Strength, Dexterity, Constitution, hit points, natural abilities, and automatic abilities. A body with extra limbs does not allow you to make more attacks (or more advantageous twoweapon attacks) than normal. You may use any abilities the familiar has, including spells and spell-like abilities. You cannot speak unless your familiar has the ability to speak a language. You cannot cast spells with somatic components if your familiar does not have anthropomorphic limbs that can perform the appropriate motions.</p><p>As a standard action, you can return to your body as long as it is within range. If your familiar is slain while your soul is in it and your body is within range, your soul returns to your own body, unharmed. If your familiar is out of range when slain, you die.</p><p>The spell ends when you shift from the familiar to your own body.</p>\n</div>\n"
    },
    "tags": [],
    "activation": {
      "type": "standard"
    },
    "unchainedAction": {
      "activation": {
        "cost": 2,
        "type": "action"
      }
    },
    "target": {
      "value": "your familiar"
    },
    "range": {
      "units": "medium"
    },
    "uses": {
      "per": ""
    },
    "measureTemplate": {
      "size": "0"
    },
    "actionType": "spellsave",
    "damage": {
      "parts": [],
      "critParts": [],
      "nonCritParts": []
    },
    "attackParts": [],
    "ability": {
      "attack": "",
      "damage": ""
    },
    "save": {
      "dc": "0",
      "type": "will",
      "description": "Will negates (harmless)"
    },
    "effectNotes": [],
    "attackNotes": [],
    "links": {
      "children": []
    },
    "flags": {
      "boolean": [],
      "dictionary": []
    },
    "scriptCalls": [],
    "learnedAt": {
      "class": [
        [
          "sorcerer/wizard",
          4
        ],
        [
          "witch",
          4
        ],
        [
          "shaman",
          4
        ]
      ],
      "domain": [],
      "subDomain": [],
      "elementalSchool": [],
      "bloodline": []
    },
    "level": 4,
    "school": "nec",
    "conditionals": [],
    "components": {
      "verbal": true,
      "somatic": true
    },
    "shortDescription": "<p>You project your soul into your familiar, taking over its body while leaving its consciousness intact. When you transfer your soul upon casting, your body is, as near as anyone can tell, dead.</p><p>While possessing your familiar, you can communicate with it telepathically. You keep your Intelligence, Wisdom, Charisma, level, class, base attack bonus, base save bonuses, alignment, and mental abilities. The familiar's body retains its own Strength, Dexterity, Constitution, hit points, natural abilities, and automatic abilities. A body with extra limbs does not allow you to make more attacks (or more advantageous twoweapon attacks) than normal. You may use any abilities the familiar has, including spells and spell-like abilities. You cannot speak unless your familiar has the ability to speak a language. You cannot cast spells with somatic components if your familiar does not have anthropomorphic limbs that can perform the appropriate motions.</p><p>As a standard action, you can return to your body as long as it is within range. If your familiar is slain while your soul is in it and your body is within range, your soul returns to your own body, unharmed. If your familiar is out of range when slain, you die.</p><p>The spell ends when you shift from the familiar to your own body.</p>",
    "spellDuration": "1 hour/level or until you return to your body"
  },
  "effects": [],
  "folder": null,
  "sort": 0,
  "permission": {
    "default": 0
  },
  "flags": {}
}