{
  "_id": "dqj6m4atpnp7dd9k",
  "name": "Flame Blade",
  "type": "spell",
  "img": "systems/pf1/icons/misc/magic-swirl.png",
  "data": {
    "description": {
      "value": "<div class=\"spell-description\">\n  <p>\n    <strong>School</strong>&nbsp;evocation&nbsp;[fire];\n    <strong>Level</strong>&nbsp;druid 2, hunter 2, shaman 2;\n    \n    \n    \n    \n  </p>\n  <p>\n    <strong>Casting Time</strong>&nbsp;1 standard<br>\n    <strong>Components</strong>&nbsp;V, S, DF<br>\n  </p>\n  <p>\n    \n    \n    \n    <strong>Effect</strong>&nbsp;sword-like beam<br>\n    <strong>Duration</strong>&nbsp;1 min./level (D)<br>\n      <strong>Saving Throw</strong>&nbsp;none;&nbsp;\n      <strong>Spell Resistance</strong>&nbsp;yes<br>\n  </p>\n  <h2>Description</h2>\n  <p>A 3-foot-long, blazing beam of red-hot fire springs forth from your hand. You wield this blade-like beam as if it were a scimitar. Attacks with the <i>flame blade</i> are melee touch attacks.</p><p>The blade deals 1d8 points of fire damage + 1 point per two caster levels (maximum +10). Since the blade is immaterial, your Strength modifier does not apply to the damage. A <i>flame blade</i> can ignite combustible materials such as parchment, straw, dry sticks, and cloth.</p>\n</div>\n"
    },
    "tags": [],
    "activation": {
      "type": "standard"
    },
    "unchainedAction": {
      "activation": {
        "cost": 2,
        "type": "action"
      }
    },
    "range": {
      "value": 0,
      "units": "ft"
    },
    "uses": {
      "per": ""
    },
    "measureTemplate": {
      "size": "0"
    },
    "actionType": "other",
    "damage": {
      "parts": [],
      "critParts": [],
      "nonCritParts": []
    },
    "attackParts": [],
    "ability": {
      "attack": "",
      "damage": ""
    },
    "save": {
      "dc": "0"
    },
    "effectNotes": [],
    "attackNotes": [],
    "links": {
      "children": []
    },
    "flags": {
      "boolean": [],
      "dictionary": []
    },
    "scriptCalls": [],
    "learnedAt": {
      "class": [
        [
          "druid",
          2
        ],
        [
          "shaman",
          2
        ],
        [
          "hunter",
          2
        ]
      ],
      "domain": [],
      "subDomain": [],
      "elementalSchool": [],
      "bloodline": []
    },
    "level": 2,
    "school": "evo",
    "types": "fire",
    "conditionals": [],
    "components": {
      "verbal": true,
      "somatic": true,
      "divineFocus": 1
    },
    "shortDescription": "<p>A 3-foot-long, blazing beam of red-hot fire springs forth from your hand. You wield this blade-like beam as if it were a scimitar. Attacks with the <i>flame blade</i> are melee touch attacks.</p><p>The blade deals 1d8 points of fire damage + 1 point per two caster levels (maximum +10). Since the blade is immaterial, your Strength modifier does not apply to the damage. A <i>flame blade</i> can ignite combustible materials such as parchment, straw, dry sticks, and cloth.</p>",
    "spellDuration": "1 min./level (D)",
    "spellEffect": "sword-like beam"
  },
  "effects": [],
  "folder": null,
  "sort": 0,
  "permission": {
    "default": 0
  },
  "flags": {}
}