{
  "_id": "hnw67qh2v1c4goiq",
  "name": "Font of Spirit Magic",
  "type": "spell",
  "img": "systems/pf1/icons/misc/magic-swirl.png",
  "data": {
    "description": {
      "value": "<div class=\"spell-description\">\n  <p>\n    <strong>School</strong>&nbsp;conjuration&nbsp;(creation);\n    <strong>Level</strong>&nbsp;shaman 3;\n    \n    \n    \n    \n  </p>\n  <p>\n    <strong>Casting Time</strong>&nbsp;1 standard<br>\n    <strong>Components</strong>&nbsp;V, S, M (gold dust worth 50 gp)<br>\n  </p>\n  <p>\n    <strong>Range</strong>&nbsp;30 feet<br>\n    <strong>Area</strong>&nbsp;30-ft.-radius emanation centered on you<br>\n    \n    \n    <strong>Duration</strong>&nbsp;concentration + 1 round/level<br>\n      <strong>Saving Throw</strong>&nbsp;Will negates (harmless);&nbsp;\n      <strong>Spell Resistance</strong>&nbsp;no<br>\n  </p>\n  <h2>Description</h2>\n  <p>You amplify the effect of magic associated with your spirit and your wandering spirit (any spells on the spirit magic spell lists for these spirits). When allies within the area cast these spells, they gain a +2 bonus on caster level checks and  concentration checks, as well as to spell DCs. This bonus is a sacred bonus if you are good-aligned or a profane bonus if you are evil-aligned; if you are neither good nor evil, you can choose what type of bonus the spell grants when you cast it.</p>\n</div>\n"
    },
    "tags": [],
    "activation": {
      "type": "standard"
    },
    "unchainedAction": {
      "activation": {
        "cost": 2,
        "type": "action"
      }
    },
    "range": {
      "value": "30",
      "units": "ft"
    },
    "uses": {
      "per": ""
    },
    "measureTemplate": {
      "size": "0"
    },
    "actionType": "spellsave",
    "damage": {
      "parts": [],
      "critParts": [],
      "nonCritParts": []
    },
    "attackParts": [],
    "ability": {
      "attack": "",
      "damage": ""
    },
    "save": {
      "dc": "0",
      "type": "will",
      "description": "Will negates (harmless)"
    },
    "effectNotes": [],
    "attackNotes": [],
    "links": {
      "children": []
    },
    "flags": {
      "boolean": [],
      "dictionary": []
    },
    "scriptCalls": [],
    "learnedAt": {
      "class": [
        [
          "shaman",
          3
        ]
      ],
      "domain": [],
      "subDomain": [],
      "elementalSchool": [],
      "bloodline": []
    },
    "level": 3,
    "school": "con",
    "subschool": "creation",
    "conditionals": [],
    "components": {
      "verbal": true,
      "somatic": true,
      "material": true
    },
    "materials": {
      "value": "gold dust worth 50 gp",
      "gpValue": 50
    },
    "spellbook": "",
    "preparation": {
      "autoDeductCharges": false,
      "spontaneousPrepared": false
    },
    "sr": false,
    "shortDescription": "<p>You amplify the effect of magic associated with your spirit and your wandering spirit (any spells on the spirit magic spell lists for these spirits). When allies within the area cast these spells, they gain a +2 bonus on caster level checks and  concentration checks, as well as to spell DCs. This bonus is a sacred bonus if you are good-aligned or a profane bonus if you are evil-aligned; if you are neither good nor evil, you can choose what type of bonus the spell grants when you cast it.</p>",
    "spellDuration": "concentration + 1 round/level",
    "spellArea": "30-ft.-radius emanation centered on you",
    "spellPoints": {
      "cost": ""
    }
  },
  "effects": [],
  "folder": null,
  "sort": 0,
  "permission": {
    "default": 0
  },
  "flags": {}
}