{
  "_id": "7eca6092yc4d9m4l",
  "name": "Guarding Knowledge",
  "type": "spell",
  "img": "systems/pf1/icons/misc/magic-swirl.png",
  "data": {
    "description": {
      "value": "<div class=\"spell-description\">\n  <p>\n    <strong>School</strong>&nbsp;abjuration;\n    <strong>Level</strong>&nbsp;alchemist 3, bard 3, cleric/oracle 3, inquisitor 2, occultist 3, psychic 3, sorcerer/wizard 3;\n    \n    \n    \n    \n  </p>\n  <p>\n    <strong>Casting Time</strong>&nbsp;1 standard<br>\n    <strong>Components</strong>&nbsp;V, S, M/DF (see text)<br>\n  </p>\n  <p>\n    <strong>Range</strong>&nbsp;personal<br>\n    \n    <strong>Targets</strong>&nbsp;you<br>\n    \n    <strong>Duration</strong>&nbsp;1 minute/level (D)<br>\n  </p>\n  <h2>Description</h2>\n  <p>Upon casting this spell, choose a specific variety of monster (red dragon rather than dragon) and one of its special attacks that you have successfully identified with a Knowledge check or otherwise researched, such as a cockatrice's petrification ability or a spider swarm's poison. You gain a +4 insight bonus on saving throws against the selected special attack. The bonus does not apply to saves against other monsters' abilities of the same name, spell-like abilities, or special attacks derived from class levels or equipment. If you use a trophy from a monster of the exact same variety as an optional material component, the bonus increases to +6.</p>\n</div>\n"
    },
    "tags": [],
    "activation": {
      "type": "standard"
    },
    "unchainedAction": {
      "activation": {
        "cost": 2,
        "type": "action"
      }
    },
    "target": {
      "value": "you"
    },
    "range": {
      "units": "personal"
    },
    "uses": {
      "per": ""
    },
    "measureTemplate": {
      "size": "0"
    },
    "actionType": "",
    "damage": {
      "parts": [],
      "critParts": [],
      "nonCritParts": []
    },
    "attackParts": [],
    "ability": {
      "attack": "",
      "damage": ""
    },
    "save": {
      "dc": "0"
    },
    "effectNotes": [],
    "attackNotes": [],
    "links": {
      "children": []
    },
    "flags": {
      "boolean": [],
      "dictionary": []
    },
    "scriptCalls": [],
    "learnedAt": {
      "class": [
        [
          "sorcerer/wizard",
          3
        ],
        [
          "cleric/oracle",
          3
        ],
        [
          "bard",
          3
        ],
        [
          "alchemist",
          3
        ],
        [
          "inquisitor",
          2
        ],
        [
          "psychic",
          3
        ],
        [
          "occultist",
          3
        ]
      ],
      "domain": [],
      "subDomain": [],
      "elementalSchool": [],
      "bloodline": []
    },
    "level": 3,
    "school": "abj",
    "conditionals": [],
    "components": {
      "verbal": true,
      "somatic": true,
      "material": true,
      "divineFocus": 2
    },
    "materials": {
      "value": "see text"
    },
    "sr": false,
    "shortDescription": "<p>Upon casting this spell, choose a specific variety of monster (red dragon rather than dragon) and one of its special attacks that you have successfully identified with a Knowledge check or otherwise researched, such as a cockatrice's petrification ability or a spider swarm's poison. You gain a +4 insight bonus on saving throws against the selected special attack. The bonus does not apply to saves against other monsters' abilities of the same name, spell-like abilities, or special attacks derived from class levels or equipment. If you use a trophy from a monster of the exact same variety as an optional material component, the bonus increases to +6.</p>",
    "spellDuration": "1 minute/level (D)"
  },
  "effects": [],
  "folder": null,
  "sort": 0,
  "permission": {
    "default": 0
  },
  "flags": {}
}