{
  "_id": "2uwoo18o9yggbwsr",
  "name": "Healing Token",
  "type": "spell",
  "img": "systems/pf1/icons/misc/magic-swirl.png",
  "data": {
    "description": {
      "value": "<div class=\"spell-description\">\n  <p>\n    <strong>School</strong>&nbsp;conjuration&nbsp;(healing);\n    <strong>Level</strong>&nbsp;cleric/oracle 2, druid 2, hunter 2, inquisitor 2, paladin 2, ranger 2, shaman 2;\n    \n    \n    \n    \n  </p>\n  <p>\n    <strong>Casting Time</strong>&nbsp;1 standard<br>\n    <strong>Components</strong>&nbsp;V, S, DF<br>\n  </p>\n  <p>\n    <strong>Range</strong>&nbsp;touch<br>\n    \n    <strong>Targets</strong>&nbsp;one touched holy symbol per 3 caster levels<br>\n    \n    <strong>Duration</strong>&nbsp;10 minutes/level<br>\n      <strong>Saving Throw</strong>&nbsp;Will negates (object);&nbsp;\n      <strong>Spell Resistance</strong>&nbsp;yes<br>\n  </p>\n  <h2>Description</h2>\n  <p>You imbue one touched holy symbol per 3 caster levels with a connection to your own divine power, turning the touched holy symbols into tokens of healing. Each of the targeted holy symbols can represent any deity regardless of the deity's actual alignment.  As long as you wear or carry your divine focus, any creature carrying a token of healing can make a plea for healing in a language you understand as a standard action. When they do this, you are silently alerted to the plea for healing and can magically heal the target as an immediate action anytime before the end of your next turn.  The magical healing you use to do this can be either a supernatural ability that heals damage (if you have uses available) or a spell or spell-like ability that belongs to the healing subschool (if you can cast any). In either case, to use the ability or cast the spell through this spell, you must be able to include or target that creature, and the ability's activation time or spell's casting time must be no longer than one standard action.  If the ability or healing spell you use through a token would affect multiple creatures, such as <i>mass cure light wounds</i>, the ability or spell affects the creature that pleaded for healing as well as any other creatures within the healing spell's normal range that are also holding a holy symbol imbued with this spell.  So, for example, when you use <i>mass cure light wounds</i> through a holy symbol that has been turned into a token of healing, that spell would heal the creature holding the token that pleaded for healing as well as one creature per level that is also holding a token (no two of which can be more than 30 feet apart). However, the <i>mass cure light wounds</i> spell would heal only creatures within range that are holding tokens.</p>\n</div>\n"
    },
    "tags": [],
    "activation": {
      "type": "standard"
    },
    "unchainedAction": {
      "activation": {
        "cost": 2,
        "type": "action"
      }
    },
    "target": {
      "value": "one touched holy symbol per 3 caster levels"
    },
    "range": {
      "units": "touch"
    },
    "uses": {
      "per": ""
    },
    "measureTemplate": {
      "size": "0"
    },
    "actionType": "heal",
    "damage": {
      "parts": [],
      "critParts": [],
      "nonCritParts": []
    },
    "attackParts": [],
    "ability": {
      "attack": "",
      "damage": ""
    },
    "save": {
      "dc": "0",
      "type": "will",
      "description": "Will negates (object)"
    },
    "effectNotes": [],
    "attackNotes": [],
    "links": {
      "children": []
    },
    "flags": {
      "boolean": [],
      "dictionary": []
    },
    "scriptCalls": [],
    "learnedAt": {
      "class": [
        [
          "cleric/oracle",
          2
        ],
        [
          "druid",
          2
        ],
        [
          "ranger",
          2
        ],
        [
          "paladin",
          2
        ],
        [
          "inquisitor",
          2
        ],
        [
          "shaman",
          2
        ],
        [
          "hunter",
          2
        ]
      ],
      "domain": [],
      "subDomain": [],
      "elementalSchool": [],
      "bloodline": []
    },
    "level": 2,
    "school": "con",
    "subschool": "healing",
    "conditionals": [],
    "components": {
      "verbal": true,
      "somatic": true,
      "divineFocus": 1
    },
    "shortDescription": "<p>You imbue one touched holy symbol per 3 caster levels with a connection to your own divine power, turning the touched holy symbols into tokens of healing. Each of the targeted holy symbols can represent any deity regardless of the deity's actual alignment.  As long as you wear or carry your divine focus, any creature carrying a token of healing can make a plea for healing in a language you understand as a standard action. When they do this, you are silently alerted to the plea for healing and can magically heal the target as an immediate action anytime before the end of your next turn.  The magical healing you use to do this can be either a supernatural ability that heals damage (if you have uses available) or a spell or spell-like ability that belongs to the healing subschool (if you can cast any). In either case, to use the ability or cast the spell through this spell, you must be able to include or target that creature, and the ability's activation time or spell's casting time must be no longer than one standard action.  If the ability or healing spell you use through a token would affect multiple creatures, such as <i>mass cure light wounds</i>, the ability or spell affects the creature that pleaded for healing as well as any other creatures within the healing spell's normal range that are also holding a holy symbol imbued with this spell.  So, for example, when you use <i>mass cure light wounds</i> through a holy symbol that has been turned into a token of healing, that spell would heal the creature holding the token that pleaded for healing as well as one creature per level that is also holding a token (no two of which can be more than 30 feet apart). However, the <i>mass cure light wounds</i> spell would heal only creatures within range that are holding tokens.</p>",
    "spellDuration": "10 minutes/level"
  },
  "effects": [],
  "folder": null,
  "sort": 0,
  "permission": {
    "default": 0
  },
  "flags": {}
}