{
  "_id": "y4h6iyzrpwpvz121",
  "name": "Invigorating Poison",
  "type": "spell",
  "img": "systems/pf1/icons/misc/magic-swirl.png",
  "data": {
    "description": {
      "value": "<div class=\"spell-description\">\n  <p>\n    <strong>School</strong>&nbsp;transmutation;\n    <strong>Level</strong>&nbsp;alchemist 2, cleric/oracle 2, druid 2, hunter 2, shaman 2;\n    \n    \n    \n    \n  </p>\n  <p>\n    <strong>Casting Time</strong>&nbsp;1 standard<br>\n    <strong>Components</strong>&nbsp;V, S, M/DF (an apple seed)<br>\n  </p>\n  <p>\n    <strong>Range</strong>&nbsp;touch<br>\n    \n    <strong>Targets</strong>&nbsp;creature touched<br>\n    \n    <strong>Duration</strong>&nbsp;10 minutes/level<br>\n      <strong>Saving Throw</strong>&nbsp;Fortitude negates (harmless);&nbsp;\n      <strong>Spell Resistance</strong>&nbsp;yes<br>\n  </p>\n  <h2>Description</h2>\n  <p>The body of the target creature gains a metabolic response that allows it to benefit from normally deadly toxins. When a poison would cause ability damage to the target creature, the target instead gains a +4 alchemical bonus to that ability score. The spell then immediately ends, but the bonus lasts for a number of minutes equal to the amount of ability damage the poison would have caused. If the poison would deal more than one type of ability damage, each bonus has a separate duration. If the poison has effects other than ability damage (such as unconsciousness or ability drain), these effects apply normally. This spell affects only a single poison; if multiple poisons affect the target simultaneously, this spell prevents only ability damage and grants the appropriate bonuses for the poison that would cause the most damage.</p>\n</div>\n"
    },
    "tags": [],
    "activation": {
      "type": "standard"
    },
    "unchainedAction": {
      "activation": {
        "cost": 2,
        "type": "action"
      }
    },
    "target": {
      "value": "creature touched"
    },
    "range": {
      "units": "touch"
    },
    "uses": {
      "per": ""
    },
    "measureTemplate": {
      "size": "0"
    },
    "actionType": "spellsave",
    "damage": {
      "parts": [],
      "critParts": [],
      "nonCritParts": []
    },
    "attackParts": [],
    "ability": {
      "attack": "",
      "damage": ""
    },
    "save": {
      "dc": "0",
      "type": "fort",
      "description": "Fortitude negates (harmless)"
    },
    "effectNotes": [],
    "attackNotes": [],
    "links": {
      "children": []
    },
    "flags": {
      "boolean": [],
      "dictionary": []
    },
    "scriptCalls": [],
    "learnedAt": {
      "class": [
        [
          "cleric/oracle",
          2
        ],
        [
          "druid",
          2
        ],
        [
          "alchemist",
          2
        ],
        [
          "shaman",
          2
        ],
        [
          "hunter",
          2
        ]
      ],
      "domain": [],
      "subDomain": [],
      "elementalSchool": [],
      "bloodline": []
    },
    "level": 2,
    "school": "trs",
    "conditionals": [],
    "components": {
      "verbal": true,
      "somatic": true,
      "material": true,
      "divineFocus": 2
    },
    "materials": {
      "value": "an apple seed"
    },
    "shortDescription": "<p>The body of the target creature gains a metabolic response that allows it to benefit from normally deadly toxins. When a poison would cause ability damage to the target creature, the target instead gains a +4 alchemical bonus to that ability score. The spell then immediately ends, but the bonus lasts for a number of minutes equal to the amount of ability damage the poison would have caused. If the poison would deal more than one type of ability damage, each bonus has a separate duration. If the poison has effects other than ability damage (such as unconsciousness or ability drain), these effects apply normally. This spell affects only a single poison; if multiple poisons affect the target simultaneously, this spell prevents only ability damage and grants the appropriate bonuses for the poison that would cause the most damage.</p>",
    "spellDuration": "10 minutes/level"
  },
  "effects": [],
  "folder": null,
  "sort": 0,
  "permission": {
    "default": 0
  },
  "flags": {}
}