{
  "_id": "v9kvdbsolwflwkjl",
  "name": "Keyhole",
  "type": "spell",
  "img": "systems/pf1/icons/misc/magic-swirl.png",
  "data": {
    "description": {
      "value": "<div class=\"spell-description\">\n  <p>\n    <strong>School</strong>&nbsp;transmutation;\n    <strong>Level</strong>&nbsp;cleric/oracle 1, sorcerer/wizard 1, witch 1;\n    \n    \n    \n    \n  </p>\n  <p>\n    <strong>Casting Time</strong>&nbsp;1 round<br>\n    <strong>Components</strong>&nbsp;V, DF<br>\n  </p>\n  <p>\n    <strong>Range</strong>&nbsp;touch<br>\n    \n    <strong>Targets</strong>&nbsp;one touched door or portal<br>\n    \n    <strong>Duration</strong>&nbsp;1 minute/level<br>\n      <strong>Saving Throw</strong>&nbsp;special (see text);&nbsp;\n      <strong>Spell Resistance</strong>&nbsp;no<br>\n  </p>\n  <h2>Description</h2>\n  <p>By touching a single door, gate, or other portal, you create a keyhole where none existed before or double the size of an existing keyhole. A conjured keyhole allows you to peer through the door, though the limited perspective imposes a -10 penalty on Perception checks to spot anything beyond. It also allows a sealed door to be locked or picked if it could not be before. Locking or unlocking such a door requires a successful Disable Device check with a DC equal to the barrier's break DC + 10. Enlarging an existing keyhole allows viewers to peer through to whatever lies beyond, even if the preexisting keyhole did not allow it, and it reduces the Disable Device DC to open or lock the door by 5.  This spell does not normally allow a saving throw, but magic doors and barriers can resist the effect with a successful Will saving throw, as if they were carried by their original creator.</p>\n</div>\n"
    },
    "tags": [],
    "activation": {
      "type": "round"
    },
    "unchainedAction": {
      "activation": {
        "cost": 3,
        "type": "action"
      }
    },
    "target": {
      "value": "one touched door or portal"
    },
    "range": {
      "units": "touch"
    },
    "uses": {
      "per": ""
    },
    "measureTemplate": {
      "size": "0"
    },
    "actionType": "spellsave",
    "damage": {
      "parts": [],
      "critParts": [],
      "nonCritParts": []
    },
    "attackParts": [],
    "ability": {
      "attack": "",
      "damage": ""
    },
    "save": {
      "dc": "0",
      "description": "special (see text)"
    },
    "effectNotes": [],
    "attackNotes": [],
    "links": {
      "children": []
    },
    "flags": {
      "boolean": [],
      "dictionary": []
    },
    "scriptCalls": [],
    "learnedAt": {
      "class": [
        [
          "sorcerer/wizard",
          1
        ],
        [
          "cleric/oracle",
          1
        ],
        [
          "witch",
          1
        ]
      ],
      "domain": [],
      "subDomain": [],
      "elementalSchool": [],
      "bloodline": []
    },
    "school": "trs",
    "conditionals": [],
    "components": {
      "verbal": true,
      "divineFocus": 1
    },
    "sr": false,
    "shortDescription": "<p>By touching a single door, gate, or other portal, you create a keyhole where none existed before or double the size of an existing keyhole. A conjured keyhole allows you to peer through the door, though the limited perspective imposes a -10 penalty on Perception checks to spot anything beyond. It also allows a sealed door to be locked or picked if it could not be before. Locking or unlocking such a door requires a successful Disable Device check with a DC equal to the barrier's break DC + 10. Enlarging an existing keyhole allows viewers to peer through to whatever lies beyond, even if the preexisting keyhole did not allow it, and it reduces the Disable Device DC to open or lock the door by 5.  This spell does not normally allow a saving throw, but magic doors and barriers can resist the effect with a successful Will saving throw, as if they were carried by their original creator.</p>",
    "spellDuration": "1 minute/level"
  },
  "effects": [],
  "folder": null,
  "sort": 0,
  "permission": {
    "default": 0
  },
  "flags": {}
}