{
  "_id": "b3slhttlo5jytfti",
  "name": "Ki Leech",
  "type": "spell",
  "img": "systems/pf1/icons/misc/magic-swirl.png",
  "data": {
    "description": {
      "value": "<div class=\"spell-description\">\n  <p>\n    <strong>School</strong>&nbsp;necromancy&nbsp;[evil];\n    <strong>Level</strong>&nbsp;cleric/oracle 3, psychic 3, sorcerer/wizard 3, witch 3;\n    \n    \n    \n    \n  </p>\n  <p>\n    <strong>Casting Time</strong>&nbsp;1 standard<br>\n    <strong>Components</strong>&nbsp;V, S<br>\n  </p>\n  <p>\n    <strong>Range</strong>&nbsp;personal<br>\n    \n    <strong>Targets</strong>&nbsp;you<br>\n    \n    <strong>Duration</strong>&nbsp;1 minute/level (D)<br>\n  </p>\n  <h2>Description</h2>\n  <p>You place your spirit in a receptive state so when you confirm a critical hit against a living enemy or reduce a living enemy to 0 or fewer hit points, you can steal some of that creature's <i>ki</i>. This replenishes 1 point of <i>ki</i> as long as you have at least 1 <i>ki</i> point in your <i>ki</i> pool. This does not allow you to exceed your <i>ki</i> pool's maximum. This ability does not stack with similar abilities (such as the steal <i>ki</i> ability of the hungry ghost monk in the Advanced Player's Guide).</p><p>This spell has no effect if you do not have a <i>ki</i> pool.</p>\n</div>\n"
    },
    "tags": [],
    "activation": {
      "type": "standard"
    },
    "unchainedAction": {
      "activation": {
        "cost": 2,
        "type": "action"
      }
    },
    "target": {
      "value": "you"
    },
    "range": {
      "units": "personal"
    },
    "uses": {
      "per": ""
    },
    "measureTemplate": {
      "size": "0"
    },
    "actionType": "",
    "damage": {
      "parts": [],
      "critParts": [],
      "nonCritParts": []
    },
    "attackParts": [],
    "ability": {
      "attack": "",
      "damage": ""
    },
    "save": {
      "dc": "0"
    },
    "effectNotes": [],
    "attackNotes": [],
    "links": {
      "children": []
    },
    "flags": {
      "boolean": [],
      "dictionary": []
    },
    "scriptCalls": [],
    "learnedAt": {
      "class": [
        [
          "sorcerer/wizard",
          3
        ],
        [
          "cleric/oracle",
          3
        ],
        [
          "witch",
          3
        ],
        [
          "psychic",
          3
        ]
      ],
      "domain": [],
      "subDomain": [],
      "elementalSchool": [],
      "bloodline": []
    },
    "level": 3,
    "school": "nec",
    "types": "evil",
    "conditionals": [],
    "components": {
      "verbal": true,
      "somatic": true
    },
    "sr": false,
    "shortDescription": "<p>You place your spirit in a receptive state so when you confirm a critical hit against a living enemy or reduce a living enemy to 0 or fewer hit points, you can steal some of that creature's <i>ki</i>. This replenishes 1 point of <i>ki</i> as long as you have at least 1 <i>ki</i> point in your <i>ki</i> pool. This does not allow you to exceed your <i>ki</i> pool's maximum. This ability does not stack with similar abilities (such as the steal <i>ki</i> ability of the hungry ghost monk in the Advanced Player's Guide).</p><p>This spell has no effect if you do not have a <i>ki</i> pool.</p>",
    "spellDuration": "1 minute/level (D)"
  },
  "effects": [],
  "folder": null,
  "sort": 0,
  "permission": {
    "default": 0
  },
  "flags": {}
}