{
  "_id": "2o9tacbz7tbrlhvv",
  "name": "Knock",
  "type": "spell",
  "img": "systems/pf1/icons/misc/magic-swirl.png",
  "data": {
    "description": {
      "value": "<div class=\"spell-description\">\n  <p>\n    <strong>School</strong>&nbsp;transmutation;\n    <strong>Level</strong>&nbsp;inquisitor 2, medium 2, mesmerist 2, occultist 2, psychic 2, sorcerer/wizard 2;\n    \n    \n    \n    \n  </p>\n  <p>\n    <strong>Casting Time</strong>&nbsp;1 standard<br>\n    <strong>Components</strong>&nbsp;V<br>\n  </p>\n  <p>\n    <strong>Range</strong>&nbsp;medium (100 ft. + 10 ft./level)<br>\n    \n    <strong>Targets</strong>&nbsp;one door, box, or chest with an area of up to 10 sq. ft./level<br>\n    \n    <strong>Duration</strong>&nbsp;instantaneous; see text<br>\n      <strong>Saving Throw</strong>&nbsp;none;&nbsp;\n      <strong>Spell Resistance</strong>&nbsp;no<br>\n  </p>\n  <h2>Description</h2>\n  <p><i>Knock</i> opens stuck, barred, or locked doors, as well as those subject to <i>hold portal or <i>arcane lock</i></i>. When you complete the casting of this spell, make a caster level check against the DC of the lock with a +10 bonus. If successful, <i>knock</i> opens up to two means of closure. This spell opens secret doors, as well as locked or trick-opening boxes or chests. It also loosens welds, shackles, or chains (provided they serve to hold something shut). If used to open an <i><i>arcane lock</i>ed</i> door, the spell does not remove the <i>arcane lock</i> but simply suspends its functioning for 10 minutes.</p><p>In all other cases, the door does not relock itself or become stuck again on its own. <i>Knock</i> does not raise barred gates or similar impediments (such as a portcullis), nor does it affect ropes, vines, and the like. The effect is limited by the area. Each casting can undo as many as two means of preventing access.</p>\n</div>\n"
    },
    "tags": [],
    "activation": {
      "type": "standard"
    },
    "unchainedAction": {
      "activation": {
        "cost": 2,
        "type": "action"
      }
    },
    "target": {
      "value": "one door, box, or chest with an area of up to 10 sq. ft./level"
    },
    "range": {
      "units": "medium"
    },
    "uses": {
      "per": ""
    },
    "measureTemplate": {
      "size": "0"
    },
    "actionType": "",
    "damage": {
      "parts": [],
      "critParts": [],
      "nonCritParts": []
    },
    "attackParts": [],
    "ability": {
      "attack": "",
      "damage": ""
    },
    "save": {
      "dc": "0"
    },
    "effectNotes": [],
    "attackNotes": [],
    "links": {
      "children": []
    },
    "flags": {
      "boolean": [],
      "dictionary": []
    },
    "scriptCalls": [],
    "learnedAt": {
      "class": [
        [
          "sorcerer/wizard",
          2
        ],
        [
          "inquisitor",
          2
        ],
        [
          "psychic",
          2
        ],
        [
          "medium",
          2
        ],
        [
          "mesmerist",
          2
        ],
        [
          "occultist",
          2
        ]
      ],
      "domain": [],
      "subDomain": [],
      "elementalSchool": [],
      "bloodline": []
    },
    "level": 2,
    "school": "trs",
    "conditionals": [],
    "components": {
      "verbal": true
    },
    "sr": false,
    "shortDescription": "<p><i>Knock</i> opens stuck, barred, or locked doors, as well as those subject to <i>hold portal or <i>arcane lock</i></i>. When you complete the casting of this spell, make a caster level check against the DC of the lock with a +10 bonus. If successful, <i>knock</i> opens up to two means of closure. This spell opens secret doors, as well as locked or trick-opening boxes or chests. It also loosens welds, shackles, or chains (provided they serve to hold something shut). If used to open an <i><i>arcane lock</i>ed</i> door, the spell does not remove the <i>arcane lock</i> but simply suspends its functioning for 10 minutes.</p><p>In all other cases, the door does not relock itself or become stuck again on its own. <i>Knock</i> does not raise barred gates or similar impediments (such as a portcullis), nor does it affect ropes, vines, and the like. The effect is limited by the area. Each casting can undo as many as two means of preventing access.</p>",
    "spellDuration": "instantaneous; see text"
  },
  "effects": [],
  "folder": null,
  "sort": 0,
  "permission": {
    "default": 0
  },
  "flags": {}
}