{
  "_id": "zqde5f3fxhad7ub4",
  "name": "Lightning Lash",
  "type": "spell",
  "img": "systems/pf1/icons/misc/magic-swirl.png",
  "data": {
    "description": {
      "value": "<div class=\"spell-description\">\n  <p>\n    <strong>School</strong>&nbsp;evocation&nbsp;[electricity];\n    <strong>Level</strong>&nbsp;cleric/oracle 3, hunter 2, inquisitor 3, ranger 2, witch 3;\n    \n    \n    \n    \n  </p>\n  <p>\n    <strong>Casting Time</strong>&nbsp;1 standard<br>\n    <strong>Components</strong>&nbsp;V, S<br>\n  </p>\n  <p>\n    <strong>Range</strong>&nbsp;personal<br>\n    <strong>Area</strong>&nbsp;20-foot-radius spread<br>\n    \n    \n    <strong>Duration</strong>&nbsp;1 round/level (D)<br>\n  </p>\n  <h2>Description</h2>\n  <p>You create a crackling lash of unholy lightning that flickers and flashes in your hand like a whip, shifting color in response to your mood and will. Once per round, you can make a melee touch attack with the <i>lightning lash</i> against a target within 15 feet. If the attack is successful, it deals 1d6 points of electricity damage and 1d6 points of damage from divine power (similar to <i>flame</i> strike), and allows you to attempt a trip combat maneuver check as a free action against your target (using your caster level as your CMB).</p>\n</div>\n"
    },
    "tags": [],
    "activation": {
      "type": "standard"
    },
    "unchainedAction": {
      "activation": {
        "cost": 2,
        "type": "action"
      }
    },
    "range": {
      "units": "personal"
    },
    "uses": {
      "per": ""
    },
    "measureTemplate": {
      "size": "0"
    },
    "actionType": "spellsave",
    "damage": {
      "parts": [],
      "critParts": [],
      "nonCritParts": []
    },
    "attackParts": [],
    "ability": {
      "attack": "",
      "damage": ""
    },
    "save": {
      "dc": "0",
      "type": "fort",
      "description": "Fortitude negates (harmless)"
    },
    "effectNotes": [],
    "attackNotes": [],
    "links": {
      "children": []
    },
    "flags": {
      "boolean": [],
      "dictionary": []
    },
    "scriptCalls": [],
    "learnedAt": {
      "class": [
        [
          "cleric/oracle",
          3
        ],
        [
          "ranger",
          2
        ],
        [
          "witch",
          3
        ],
        [
          "inquisitor",
          3
        ],
        [
          "hunter",
          2
        ]
      ],
      "domain": [],
      "subDomain": [],
      "elementalSchool": [],
      "bloodline": []
    },
    "level": 3,
    "school": "evo",
    "types": "electricity",
    "conditionals": [],
    "components": {
      "verbal": true,
      "somatic": true
    },
    "shortDescription": "<p>You create a crackling lash of unholy lightning that flickers and flashes in your hand like a whip, shifting color in response to your mood and will. Once per round, you can make a melee touch attack with the <i>lightning lash</i> against a target within 15 feet. If the attack is successful, it deals 1d6 points of electricity damage and 1d6 points of damage from divine power (similar to <i>flame</i> strike), and allows you to attempt a trip combat maneuver check as a free action against your target (using your caster level as your CMB).</p>",
    "spellDuration": "1 round/level (D)",
    "spellArea": "20-foot-radius spread"
  },
  "effects": [],
  "folder": null,
  "sort": 0,
  "permission": {
    "default": 0
  },
  "flags": {}
}