{
  "_id": "tiibhd5q6k3q7vzm",
  "name": "Mark of Blood",
  "type": "spell",
  "img": "systems/pf1/icons/misc/magic-swirl.png",
  "data": {
    "description": {
      "value": "<div class=\"spell-description\">\n  <p>\n    <strong>School</strong>&nbsp;transmutation&nbsp;[curse];\n    <strong>Level</strong>&nbsp;bloodrager 2, inquisitor 2, sorcerer/wizard 2, witch 2;\n    \n    \n    \n    \n  </p>\n  <p>\n    <strong>Casting Time</strong>&nbsp;1 standard<br>\n    <strong>Components</strong>&nbsp;V, S, M (a drop of your blood)<br>\n  </p>\n  <p>\n    <strong>Range</strong>&nbsp;touch<br>\n    \n    <strong>Targets</strong>&nbsp;one weapon touched<br>\n    \n    <strong>Duration</strong>&nbsp;1 minute and permanent (see text)<br>\n      <strong>Saving Throw</strong>&nbsp;Will negates;&nbsp;\n      <strong>Spell Resistance</strong>&nbsp;yes<br>\n  </p>\n  <h2>Description</h2>\n  <p>You place a drop of your blood on a weapon and charge it with magic so that you transfer a small amount of your life essence to the next living creature you strike with the weapon. Thereafter, you can spend a move action to know the direction and general distance of that creature. The target can negate this effect with a successful Will save. You must strike a creature within 1 minute of casting this spell or the magic is wasted, but once the Mark of Blood takes effect it is permanent until dispelled or removed via an effect like <i>remove curse</i>.</p>\n</div>\n"
    },
    "tags": [],
    "activation": {
      "type": "standard"
    },
    "unchainedAction": {
      "activation": {
        "cost": 2,
        "type": "action"
      }
    },
    "target": {
      "value": "one weapon touched"
    },
    "range": {
      "units": "touch"
    },
    "uses": {
      "per": ""
    },
    "measureTemplate": {
      "size": "0"
    },
    "actionType": "spellsave",
    "damage": {
      "parts": [],
      "critParts": [],
      "nonCritParts": []
    },
    "attackParts": [],
    "ability": {
      "attack": "",
      "damage": ""
    },
    "save": {
      "dc": "0",
      "type": "will",
      "description": "Will negates"
    },
    "effectNotes": [],
    "attackNotes": [],
    "links": {
      "children": []
    },
    "flags": {
      "boolean": [],
      "dictionary": []
    },
    "scriptCalls": [],
    "learnedAt": {
      "class": [
        [
          "sorcerer/wizard",
          2
        ],
        [
          "witch",
          2
        ],
        [
          "inquisitor",
          2
        ],
        [
          "bloodrager",
          2
        ]
      ],
      "domain": [],
      "subDomain": [],
      "elementalSchool": [],
      "bloodline": []
    },
    "level": 2,
    "school": "trs",
    "types": "curse",
    "conditionals": [],
    "components": {
      "verbal": true,
      "somatic": true,
      "material": true
    },
    "materials": {
      "value": "a drop of your blood"
    },
    "shortDescription": "<p>You place a drop of your blood on a weapon and charge it with magic so that you transfer a small amount of your life essence to the next living creature you strike with the weapon. Thereafter, you can spend a move action to know the direction and general distance of that creature. The target can negate this effect with a successful Will save. You must strike a creature within 1 minute of casting this spell or the magic is wasted, but once the Mark of Blood takes effect it is permanent until dispelled or removed via an effect like <i>remove curse</i>.</p>",
    "spellDuration": "1 minute and permanent (see text)"
  },
  "effects": [],
  "folder": null,
  "sort": 0,
  "permission": {
    "default": 0
  },
  "flags": {}
}