{
  "_id": "5bhg2kgip9fwnlem",
  "name": "Mirror Transport",
  "type": "spell",
  "img": "systems/pf1/icons/misc/magic-swirl.png",
  "data": {
    "description": {
      "value": "<div class=\"spell-description\">\n  <p>\n    <strong>School</strong>&nbsp;transmutation;\n    <strong>Level</strong>&nbsp;occultist 4, psychic 4, sorcerer/wizard 4, spiritualist 4, witch 4;\n    \n    \n    \n    \n  </p>\n  <p>\n    <strong>Casting Time</strong>&nbsp;1 standard<br>\n    <strong>Components</strong>&nbsp;V, S, M (a glass or metal marble and a twisted loop of parchment)<br>\n  </p>\n  <p>\n    <strong>Range</strong>&nbsp;touch<br>\n    \n    <strong>Targets</strong>&nbsp;one mirror<br>\n    \n    <strong>Duration</strong>&nbsp;1 hour/level (D)<br>\n      <strong>Saving Throw</strong>&nbsp;yes (object);&nbsp;\n      <strong>Spell Resistance</strong>&nbsp;yes<br>\n  </p>\n  <h2>Description</h2>\n  <p>This spell functions as <i>mirror hideaway</i>, except any creature that enters the target mirror can spend a swift action to exit through another mirror within 500 feet as if using <i>dimension door</i>; this is a one-way transport. The creature can exit through a mirror only if it could fit through an opening the same size as the mirror. Each transport through the target mirror reduces the spell's duration by 1 hour.</p>\n</div>\n"
    },
    "tags": [],
    "activation": {
      "type": "standard"
    },
    "unchainedAction": {
      "activation": {
        "cost": 2,
        "type": "action"
      }
    },
    "target": {
      "value": "one mirror"
    },
    "range": {
      "units": "touch"
    },
    "uses": {
      "per": ""
    },
    "measureTemplate": {
      "size": "0"
    },
    "actionType": "spellsave",
    "damage": {
      "parts": [],
      "critParts": [],
      "nonCritParts": []
    },
    "attackParts": [],
    "ability": {
      "attack": "",
      "damage": ""
    },
    "save": {
      "dc": "0",
      "description": "yes (object)"
    },
    "effectNotes": [],
    "attackNotes": [],
    "links": {
      "children": []
    },
    "flags": {
      "boolean": [],
      "dictionary": []
    },
    "scriptCalls": [],
    "learnedAt": {
      "class": [
        [
          "sorcerer/wizard",
          4
        ],
        [
          "witch",
          4
        ],
        [
          "psychic",
          4
        ],
        [
          "occultist",
          4
        ],
        [
          "spiritualist",
          4
        ]
      ],
      "domain": [],
      "subDomain": [],
      "elementalSchool": [],
      "bloodline": []
    },
    "level": 4,
    "school": "trs",
    "conditionals": [],
    "components": {
      "verbal": true,
      "somatic": true,
      "material": true
    },
    "materials": {
      "value": "a glass or metal marble and a twisted loop of parchment"
    },
    "shortDescription": "<p>This spell functions as <i>mirror hideaway</i>, except any creature that enters the target mirror can spend a swift action to exit through another mirror within 500 feet as if using <i>dimension door</i>; this is a one-way transport. The creature can exit through a mirror only if it could fit through an opening the same size as the mirror. Each transport through the target mirror reduces the spell's duration by 1 hour.</p>",
    "spellDuration": "1 hour/level (D)"
  },
  "effects": [],
  "folder": null,
  "sort": 0,
  "permission": {
    "default": 0
  },
  "flags": {}
}