{
  "_id": "ch6iof333ghti2tj",
  "name": "Negate Aroma",
  "type": "spell",
  "img": "systems/pf1/icons/misc/magic-swirl.png",
  "data": {
    "description": {
      "value": "<div class=\"spell-description\">\n  <p>\n    <strong>School</strong>&nbsp;transmutation;\n    <strong>Level</strong>&nbsp;alchemist 1, druid 1, hunter 1, occultist 1, ranger 1;\n    \n    \n    \n    \n  </p>\n  <p>\n    <strong>Casting Time</strong>&nbsp;1 standard<br>\n    <strong>Components</strong>&nbsp;V, S, M/DF (a pinch of alum)<br>\n  </p>\n  <p>\n    <strong>Range</strong>&nbsp;close (25 ft. + 5 ft./2 levels)<br>\n    \n    <strong>Targets</strong>&nbsp;one creature or object/level touched<br>\n    \n    <strong>Duration</strong>&nbsp;1 hour/level (D)<br>\n      <strong>Saving Throw</strong>&nbsp;Fortitude negates;&nbsp;\n      <strong>Spell Resistance</strong>&nbsp;yes<br>\n  </p>\n  <h2>Description</h2>\n  <p>With a gesture, this spell allows you to dismiss even the foulest or most distinctive scents. When cast, the targeted creatures or objects lose all natural and unnatural odors. A creature under the effect of <i>negate aroma</i> cannot be tracked, located, or pinpointed by the scent special quality. In addition, this spell prevents the target creature from using the stench special ability and similar odor-based abilities (such as those possessed by troglodytes).</p><p><i>Negate aroma</i> does not prevent the target from acquiring outside smells or odors. Dowsing the creature with a pungent substance effectively negates the benefits of the spell until the substance is neutralized or washed away.</p>\n</div>\n"
    },
    "tags": [],
    "activation": {
      "type": "standard"
    },
    "unchainedAction": {
      "activation": {
        "cost": 2,
        "type": "action"
      }
    },
    "target": {
      "value": "one creature or object/level touched"
    },
    "range": {
      "units": "close"
    },
    "uses": {
      "per": ""
    },
    "measureTemplate": {
      "size": "0"
    },
    "actionType": "spellsave",
    "damage": {
      "parts": [],
      "critParts": [],
      "nonCritParts": []
    },
    "attackParts": [],
    "ability": {
      "attack": "",
      "damage": ""
    },
    "save": {
      "dc": "0",
      "type": "fort",
      "description": "Fortitude negates"
    },
    "effectNotes": [],
    "attackNotes": [],
    "links": {
      "children": []
    },
    "flags": {
      "boolean": [],
      "dictionary": []
    },
    "scriptCalls": [],
    "learnedAt": {
      "class": [
        [
          "druid",
          1
        ],
        [
          "ranger",
          1
        ],
        [
          "alchemist",
          1
        ],
        [
          "occultist",
          1
        ],
        [
          "hunter",
          1
        ]
      ],
      "domain": [],
      "subDomain": [],
      "elementalSchool": [],
      "bloodline": []
    },
    "school": "trs",
    "conditionals": [],
    "components": {
      "verbal": true,
      "somatic": true,
      "material": true,
      "divineFocus": 2
    },
    "materials": {
      "value": "a pinch of alum"
    },
    "shortDescription": "<p>With a gesture, this spell allows you to dismiss even the foulest or most distinctive scents. When cast, the targeted creatures or objects lose all natural and unnatural odors. A creature under the effect of <i>negate aroma</i> cannot be tracked, located, or pinpointed by the scent special quality. In addition, this spell prevents the target creature from using the stench special ability and similar odor-based abilities (such as those possessed by troglodytes).</p><p><i>Negate aroma</i> does not prevent the target from acquiring outside smells or odors. Dowsing the creature with a pungent substance effectively negates the benefits of the spell until the substance is neutralized or washed away.</p>",
    "spellDuration": "1 hour/level (D)"
  },
  "effects": [],
  "folder": null,
  "sort": 0,
  "permission": {
    "default": 0
  },
  "flags": {}
}