{
  "_id": "7gfuexp9mi45zkut",
  "name": "Ooze Form III",
  "type": "spell",
  "img": "systems/pf1/icons/misc/magic-swirl.png",
  "data": {
    "description": {
      "value": "<div class=\"spell-description\">\n  <p>\n    <strong>School</strong>&nbsp;transmutation&nbsp;(polymorph);\n    <strong>Level</strong>&nbsp;sorcerer/wizard 7;\n    \n    \n    \n    \n  </p>\n  <p>\n    <strong>Casting Time</strong>&nbsp;1 standard<br>\n    <strong>Components</strong>&nbsp;V, S, M (a bit of the creature whose form you plan to assume)<br>\n  </p>\n  <p>\n    <strong>Range</strong>&nbsp;personal<br>\n    \n    <strong>Targets</strong>&nbsp;you<br>\n    \n    <strong>Duration</strong>&nbsp;1 minute/level (D)<br>\n  </p>\n  <h2>Description</h2>\n  <p>This spell functions as <i>ooze form II</i> except you can also assume the form of a Huge ooze. You gain blindsight 60 feet and a +8 resistance bonus on saving throws against mind-affecting effects and poison as well.</p><p><b>Huge Ooze</b>: If you assume this form, you gain a +4 size bonus to your Strength, a +10 size bonus to your Constitution score, a -10 penalty to your Dexterity score, base speed 20 feet, climb speed 20 feet, swim speed 30 feet, a slam attack (2d6 plus 2d6 acid and grab), and constrict (2d6).</p>\n</div>\n"
    },
    "tags": [],
    "activation": {
      "type": "standard"
    },
    "unchainedAction": {
      "activation": {
        "cost": 2,
        "type": "action"
      }
    },
    "target": {
      "value": "you"
    },
    "range": {
      "units": "personal"
    },
    "uses": {
      "per": ""
    },
    "measureTemplate": {
      "size": "0"
    },
    "actionType": "",
    "damage": {
      "parts": [],
      "critParts": [],
      "nonCritParts": []
    },
    "attackParts": [],
    "ability": {
      "attack": "",
      "damage": ""
    },
    "save": {
      "dc": "0"
    },
    "effectNotes": [],
    "attackNotes": [],
    "links": {
      "children": []
    },
    "flags": {
      "boolean": [],
      "dictionary": []
    },
    "scriptCalls": [],
    "learnedAt": {
      "class": [
        [
          "sorcerer/wizard",
          7
        ]
      ],
      "domain": [],
      "subDomain": [],
      "elementalSchool": [],
      "bloodline": []
    },
    "level": 7,
    "school": "trs",
    "subschool": "polymorph",
    "conditionals": [],
    "components": {
      "verbal": true,
      "somatic": true,
      "material": true
    },
    "materials": {
      "value": "a bit of the creature whose form you plan to assume"
    },
    "sr": false,
    "shortDescription": "<p>This spell functions as <i>ooze form II</i> except you can also assume the form of a Huge ooze. You gain blindsight 60 feet and a +8 resistance bonus on saving throws against mind-affecting effects and poison as well.</p><p><b>Huge Ooze</b>: If you assume this form, you gain a +4 size bonus to your Strength, a +10 size bonus to your Constitution score, a -10 penalty to your Dexterity score, base speed 20 feet, climb speed 20 feet, swim speed 30 feet, a slam attack (2d6 plus 2d6 acid and grab), and constrict (2d6).</p>",
    "spellDuration": "1 minute/level (D)"
  },
  "effects": [],
  "folder": null,
  "sort": 0,
  "permission": {
    "default": 0
  },
  "flags": {}
}