{
  "_id": "7dj9chib3qeyimdy",
  "name": "Overwhelming Poison",
  "type": "spell",
  "img": "systems/pf1/icons/misc/magic-swirl.png",
  "data": {
    "description": {
      "value": "<div class=\"spell-description\">\n  <p>\n    <strong>School</strong>&nbsp;necromancy&nbsp;[poison];\n    <strong>Level</strong>&nbsp;antipaladin 4, cleric/oracle 6, druid 6, hunter 4, ranger 4, shaman 6, witch 6;\n    \n    \n    \n    \n  </p>\n  <p>\n    <strong>Casting Time</strong>&nbsp;1 standard<br>\n    <strong>Components</strong>&nbsp;V, S, M (an adder&#x27;s fang)<br>\n  </p>\n  <p>\n    <strong>Range</strong>&nbsp;close (25 ft. + 5 ft./2 levels)<br>\n    \n    <strong>Targets</strong>&nbsp;one creature or one dose of poison; see text<br>\n    \n    <strong>Duration</strong>&nbsp;10 minutes/level<br>\n      <strong>Saving Throw</strong>&nbsp;none;&nbsp;\n      <strong>Spell Resistance</strong>&nbsp;no<br>\n  </p>\n  <h2>Description</h2>\n  <p>This spell increases the virulence of the targeted dose of poison, making the poison more difficult to resist. The poison is unaffected by <i>delay poison</i>, and the DC to remove it with <i>neutralize poison</i> is increased by 5. Additionally, the poison uses its own saving throw DC or <i>overwhelming</i> poison's DC, whichever is higher.  If cast on a creature that is currently suffering from exposure to one or more doses of poison, the spell applies to one of the doses of your choice, or a random dose of poison affecting the target if you don't know what poisons are afflicting the target. If cast on a creature that is venomous, this spell affects the first dose of poison that creature delivers before the end of the spell's duration.</p>\n</div>\n"
    },
    "tags": [],
    "activation": {
      "type": "standard"
    },
    "unchainedAction": {
      "activation": {
        "cost": 2,
        "type": "action"
      }
    },
    "target": {
      "value": "one creature or one dose of poison; see text"
    },
    "range": {
      "units": "close"
    },
    "uses": {
      "per": ""
    },
    "measureTemplate": {
      "size": "0"
    },
    "actionType": "",
    "damage": {
      "parts": [],
      "critParts": [],
      "nonCritParts": []
    },
    "attackParts": [],
    "ability": {
      "attack": "",
      "damage": ""
    },
    "save": {
      "dc": "0"
    },
    "effectNotes": [],
    "attackNotes": [],
    "links": {
      "children": []
    },
    "flags": {
      "boolean": [],
      "dictionary": []
    },
    "scriptCalls": [],
    "learnedAt": {
      "class": [
        [
          "cleric/oracle",
          6
        ],
        [
          "druid",
          6
        ],
        [
          "ranger",
          4
        ],
        [
          "witch",
          6
        ],
        [
          "antipaladin",
          4
        ],
        [
          "shaman",
          6
        ],
        [
          "hunter",
          4
        ]
      ],
      "domain": [],
      "subDomain": [],
      "elementalSchool": [],
      "bloodline": []
    },
    "level": 6,
    "school": "nec",
    "types": "poison",
    "conditionals": [],
    "components": {
      "verbal": true,
      "somatic": true,
      "material": true
    },
    "materials": {
      "value": "an adder's fang"
    },
    "sr": false,
    "shortDescription": "<p>This spell increases the virulence of the targeted dose of poison, making the poison more difficult to resist. The poison is unaffected by <i>delay poison</i>, and the DC to remove it with <i>neutralize poison</i> is increased by 5. Additionally, the poison uses its own saving throw DC or <i>overwhelming</i> poison's DC, whichever is higher.  If cast on a creature that is currently suffering from exposure to one or more doses of poison, the spell applies to one of the doses of your choice, or a random dose of poison affecting the target if you don't know what poisons are afflicting the target. If cast on a creature that is venomous, this spell affects the first dose of poison that creature delivers before the end of the spell's duration.</p>",
    "spellDuration": "10 minutes/level"
  },
  "effects": [],
  "folder": null,
  "sort": 0,
  "permission": {
    "default": 0
  },
  "flags": {}
}