{
  "_id": "nckt6q58mhaav0uf",
  "name": "Phantom Steed, Communal",
  "type": "spell",
  "img": "systems/pf1/icons/misc/magic-swirl.png",
  "data": {
    "description": {
      "value": "<div class=\"spell-description\">\n  <p>\n    <strong>School</strong>&nbsp;conjuration&nbsp;(creation);\n    <strong>Level</strong>&nbsp;bard 4, occultist 4, sorcerer/wizard 4, spiritualist 4, summoner 3, unchained Summoner 3;\n    \n    \n    \n    \n  </p>\n  <p>\n    <strong>Casting Time</strong>&nbsp;10 minutes<br>\n    <strong>Components</strong>&nbsp;V, S<br>\n  </p>\n  <p>\n    <strong>Range</strong>&nbsp;close (25 ft. + 5 ft./2 levels)<br>\n    \n    \n    <strong>Effect</strong>&nbsp;up to six quasi-real, horselike creatures<br>\n    <strong>Duration</strong>&nbsp;1 hour/level (D)<br>\n      <strong>Saving Throw</strong>&nbsp;none;&nbsp;\n      <strong>Spell Resistance</strong>&nbsp;no<br>\n  </p>\n  <h2>Description</h2>\n  <p>This spell functions like <i>phantom steed</i>, except you can summon up to six steeds, and you divide the duration in 1-hour intervals among the steeds summoned.</p>\n</div>\n"
    },
    "tags": [],
    "activation": {
      "cost": 10,
      "type": "minute"
    },
    "unchainedAction": {
      "activation": {
        "cost": 10,
        "type": "minute"
      }
    },
    "range": {
      "units": "close"
    },
    "uses": {
      "per": ""
    },
    "measureTemplate": {
      "size": "0"
    },
    "actionType": "other",
    "damage": {
      "parts": [],
      "critParts": [],
      "nonCritParts": []
    },
    "attackParts": [],
    "ability": {
      "attack": "",
      "damage": ""
    },
    "save": {
      "dc": "0"
    },
    "effectNotes": [],
    "attackNotes": [],
    "links": {
      "children": []
    },
    "flags": {
      "boolean": [],
      "dictionary": []
    },
    "scriptCalls": [],
    "learnedAt": {
      "class": [
        [
          "sorcerer/wizard",
          4
        ],
        [
          "bard",
          4
        ],
        [
          "summoner",
          3
        ],
        [
          "occultist",
          4
        ],
        [
          "spiritualist",
          4
        ],
        [
          "unchained Summoner",
          3
        ]
      ],
      "domain": [],
      "subDomain": [],
      "elementalSchool": [],
      "bloodline": []
    },
    "level": 4,
    "school": "con",
    "subschool": "creation",
    "conditionals": [],
    "components": {
      "verbal": true,
      "somatic": true
    },
    "sr": false,
    "shortDescription": "<p>This spell functions like <i>phantom steed</i>, except you can summon up to six steeds, and you divide the duration in 1-hour intervals among the steeds summoned.</p>",
    "spellDuration": "1 hour/level (D)",
    "spellEffect": "up to six quasi-real, horselike creatures"
  },
  "effects": [],
  "folder": null,
  "sort": 0,
  "permission": {
    "default": 0
  },
  "flags": {}
}