{
  "_id": "hu8179fdqfkl0bqj",
  "name": "Prayer",
  "type": "spell",
  "img": "systems/pf1/icons/misc/magic-swirl.png",
  "data": {
    "description": {
      "value": "<div class=\"spell-description\">\n  <p>\n    <strong>School</strong>&nbsp;enchantment&nbsp;(compulsion)&nbsp;[mind-affecting];\n    <strong>Level</strong>&nbsp;cleric/oracle 3, inquisitor 3, paladin 3;\n    <strong>Domain</strong>&nbsp;Community 3;\n    <strong>Subdomain</strong>&nbsp;Archon 3, Leadership 3;\n    \n    \n  </p>\n  <p>\n    <strong>Casting Time</strong>&nbsp;1 standard<br>\n    <strong>Components</strong>&nbsp;V, S, DF<br>\n  </p>\n  <p>\n    <strong>Range</strong>&nbsp;40 feet<br>\n    <strong>Area</strong>&nbsp;all allies and foes within a 40-ft.-radius burst centered on you<br>\n    \n    \n    <strong>Duration</strong>&nbsp;1 round/level<br>\n      <strong>Saving Throw</strong>&nbsp;none;&nbsp;\n      <strong>Spell Resistance</strong>&nbsp;yes<br>\n  </p>\n  <h2>Description</h2>\n  <p>You bring special favor upon yourself and your allies while bringing disfavor to your enemies. You and each of your allies gain a +1 luck bonus on attack rolls, weapon damage rolls, saves, and skill checks, while each of your foes takes a -1 penalty on such rolls.</p>\n</div>\n"
    },
    "tags": [],
    "activation": {
      "type": "standard"
    },
    "unchainedAction": {
      "activation": {
        "cost": 2,
        "type": "action"
      }
    },
    "range": {
      "value": "40",
      "units": "ft"
    },
    "uses": {
      "per": ""
    },
    "measureTemplate": {
      "type": "circle",
      "size": "40"
    },
    "actionType": "",
    "damage": {
      "parts": [],
      "critParts": [],
      "nonCritParts": []
    },
    "attackParts": [],
    "ability": {
      "attack": "",
      "damage": ""
    },
    "save": {
      "dc": "0"
    },
    "effectNotes": [],
    "attackNotes": [],
    "links": {
      "children": []
    },
    "flags": {
      "boolean": [],
      "dictionary": []
    },
    "scriptCalls": [],
    "learnedAt": {
      "class": [
        [
          "cleric/oracle",
          3
        ],
        [
          "paladin",
          3
        ],
        [
          "inquisitor",
          3
        ]
      ],
      "domain": [
        [
          "Community",
          3
        ]
      ],
      "subDomain": [
        [
          "Archon",
          3
        ],
        [
          "Leadership",
          3
        ]
      ],
      "elementalSchool": [],
      "bloodline": []
    },
    "level": 3,
    "school": "enc",
    "subschool": "compulsion",
    "types": "mind-affecting",
    "conditionals": [],
    "components": {
      "verbal": true,
      "somatic": true,
      "divineFocus": 1
    },
    "shortDescription": "<p>You bring special favor upon yourself and your allies while bringing disfavor to your enemies. You and each of your allies gain a +1 luck bonus on attack rolls, weapon damage rolls, saves, and skill checks, while each of your foes takes a -1 penalty on such rolls.</p>",
    "spellDuration": "1 round/level",
    "spellArea": "all allies and foes within a 40-ft.-radius burst centered on you"
  },
  "effects": [],
  "folder": null,
  "sort": 0,
  "permission": {
    "default": 0
  },
  "flags": {}
}