{
  "_id": "hs8rdv5g0dr92bv0",
  "name": "Preserve Grace",
  "type": "spell",
  "img": "systems/pf1/icons/misc/magic-swirl.png",
  "data": {
    "description": {
      "value": "<div class=\"spell-description\">\n  <p>\n    <strong>School</strong>&nbsp;divination&nbsp;[good];\n    <strong>Level</strong>&nbsp;cleric/oracle 2, inquisitor 1, paladin 1;\n    \n    \n    \n    \n  </p>\n  <p>\n    <strong>Casting Time</strong>&nbsp;1 minute<br>\n    <strong>Components</strong>&nbsp;V, S, F (a silver hand mirror worth 50 gp)<br>\n  </p>\n  <p>\n    <strong>Range</strong>&nbsp;touch<br>\n    \n    <strong>Targets</strong>&nbsp;one good-aligned creature<br>\n    \n    <strong>Duration</strong>&nbsp;1 day<br>\n      <strong>Saving Throw</strong>&nbsp;Will negates (harmless);&nbsp;\n      <strong>Spell Resistance</strong>&nbsp;no<br>\n  </p>\n  <h2>Description</h2>\n  <p>The Lantern Bearers must often make difficult decisions during their missions, such as determining what to do with captured enemies-should they be executed, imprisoned, set free, or given a chance to mend their ways? With this spell, you grant a creature the ability to foresee moral consequences, as if the creature were wearing a <i>phylactery of faithfulness</i>. The spell's guidance focuses on the protection of beauty and encourages peaceful resolution and mercy.</p>\n</div>\n"
    },
    "tags": [],
    "activation": {
      "type": "minute"
    },
    "unchainedAction": {
      "activation": {
        "type": "minute"
      }
    },
    "target": {
      "value": "one good-aligned creature"
    },
    "range": {
      "units": "touch"
    },
    "uses": {
      "per": ""
    },
    "measureTemplate": {
      "size": "0"
    },
    "actionType": "spellsave",
    "damage": {
      "parts": [],
      "critParts": [],
      "nonCritParts": []
    },
    "attackParts": [],
    "ability": {
      "attack": "",
      "damage": ""
    },
    "save": {
      "dc": "0",
      "type": "will",
      "description": "Will negates (harmless)"
    },
    "effectNotes": [],
    "attackNotes": [],
    "links": {
      "children": []
    },
    "flags": {
      "boolean": [],
      "dictionary": []
    },
    "scriptCalls": [],
    "learnedAt": {
      "class": [
        [
          "cleric/oracle",
          2
        ],
        [
          "paladin",
          1
        ],
        [
          "inquisitor",
          1
        ]
      ],
      "domain": [],
      "subDomain": [],
      "elementalSchool": [],
      "bloodline": []
    },
    "level": 2,
    "school": "div",
    "types": "good",
    "conditionals": [],
    "components": {
      "verbal": true,
      "somatic": true,
      "focus": true
    },
    "materials": {
      "focus": "a silver hand mirror worth 50 gp"
    },
    "sr": false,
    "shortDescription": "<p>The Lantern Bearers must often make difficult decisions during their missions, such as determining what to do with captured enemies-should they be executed, imprisoned, set free, or given a chance to mend their ways? With this spell, you grant a creature the ability to foresee moral consequences, as if the creature were wearing a <i>phylactery of faithfulness</i>. The spell's guidance focuses on the protection of beauty and encourages peaceful resolution and mercy.</p>",
    "spellDuration": "1 day"
  },
  "effects": [],
  "folder": null,
  "sort": 0,
  "permission": {
    "default": 0
  },
  "flags": {}
}