{
  "_id": "vlzave855irdc7yu",
  "name": "Ray of Exhaustion",
  "type": "spell",
  "img": "systems/pf1/icons/misc/magic-swirl.png",
  "data": {
    "description": {
      "value": "<div class=\"spell-description\">\n  <p>\n    <strong>School</strong>&nbsp;necromancy;\n    <strong>Level</strong>&nbsp;bloodrager 3, magus 3, mesmerist 3, sorcerer/wizard 3, spiritualist 3, witch 3;\n    \n    \n    \n    <strong>Bloodline</strong>&nbsp;Accursed 3;\n  </p>\n  <p>\n    <strong>Casting Time</strong>&nbsp;1 standard<br>\n    <strong>Components</strong>&nbsp;V, S, M (a drop of sweat)<br>\n  </p>\n  <p>\n    <strong>Range</strong>&nbsp;close (25 ft. + 5 ft./2 levels)<br>\n    \n    \n    <strong>Effect</strong>&nbsp;ray<br>\n    <strong>Duration</strong>&nbsp;1 min./level<br>\n      <strong>Saving Throw</strong>&nbsp;Fortitude partial; see text;&nbsp;\n      <strong>Spell Resistance</strong>&nbsp;yes<br>\n  </p>\n  <h2>Description</h2>\n  <p>A black ray projects from your pointing finger. You must succeed on a ranged touch attack with the ray to strike a target.</p><p>The subject is immediately exhausted for the spell's duration. A successful Fortitude save means the creature is only fatigued.</p><p>A character that is already fatigued instead becomes exhausted.</p><p>This spell has no effect on a creature that is already exhausted.</p><p>Unlike normal exhaustion or fatigue, the effect ends as soon as the spell's duration expires.</p>\n</div>\n"
    },
    "tags": [],
    "activation": {
      "type": "standard"
    },
    "unchainedAction": {
      "activation": {
        "cost": 2,
        "type": "action"
      }
    },
    "range": {
      "units": "close"
    },
    "uses": {
      "per": ""
    },
    "measureTemplate": {
      "size": "0"
    },
    "actionType": "rsak",
    "damage": {
      "parts": [],
      "critParts": [],
      "nonCritParts": []
    },
    "attackParts": [],
    "ability": {
      "attack": "dex",
      "damage": ""
    },
    "save": {
      "dc": "0",
      "type": "fort",
      "description": "Fortitude partial; see text"
    },
    "effectNotes": [],
    "attackNotes": [],
    "links": {
      "children": []
    },
    "flags": {
      "boolean": [],
      "dictionary": []
    },
    "scriptCalls": [],
    "learnedAt": {
      "class": [
        [
          "sorcerer/wizard",
          3
        ],
        [
          "witch",
          3
        ],
        [
          "magus",
          3
        ],
        [
          "bloodrager",
          3
        ],
        [
          "mesmerist",
          3
        ],
        [
          "spiritualist",
          3
        ]
      ],
      "domain": [],
      "subDomain": [],
      "elementalSchool": [],
      "bloodline": [
        [
          "Accursed",
          3
        ]
      ]
    },
    "level": 3,
    "school": "nec",
    "conditionals": [],
    "components": {
      "verbal": true,
      "somatic": true,
      "material": true
    },
    "materials": {
      "value": "a drop of sweat"
    },
    "shortDescription": "<p>A black ray projects from your pointing finger. You must succeed on a ranged touch attack with the ray to strike a target.</p><p>The subject is immediately exhausted for the spell's duration. A successful Fortitude save means the creature is only fatigued.</p><p>A character that is already fatigued instead becomes exhausted.</p><p>This spell has no effect on a creature that is already exhausted.</p><p>Unlike normal exhaustion or fatigue, the effect ends as soon as the spell's duration expires.</p>",
    "spellDuration": "1 min./level",
    "spellEffect": "ray"
  },
  "effects": [],
  "folder": null,
  "sort": 0,
  "permission": {
    "default": 0
  },
  "flags": {}
}