{
  "_id": "j0bc0iii8zp1jiwr",
  "name": "Read Magic",
  "type": "spell",
  "img": "systems/pf1/icons/misc/magic-swirl.png",
  "data": {
    "description": {
      "value": "<div class=\"spell-description\">\n  <p>\n    <strong>School</strong>&nbsp;divination;\n    <strong>Level</strong>&nbsp;adept 0, antipaladin 1, bard 0, cleric/oracle 0, druid 0, hunter 0, inquisitor 0, magus 0, medium 0, mesmerist 0, occultist 0, paladin 1, psychic 0, ranger 1, shaman 0, sorcerer/wizard 0, spiritualist 0, summoner 0, unchained Summoner 0, witch 0;\n    \n    \n    \n    \n  </p>\n  <p>\n    <strong>Casting Time</strong>&nbsp;1 standard<br>\n    <strong>Components</strong>&nbsp;V, S, F (a clear crystal or mineral prism)<br>\n  </p>\n  <p>\n    <strong>Range</strong>&nbsp;personal<br>\n    \n    <strong>Targets</strong>&nbsp;you<br>\n    \n    <strong>Duration</strong>&nbsp;10 min./level<br>\n  </p>\n  <h2>Description</h2>\n  <p>You can decipher magical inscriptions on objects-books, scrolls, weapons, and the like-that would otherwise be unintelligible. This deciphering does not normally invoke the magic contained in the writing, although it may do so in the case of a cursed or trapped scroll. Furthermore, once the spell is cast and you have read the magical inscription, you are thereafter able to read that particular writing without recourse to the use of <i>read magic.</i> You can read at the rate of one page (250 words) per minute. The spell allows you to identify a <i>Glyph of Warding</i> with a DC 13 Spellcraft check, a greater <i>Glyph of Warding</i> with a DC 16 Spellcraft check, or any <i>symbol</i> spell with a Spellcraft check (DC 10 + spell level).</p><p><i>Read magic</i> can be made permanent with a <i>permanency</i> spell.</p>\n</div>\n"
    },
    "tags": [],
    "activation": {
      "type": "standard"
    },
    "unchainedAction": {
      "activation": {
        "cost": 2,
        "type": "action"
      }
    },
    "target": {
      "value": "you"
    },
    "range": {
      "units": "personal"
    },
    "uses": {
      "per": ""
    },
    "measureTemplate": {
      "size": "0"
    },
    "actionType": "",
    "damage": {
      "parts": [],
      "critParts": [],
      "nonCritParts": []
    },
    "attackParts": [],
    "ability": {
      "attack": "",
      "damage": ""
    },
    "save": {
      "dc": "0"
    },
    "effectNotes": [],
    "attackNotes": [],
    "links": {
      "children": []
    },
    "flags": {
      "boolean": [],
      "dictionary": []
    },
    "scriptCalls": [],
    "learnedAt": {
      "class": [
        [
          "sorcerer/wizard",
          0
        ],
        [
          "cleric/oracle",
          0
        ],
        [
          "druid",
          0
        ],
        [
          "ranger",
          1
        ],
        [
          "bard",
          0
        ],
        [
          "paladin",
          1
        ],
        [
          "summoner",
          0
        ],
        [
          "witch",
          0
        ],
        [
          "inquisitor",
          0
        ],
        [
          "antipaladin",
          1
        ],
        [
          "magus",
          0
        ],
        [
          "adept",
          0
        ],
        [
          "shaman",
          0
        ],
        [
          "psychic",
          0
        ],
        [
          "medium",
          0
        ],
        [
          "mesmerist",
          0
        ],
        [
          "occultist",
          0
        ],
        [
          "spiritualist",
          0
        ],
        [
          "hunter",
          0
        ],
        [
          "unchained Summoner",
          0
        ]
      ],
      "domain": [],
      "subDomain": [],
      "elementalSchool": [],
      "bloodline": []
    },
    "level": 0,
    "school": "div",
    "conditionals": [],
    "components": {
      "verbal": true,
      "somatic": true,
      "focus": true
    },
    "materials": {
      "focus": "a clear crystal or mineral prism"
    },
    "preparation": {
      "autoDeductCharges": false
    },
    "sr": false,
    "shortDescription": "<p>You can decipher magical inscriptions on objects-books, scrolls, weapons, and the like-that would otherwise be unintelligible. This deciphering does not normally invoke the magic contained in the writing, although it may do so in the case of a cursed or trapped scroll. Furthermore, once the spell is cast and you have read the magical inscription, you are thereafter able to read that particular writing without recourse to the use of <i>read magic.</i> You can read at the rate of one page (250 words) per minute. The spell allows you to identify a <i>Glyph of Warding</i> with a DC 13 Spellcraft check, a greater <i>Glyph of Warding</i> with a DC 16 Spellcraft check, or any <i>symbol</i> spell with a Spellcraft check (DC 10 + spell level).</p><p><i>Read magic</i> can be made permanent with a <i>permanency</i> spell.</p>",
    "spellDuration": "10 min./level"
  },
  "effects": [],
  "folder": null,
  "sort": 0,
  "permission": {
    "default": 0
  },
  "flags": {}
}