{
  "_id": "6xqpa5cmpj9pt8ln",
  "name": "Reincarnate Spy",
  "type": "spell",
  "img": "systems/pf1/icons/misc/magic-swirl.png",
  "data": {
    "description": {
      "value": "<div class=\"spell-description\">\n  <p>\n    <strong>School</strong>&nbsp;conjuration&nbsp;(healing);\n    <strong>Level</strong>&nbsp;druid 6, hunter 6, shaman 6, witch 7;\n    \n    \n    \n    \n  </p>\n  <p>\n    <strong>Casting Time</strong>&nbsp;10 minutes<br>\n    <strong>Components</strong>&nbsp;V, S, M (oils worth 2,500 gp and a possession or piece of the body of the creature to resemble), DF<br>\n  </p>\n  <p>\n    <strong>Range</strong>&nbsp;touch<br>\n    \n    <strong>Targets</strong>&nbsp;dead creature touched<br>\n    \n    <strong>Duration</strong>&nbsp;instantaneous<br>\n      <strong>Saving Throw</strong>&nbsp;none (see text);&nbsp;\n      <strong>Spell Resistance</strong>&nbsp;yes<br>\n  </p>\n  <h2>Description</h2>\n  <p>This spell functions as <i>reincarnate</i> except that you can cause the new body to resemble a particular creature, matching its age  category and sex and rerolling any race result that would be the wrong size category. The subject further gains a +5 bonus on Disguise checks to impersonate the chosen creature due to similar features, although it might take a penalty for being the wrong race.  The spell automatically leaves you with a small piece of the creature's new body, typically a lock of hair (useful for <i>scrying</i> and other such spells).</p>\n</div>\n"
    },
    "tags": [],
    "activation": {
      "cost": 10,
      "type": "minute"
    },
    "unchainedAction": {
      "activation": {
        "cost": 10,
        "type": "minute"
      }
    },
    "target": {
      "value": "dead creature touched"
    },
    "range": {
      "units": "touch"
    },
    "uses": {
      "per": ""
    },
    "measureTemplate": {
      "size": "0"
    },
    "actionType": "heal",
    "damage": {
      "parts": [],
      "critParts": [],
      "nonCritParts": []
    },
    "attackParts": [],
    "ability": {
      "attack": "",
      "damage": ""
    },
    "save": {
      "dc": "0",
      "description": "none (see text)"
    },
    "effectNotes": [],
    "attackNotes": [],
    "links": {
      "children": []
    },
    "flags": {
      "boolean": [],
      "dictionary": []
    },
    "scriptCalls": [],
    "learnedAt": {
      "class": [
        [
          "druid",
          6
        ],
        [
          "witch",
          7
        ],
        [
          "shaman",
          6
        ],
        [
          "hunter",
          6
        ]
      ],
      "domain": [],
      "subDomain": [],
      "elementalSchool": [],
      "bloodline": []
    },
    "level": 6,
    "school": "con",
    "subschool": "healing",
    "conditionals": [],
    "components": {
      "verbal": true,
      "somatic": true,
      "material": true,
      "divineFocus": 1
    },
    "materials": {
      "value": "oils worth 2,500 gp and a possession or piece of the body of the creature to resemble",
      "gpValue": 2500
    },
    "spellbook": "",
    "preparation": {
      "autoDeductCharges": false,
      "spontaneousPrepared": false
    },
    "shortDescription": "<p>This spell functions as <i>reincarnate</i> except that you can cause the new body to resemble a particular creature, matching its age  category and sex and rerolling any race result that would be the wrong size category. The subject further gains a +5 bonus on Disguise checks to impersonate the chosen creature due to similar features, although it might take a penalty for being the wrong race.  The spell automatically leaves you with a small piece of the creature's new body, typically a lock of hair (useful for <i>scrying</i> and other such spells).</p>",
    "spellDuration": "instantaneous",
    "spellPoints": {
      "cost": ""
    }
  },
  "effects": [],
  "folder": null,
  "sort": 0,
  "permission": {
    "default": 0
  },
  "flags": {}
}