{
  "_id": "b5apdmp3s5g78uxw",
  "name": "Remove Radioactivity",
  "type": "spell",
  "img": "systems/pf1/icons/misc/magic-swirl.png",
  "data": {
    "description": {
      "value": "<div class=\"spell-description\">\n  <p>\n    <strong>School</strong>&nbsp;conjuration&nbsp;(healing);\n    <strong>Level</strong>&nbsp;bard 4, cleric/oracle 4, druid 4, hunter 4, inquisitor 4, paladin 4, ranger 4, witch 4;\n    \n    \n    \n    \n  </p>\n  <p>\n    <strong>Casting Time</strong>&nbsp;1 standard<br>\n    <strong>Components</strong>&nbsp;V, S<br>\n  </p>\n  <p>\n    <strong>Range</strong>&nbsp;touch<br>\n    \n    <strong>Targets</strong>&nbsp;creature or object touched<br>\n    \n    <strong>Duration</strong>&nbsp;instantaneous<br>\n      <strong>Saving Throw</strong>&nbsp;Fortitude negates (object);&nbsp;\n      <strong>Spell Resistance</strong>&nbsp;yes<br>\n  </p>\n  <h2>Description</h2>\n  <p>You remove all ongoing radiation effects, both primary and secondary, on a single target if you succeed at a caster level check (DC = the Fortitude DC associated with the radiation effect). In addition, you immediately restore 1d4 points of Constitution drain and 1d4 points of Strength drain caused by radiation-this spell cannot restore ability damage or drain caused by other sources. When cast on an area, a single casting of <i>remove radioactivity</i> removes radiation from a 20-foot-radius area around the point you touch. This spell has no power to negate naturally radioactive materials, and as long as such materials remain in an area, the radiation that was removed may return.</p>\n</div>\n"
    },
    "tags": [],
    "activation": {
      "type": "standard"
    },
    "unchainedAction": {
      "activation": {
        "cost": 2,
        "type": "action"
      }
    },
    "target": {
      "value": "creature or object touched"
    },
    "range": {
      "units": "touch"
    },
    "uses": {
      "per": ""
    },
    "measureTemplate": {
      "size": "0"
    },
    "actionType": "heal",
    "damage": {
      "parts": [],
      "critParts": [],
      "nonCritParts": []
    },
    "attackParts": [],
    "ability": {
      "attack": "",
      "damage": ""
    },
    "save": {
      "dc": "0",
      "type": "fort",
      "description": "Fortitude negates (object)"
    },
    "effectNotes": [],
    "attackNotes": [],
    "links": {
      "children": []
    },
    "flags": {
      "boolean": [],
      "dictionary": []
    },
    "scriptCalls": [],
    "learnedAt": {
      "class": [
        [
          "cleric/oracle",
          4
        ],
        [
          "druid",
          4
        ],
        [
          "ranger",
          4
        ],
        [
          "bard",
          4
        ],
        [
          "paladin",
          4
        ],
        [
          "witch",
          4
        ],
        [
          "inquisitor",
          4
        ],
        [
          "hunter",
          4
        ]
      ],
      "domain": [],
      "subDomain": [],
      "elementalSchool": [],
      "bloodline": []
    },
    "level": 4,
    "school": "con",
    "subschool": "healing",
    "conditionals": [],
    "components": {
      "verbal": true,
      "somatic": true
    },
    "shortDescription": "<p>You remove all ongoing radiation effects, both primary and secondary, on a single target if you succeed at a caster level check (DC = the Fortitude DC associated with the radiation effect). In addition, you immediately restore 1d4 points of Constitution drain and 1d4 points of Strength drain caused by radiation-this spell cannot restore ability damage or drain caused by other sources. When cast on an area, a single casting of <i>remove radioactivity</i> removes radiation from a 20-foot-radius area around the point you touch. This spell has no power to negate naturally radioactive materials, and as long as such materials remain in an area, the radiation that was removed may return.</p>",
    "spellDuration": "instantaneous"
  },
  "effects": [],
  "folder": null,
  "sort": 0,
  "permission": {
    "default": 0
  },
  "flags": {}
}