{
  "_id": "2qwpals9bp2j22if",
  "name": "Repugnant Taste",
  "type": "spell",
  "img": "systems/pf1/icons/misc/magic-swirl.png",
  "data": {
    "description": {
      "value": "<div class=\"spell-description\">\n  <p>\n    <strong>School</strong>&nbsp;transmutation&nbsp;[poison];\n    <strong>Level</strong>&nbsp;alchemist 3, bard 3, druid 4, hunter 3, mesmerist 3, ranger 3, shaman 4, witch 4;\n    \n    \n    \n    \n  </p>\n  <p>\n    <strong>Casting Time</strong>&nbsp;1 standard<br>\n    <strong>Components</strong>&nbsp;V, S, M/DF (mustard seed)<br>\n  </p>\n  <p>\n    <strong>Range</strong>&nbsp;touch<br>\n    \n    <strong>Targets</strong>&nbsp;creature touched<br>\n    \n    <strong>Duration</strong>&nbsp;10 minute/level<br>\n      <strong>Saving Throw</strong>&nbsp;Fortitude negates (harmless);&nbsp;\n      <strong>Spell Resistance</strong>&nbsp;yes<br>\n  </p>\n  <h2>Description</h2>\n  <p>The target creature begins sweating a foul liquid that makes it repugnant to most living creatures. When a creature deals damage to the affected creature with a bite attack or the swallow whole ability, it must succeed at a Fortitude saving throw or become nauseated until the end of its next turn. After a creature has become nauseated by this spell, each subsequent failed saving throw against the spell instead gives it the sickened condition until the end of its next turn.</p>\n</div>\n"
    },
    "tags": [],
    "activation": {
      "type": "standard"
    },
    "unchainedAction": {
      "activation": {
        "cost": 2,
        "type": "action"
      }
    },
    "target": {
      "value": "creature touched"
    },
    "range": {
      "units": "touch"
    },
    "uses": {
      "per": ""
    },
    "measureTemplate": {
      "size": "0"
    },
    "actionType": "spellsave",
    "damage": {
      "parts": [],
      "critParts": [],
      "nonCritParts": []
    },
    "attackParts": [],
    "ability": {
      "attack": "",
      "damage": ""
    },
    "save": {
      "dc": "0",
      "type": "fort",
      "description": "Fortitude negates (harmless)"
    },
    "effectNotes": [],
    "attackNotes": [],
    "links": {
      "children": []
    },
    "flags": {
      "boolean": [],
      "dictionary": []
    },
    "scriptCalls": [],
    "learnedAt": {
      "class": [
        [
          "druid",
          4
        ],
        [
          "ranger",
          3
        ],
        [
          "bard",
          3
        ],
        [
          "alchemist",
          3
        ],
        [
          "witch",
          4
        ],
        [
          "shaman",
          4
        ],
        [
          "mesmerist",
          3
        ],
        [
          "hunter",
          3
        ]
      ],
      "domain": [],
      "subDomain": [],
      "elementalSchool": [],
      "bloodline": []
    },
    "level": 4,
    "school": "trs",
    "types": "poison",
    "conditionals": [],
    "components": {
      "verbal": true,
      "somatic": true,
      "material": true,
      "divineFocus": 2
    },
    "materials": {
      "value": "mustard seed"
    },
    "shortDescription": "<p>The target creature begins sweating a foul liquid that makes it repugnant to most living creatures. When a creature deals damage to the affected creature with a bite attack or the swallow whole ability, it must succeed at a Fortitude saving throw or become nauseated until the end of its next turn. After a creature has become nauseated by this spell, each subsequent failed saving throw against the spell instead gives it the sickened condition until the end of its next turn.</p>",
    "spellDuration": "10 minute/level"
  },
  "effects": [],
  "folder": null,
  "sort": 0,
  "permission": {
    "default": 0
  },
  "flags": {}
}