{
  "_id": "9crmpewzt1y0hk73",
  "name": "Resounding Blow",
  "type": "spell",
  "img": "systems/pf1/icons/misc/magic-swirl.png",
  "data": {
    "description": {
      "value": "<div class=\"spell-description\">\n  <p>\n    <strong>School</strong>&nbsp;evocation&nbsp;[sonic];\n    <strong>Level</strong>&nbsp;antipaladin 4, inquisitor 5, paladin 4;\n    \n    \n    \n    \n  </p>\n  <p>\n    <strong>Casting Time</strong>&nbsp;1 swift<br>\n    <strong>Components</strong>&nbsp;V<br>\n  </p>\n  <p>\n    <strong>Range</strong>&nbsp;personal<br>\n    \n    <strong>Targets</strong>&nbsp;you<br>\n    \n    <strong>Duration</strong>&nbsp;1 round/level<br>\n  </p>\n  <h2>Description</h2>\n  <p>You must have a melee weapon in hand to cast this spell.</p><p>On a successful melee attack, your weapon resounds with a thunderous clash. The target takes 1d6 points of sonic damage. Your weapon is not harmed by this attack.</p><p>If you are using your judgment ability or smite ability against the target, it is staggered for 1 round on a successful attack. A successful Fortitude save negates the staggering effect.</p><p>On a successful critical hit, the target is stunned for 1 round and deafened for 1d6 rounds. A successful Fortitude save negates the stunning and deafening effects. If you are also using judgment or smite, your foe makes only a single save against all effects.</p><p>This spell immediately ends if your weapon leaves your hand.</p><p><i>Resounding blow</i> stacks with the <i>thundering</i> weapon property.</p>\n</div>\n"
    },
    "tags": [],
    "activation": {
      "type": "swift"
    },
    "unchainedAction": {
      "activation": {
        "type": "action"
      }
    },
    "target": {
      "value": "you"
    },
    "range": {
      "units": "personal"
    },
    "uses": {
      "per": ""
    },
    "measureTemplate": {
      "size": "0"
    },
    "actionType": "spellsave",
    "damage": {
      "parts": [],
      "critParts": [],
      "nonCritParts": []
    },
    "attackParts": [],
    "ability": {
      "attack": "",
      "damage": ""
    },
    "save": {
      "dc": "0",
      "type": "fort",
      "description": "Fortitude partial; see text"
    },
    "effectNotes": [],
    "attackNotes": [],
    "links": {
      "children": []
    },
    "flags": {
      "boolean": [],
      "dictionary": []
    },
    "scriptCalls": [],
    "learnedAt": {
      "class": [
        [
          "paladin",
          4
        ],
        [
          "inquisitor",
          5
        ],
        [
          "antipaladin",
          4
        ]
      ],
      "domain": [],
      "subDomain": [],
      "elementalSchool": [],
      "bloodline": []
    },
    "level": 4,
    "school": "evo",
    "types": "sonic",
    "conditionals": [],
    "components": {
      "verbal": true
    },
    "sr": false,
    "shortDescription": "<p>You must have a melee weapon in hand to cast this spell.</p><p>On a successful melee attack, your weapon resounds with a thunderous clash. The target takes 1d6 points of sonic damage. Your weapon is not harmed by this attack.</p><p>If you are using your judgment ability or smite ability against the target, it is staggered for 1 round on a successful attack. A successful Fortitude save negates the staggering effect.</p><p>On a successful critical hit, the target is stunned for 1 round and deafened for 1d6 rounds. A successful Fortitude save negates the stunning and deafening effects. If you are also using judgment or smite, your foe makes only a single save against all effects.</p><p>This spell immediately ends if your weapon leaves your hand.</p><p><i>Resounding blow</i> stacks with the <i>thundering</i> weapon property.</p>",
    "spellDuration": "1 round/level"
  },
  "effects": [],
  "folder": null,
  "sort": 0,
  "permission": {
    "default": 0
  },
  "flags": {}
}