{
  "_id": "jnva2egott9dvb92",
  "name": "Reveal Secrets",
  "type": "spell",
  "img": "systems/pf1/icons/misc/magic-swirl.png",
  "data": {
    "description": {
      "value": "<div class=\"spell-description\">\n  <p>\n    <strong>School</strong>&nbsp;enchantment&nbsp;(compulsion)&nbsp;[language-dependent, mind-affecting];\n    <strong>Level</strong>&nbsp;bard 1, inquisitor 1, mesmerist 1, psychic 1, sorcerer/wizard 1, witch 1;\n    \n    \n    \n    \n  </p>\n  <p>\n    <strong>Casting Time</strong>&nbsp;1 standard<br>\n    <strong>Components</strong>&nbsp;V, S, M (a drop of alcoholic liquid)<br>\n  </p>\n  <p>\n    <strong>Range</strong>&nbsp;touch<br>\n    \n    <strong>Targets</strong>&nbsp;creature touched<br>\n    \n    <strong>Duration</strong>&nbsp;1 round<br>\n      <strong>Saving Throw</strong>&nbsp;Will negates;&nbsp;\n      <strong>Spell Resistance</strong>&nbsp;yes<br>\n  </p>\n  <h2>Description</h2>\n  <p>When you cast this spell, you ask the target whether it has a secret about a specific topic that can be described in 10 words or fewer. This can concern a person, place, or thing (such as a town's mayor, the ring worn by a traveling merchant, or the bridge spanning a nearby river) or an easily distinguished event (such as a historic battle or a recent rash of disappearances). If the target knows a secret about the topic (information it believes isn't common knowledge and which it would not normally tell you), it states it has a secret. The target doesn't mention anything about the secret and doesn't remember telling you it has a secret. If the target succeeds at its saving throw, it isn't compelled to reveal whether it knows a secret and is aware that you asked.</p>\n</div>\n"
    },
    "tags": [],
    "activation": {
      "type": "standard"
    },
    "unchainedAction": {
      "activation": {
        "cost": 2,
        "type": "action"
      }
    },
    "target": {
      "value": "creature touched"
    },
    "range": {
      "units": "touch"
    },
    "uses": {
      "per": ""
    },
    "measureTemplate": {
      "size": "0"
    },
    "actionType": "spellsave",
    "damage": {
      "parts": [],
      "critParts": [],
      "nonCritParts": []
    },
    "attackParts": [],
    "ability": {
      "attack": "",
      "damage": ""
    },
    "save": {
      "dc": "0",
      "type": "will",
      "description": "Will negates"
    },
    "effectNotes": [],
    "attackNotes": [],
    "links": {
      "children": []
    },
    "flags": {
      "boolean": [],
      "dictionary": []
    },
    "scriptCalls": [],
    "learnedAt": {
      "class": [
        [
          "sorcerer/wizard",
          1
        ],
        [
          "bard",
          1
        ],
        [
          "witch",
          1
        ],
        [
          "inquisitor",
          1
        ],
        [
          "psychic",
          1
        ],
        [
          "mesmerist",
          1
        ]
      ],
      "domain": [],
      "subDomain": [],
      "elementalSchool": [],
      "bloodline": []
    },
    "school": "enc",
    "subschool": "compulsion",
    "types": "language-dependent, mind-affecting",
    "conditionals": [],
    "components": {
      "verbal": true,
      "somatic": true,
      "material": true
    },
    "materials": {
      "value": "a drop of alcoholic liquid"
    },
    "shortDescription": "<p>When you cast this spell, you ask the target whether it has a secret about a specific topic that can be described in 10 words or fewer. This can concern a person, place, or thing (such as a town's mayor, the ring worn by a traveling merchant, or the bridge spanning a nearby river) or an easily distinguished event (such as a historic battle or a recent rash of disappearances). If the target knows a secret about the topic (information it believes isn't common knowledge and which it would not normally tell you), it states it has a secret. The target doesn't mention anything about the secret and doesn't remember telling you it has a secret. If the target succeeds at its saving throw, it isn't compelled to reveal whether it knows a secret and is aware that you asked.</p>",
    "spellDuration": "1 round"
  },
  "effects": [],
  "folder": null,
  "sort": 0,
  "permission": {
    "default": 0
  },
  "flags": {}
}