{
  "_id": "dm52jk1e37b05v9d",
  "name": "Righteous Vigor",
  "type": "spell",
  "img": "systems/pf1/icons/misc/magic-swirl.png",
  "data": {
    "description": {
      "value": "<div class=\"spell-description\">\n  <p>\n    <strong>School</strong>&nbsp;enchantment&nbsp;(compulsion)&nbsp;[mind-affecting];\n    <strong>Level</strong>&nbsp;inquisitor 3, paladin 2;\n    \n    \n    \n    \n  </p>\n  <p>\n    <strong>Casting Time</strong>&nbsp;1 standard<br>\n    <strong>Components</strong>&nbsp;V, S, DF<br>\n  </p>\n  <p>\n    <strong>Range</strong>&nbsp;touch<br>\n    \n    <strong>Targets</strong>&nbsp;creature touched<br>\n    \n    <strong>Duration</strong>&nbsp;1 round/level<br>\n      <strong>Saving Throw</strong>&nbsp;Will negates (harmless);&nbsp;\n      <strong>Spell Resistance</strong>&nbsp;yes<br>\n  </p>\n  <h2>Description</h2>\n  <p>Infusing the target with a surge of furious divine energy, you enhance a creature's ability to hit an opponent based on the number of times it has already hit that opponent with a successful attack. Each time the subject successfully strikes an opponent with a successful melee attack, the subject gains a cumulative +1 morale bonus on attack rolls (maximum +4 bonus) and gains 1d8 temporary hit points (to a maximum of 20 temporary hit points). If an attack misses, the attack bonus resets to +0 but any accumulated temporary hit points remain. The temporary hit points disappear at the end of the spell's duration.</p>\n</div>\n"
    },
    "tags": [],
    "activation": {
      "type": "standard"
    },
    "unchainedAction": {
      "activation": {
        "cost": 2,
        "type": "action"
      }
    },
    "target": {
      "value": "creature touched"
    },
    "range": {
      "units": "touch"
    },
    "uses": {
      "per": ""
    },
    "measureTemplate": {
      "size": "0"
    },
    "actionType": "spellsave",
    "damage": {
      "parts": [],
      "critParts": [],
      "nonCritParts": []
    },
    "attackParts": [],
    "ability": {
      "attack": "",
      "damage": ""
    },
    "save": {
      "dc": "0",
      "type": "will",
      "description": "Will negates (harmless)"
    },
    "effectNotes": [],
    "attackNotes": [],
    "links": {
      "children": []
    },
    "flags": {
      "boolean": [],
      "dictionary": []
    },
    "scriptCalls": [],
    "learnedAt": {
      "class": [
        [
          "paladin",
          2
        ],
        [
          "inquisitor",
          3
        ]
      ],
      "domain": [],
      "subDomain": [],
      "elementalSchool": [],
      "bloodline": []
    },
    "level": 2,
    "school": "enc",
    "subschool": "compulsion",
    "types": "mind-affecting",
    "conditionals": [],
    "components": {
      "verbal": true,
      "somatic": true,
      "divineFocus": 1
    },
    "shortDescription": "<p>Infusing the target with a surge of furious divine energy, you enhance a creature's ability to hit an opponent based on the number of times it has already hit that opponent with a successful attack. Each time the subject successfully strikes an opponent with a successful melee attack, the subject gains a cumulative +1 morale bonus on attack rolls (maximum +4 bonus) and gains 1d8 temporary hit points (to a maximum of 20 temporary hit points). If an attack misses, the attack bonus resets to +0 but any accumulated temporary hit points remain. The temporary hit points disappear at the end of the spell's duration.</p>",
    "spellDuration": "1 round/level"
  },
  "effects": [],
  "folder": null,
  "sort": 0,
  "permission": {
    "default": 0
  },
  "flags": {}
}