{
  "_id": "etskn140auk6cjj2",
  "name": "Share Language",
  "type": "spell",
  "img": "systems/pf1/icons/misc/magic-swirl.png",
  "data": {
    "description": {
      "value": "<div class=\"spell-description\">\n  <p>\n    <strong>School</strong>&nbsp;divination;\n    <strong>Level</strong>&nbsp;bard 1, cleric/oracle 2, druid 2, hunter 2, medium 1, mesmerist 1, occultist 2, psychic 1, sorcerer/wizard 2;\n    \n    <strong>Subdomain</strong>&nbsp;Cooperation 2, Language 2;\n    \n    \n  </p>\n  <p>\n    <strong>Casting Time</strong>&nbsp;1 standard<br>\n    <strong>Components</strong>&nbsp;V, S, M (a page from a dictionary)<br>\n  </p>\n  <p>\n    <strong>Range</strong>&nbsp;touch<br>\n    \n    <strong>Targets</strong>&nbsp;creature touched<br>\n    \n    <strong>Duration</strong>&nbsp;24 hours<br>\n      <strong>Saving Throw</strong>&nbsp;Will negates (harmless);&nbsp;\n      <strong>Spell Resistance</strong>&nbsp;yes<br>\n  </p>\n  <h2>Description</h2>\n  <p>You can share your facility for one particular language with another creature. For 24 hours the target can read, understand, and communicate to the best of its ability in any one language which you already know. For every 5 levels you possess, you can grant the use of another language you know, to a maximum of 5 languages at 20th level. The target must have the physical capacity to articulate sounds, make gestures, or engage in whatever other method speakers of the language use to communicate with each other in order to actually converse. If the target lacks the mental capacity to grasp an actual language it still gains enough knowledge to respond to and carry out even extremely complex commands or suggestions coached in the language (whether written or spoken). However, since this spell does not endow the target with greater reasoning capacity, merely a temporarily enhanced vocabulary, the person offering up instructions to non-sentient creatures must take care to remove any ambiguity or guesswork.</p><p>Similarly, this spell does not affect the basic nature of the target, or its disposition toward you or anyone else, so convincing it to actually carry out these instructions could require negotiation, threats, or outright bribery.</p>\n</div>\n"
    },
    "tags": [],
    "activation": {
      "type": "standard"
    },
    "unchainedAction": {
      "activation": {
        "cost": 2,
        "type": "action"
      }
    },
    "target": {
      "value": "creature touched"
    },
    "range": {
      "units": "touch"
    },
    "uses": {
      "per": ""
    },
    "measureTemplate": {
      "size": "0"
    },
    "actionType": "spellsave",
    "damage": {
      "parts": [],
      "critParts": [],
      "nonCritParts": []
    },
    "attackParts": [],
    "ability": {
      "attack": "",
      "damage": ""
    },
    "save": {
      "dc": "0",
      "type": "will",
      "description": "Will negates (harmless)"
    },
    "effectNotes": [],
    "attackNotes": [],
    "links": {
      "children": []
    },
    "flags": {
      "boolean": [],
      "dictionary": []
    },
    "scriptCalls": [],
    "learnedAt": {
      "class": [
        [
          "sorcerer/wizard",
          2
        ],
        [
          "cleric/oracle",
          2
        ],
        [
          "druid",
          2
        ],
        [
          "bard",
          1
        ],
        [
          "psychic",
          1
        ],
        [
          "medium",
          1
        ],
        [
          "mesmerist",
          1
        ],
        [
          "occultist",
          2
        ],
        [
          "hunter",
          2
        ]
      ],
      "domain": [],
      "subDomain": [
        [
          "Language",
          2
        ],
        [
          "Cooperation",
          2
        ]
      ],
      "elementalSchool": [],
      "bloodline": []
    },
    "level": 2,
    "school": "div",
    "conditionals": [],
    "components": {
      "verbal": true,
      "somatic": true,
      "material": true
    },
    "materials": {
      "value": "a page from a dictionary"
    },
    "shortDescription": "<p>You can share your facility for one particular language with another creature. For 24 hours the target can read, understand, and communicate to the best of its ability in any one language which you already know. For every 5 levels you possess, you can grant the use of another language you know, to a maximum of 5 languages at 20th level. The target must have the physical capacity to articulate sounds, make gestures, or engage in whatever other method speakers of the language use to communicate with each other in order to actually converse. If the target lacks the mental capacity to grasp an actual language it still gains enough knowledge to respond to and carry out even extremely complex commands or suggestions coached in the language (whether written or spoken). However, since this spell does not endow the target with greater reasoning capacity, merely a temporarily enhanced vocabulary, the person offering up instructions to non-sentient creatures must take care to remove any ambiguity or guesswork.</p><p>Similarly, this spell does not affect the basic nature of the target, or its disposition toward you or anyone else, so convincing it to actually carry out these instructions could require negotiation, threats, or outright bribery.</p>",
    "spellDuration": "24 hours"
  },
  "effects": [],
  "folder": null,
  "sort": 0,
  "permission": {
    "default": 0
  },
  "flags": {}
}