{
  "_id": "mxexufme4unc4l6c",
  "name": "Spellstaff",
  "type": "spell",
  "img": "systems/pf1/icons/misc/magic-swirl.png",
  "data": {
    "description": {
      "value": "<div class=\"spell-description\">\n  <p>\n    <strong>School</strong>&nbsp;transmutation;\n    <strong>Level</strong>&nbsp;druid 6, hunter 6;\n    \n    \n    \n    \n  </p>\n  <p>\n    <strong>Casting Time</strong>&nbsp;10 minutes<br>\n    <strong>Components</strong>&nbsp;V, S, F (the staff that stores the spell)<br>\n  </p>\n  <p>\n    <strong>Range</strong>&nbsp;touch<br>\n    \n    <strong>Targets</strong>&nbsp;wooden quarterstaff touched<br>\n    \n    <strong>Duration</strong>&nbsp;permanent until discharged<br>\n      <strong>Saving Throw</strong>&nbsp;Will negates (object);&nbsp;\n      <strong>Spell Resistance</strong>&nbsp;yes<br>\n  </p>\n  <h2>Description</h2>\n  <p>You store one spell that you can normally cast in a wooden quarterstaff. Only one such spell can be stored in a staff at a given time, and you cannot have more than one <i>spellstaff</i> at any given time. You can cast a spell stored within a staff just as though it were among those you had prepared, but it does not count against your normal allotment for a given day. You use up any applicable material components required to cast the spell when you store it in the <i>spellstaff</i>.</p>\n</div>\n"
    },
    "tags": [],
    "activation": {
      "cost": 10,
      "type": "minute"
    },
    "unchainedAction": {
      "activation": {
        "cost": 10,
        "type": "minute"
      }
    },
    "target": {
      "value": "wooden quarterstaff touched"
    },
    "range": {
      "units": "touch"
    },
    "uses": {
      "per": ""
    },
    "measureTemplate": {
      "size": "0"
    },
    "actionType": "spellsave",
    "damage": {
      "parts": [],
      "critParts": [],
      "nonCritParts": []
    },
    "attackParts": [],
    "ability": {
      "attack": "",
      "damage": ""
    },
    "save": {
      "dc": "0",
      "type": "will",
      "description": "Will negates (object)"
    },
    "effectNotes": [],
    "attackNotes": [],
    "links": {
      "children": []
    },
    "flags": {
      "boolean": [],
      "dictionary": []
    },
    "scriptCalls": [],
    "learnedAt": {
      "class": [
        [
          "druid",
          6
        ],
        [
          "hunter",
          6
        ]
      ],
      "domain": [],
      "subDomain": [],
      "elementalSchool": [],
      "bloodline": []
    },
    "level": 6,
    "school": "trs",
    "conditionals": [],
    "components": {
      "verbal": true,
      "somatic": true,
      "focus": true
    },
    "materials": {
      "focus": "the staff that stores the spell"
    },
    "shortDescription": "<p>You store one spell that you can normally cast in a wooden quarterstaff. Only one such spell can be stored in a staff at a given time, and you cannot have more than one <i>spellstaff</i> at any given time. You can cast a spell stored within a staff just as though it were among those you had prepared, but it does not count against your normal allotment for a given day. You use up any applicable material components required to cast the spell when you store it in the <i>spellstaff</i>.</p>",
    "spellDuration": "permanent until discharged"
  },
  "effects": [],
  "folder": null,
  "sort": 0,
  "permission": {
    "default": 0
  },
  "flags": {}
}