{
  "_id": "4pryfl3cihbio5ph",
  "name": "Spellscar",
  "type": "spell",
  "img": "systems/pf1/icons/misc/magic-swirl.png",
  "data": {
    "description": {
      "value": "<div class=\"spell-description\">\n  <p>\n    <strong>School</strong>&nbsp;abjuration;\n    <strong>Level</strong>&nbsp;cleric/oracle 8, sorcerer/wizard 8;\n    \n    \n    \n    \n  </p>\n  <p>\n    <strong>Casting Time</strong>&nbsp;1 standard<br>\n    <strong>Components</strong>&nbsp;V, S, M (a pinch of sand from the Spellscar Desert)<br>\n  </p>\n  <p>\n    <strong>Range</strong>&nbsp;medium (100 ft. + 10 ft./level)<br>\n    <strong>Area</strong>&nbsp;two 10-ft. cubes per level (S)<br>\n    \n    \n    <strong>Duration</strong>&nbsp;10 minutes/level (D)<br>\n      <strong>Saving Throw</strong>&nbsp;none;&nbsp;\n      <strong>Spell Resistance</strong>&nbsp;no<br>\n  </p>\n  <h2>Description</h2>\n  <p>This potent spell invokes the same sort of magical devastation that created the Mana Wastes so long ago- albeit on a much more localized (and thankfully temporary) scale. Within the area you choose to affect with <i>spellscar</i>, the terrain takes on a strange pale hue, as if colors were muted. Periodically, ripples of vibrant color wriggle through the terrain. Within this area, any spell, spell-like ability, or magic item activation automatically triggers a primal magic event-a spellcaster can avoid triggering such an event by making a concentration check (DC 15 + twice the spell's level), but non-spellcasters who activate magic items have no such option.</p><p>You gain a +4 insight bonus on concentration checks made to avoid triggering primal magic events while within a <i>spellscar</i> you have created, and if you do trigger a primal magic event, you may roll d% twice and pick which of the two results you wish to have occur.</p>\n</div>\n"
    },
    "tags": [],
    "activation": {
      "type": "standard"
    },
    "unchainedAction": {
      "activation": {
        "cost": 2,
        "type": "action"
      }
    },
    "range": {
      "units": "medium"
    },
    "uses": {
      "per": ""
    },
    "measureTemplate": {
      "size": "0"
    },
    "actionType": "",
    "damage": {
      "parts": [],
      "critParts": [],
      "nonCritParts": []
    },
    "attackParts": [],
    "ability": {
      "attack": "",
      "damage": ""
    },
    "save": {
      "dc": "0"
    },
    "effectNotes": [],
    "attackNotes": [],
    "links": {
      "children": []
    },
    "flags": {
      "boolean": [],
      "dictionary": []
    },
    "scriptCalls": [],
    "learnedAt": {
      "class": [
        [
          "sorcerer/wizard",
          8
        ],
        [
          "cleric/oracle",
          8
        ]
      ],
      "domain": [],
      "subDomain": [],
      "elementalSchool": [],
      "bloodline": []
    },
    "level": 8,
    "school": "abj",
    "conditionals": [],
    "components": {
      "verbal": true,
      "somatic": true,
      "material": true
    },
    "materials": {
      "value": "a pinch of sand from the Spellscar Desert"
    },
    "sr": false,
    "shortDescription": "<p>This potent spell invokes the same sort of magical devastation that created the Mana Wastes so long ago- albeit on a much more localized (and thankfully temporary) scale. Within the area you choose to affect with <i>spellscar</i>, the terrain takes on a strange pale hue, as if colors were muted. Periodically, ripples of vibrant color wriggle through the terrain. Within this area, any spell, spell-like ability, or magic item activation automatically triggers a primal magic event-a spellcaster can avoid triggering such an event by making a concentration check (DC 15 + twice the spell's level), but non-spellcasters who activate magic items have no such option.</p><p>You gain a +4 insight bonus on concentration checks made to avoid triggering primal magic events while within a <i>spellscar</i> you have created, and if you do trigger a primal magic event, you may roll d% twice and pick which of the two results you wish to have occur.</p>",
    "spellDuration": "10 minutes/level (D)",
    "spellArea": "two 10-ft. cubes per level (S)"
  },
  "effects": [],
  "folder": null,
  "sort": 0,
  "permission": {
    "default": 0
  },
  "flags": {}
}