{
  "_id": "5jy1e9vgh1p30w3h",
  "name": "Spirit Call",
  "type": "spell",
  "img": "systems/pf1/icons/misc/magic-swirl.png",
  "data": {
    "description": {
      "value": "<div class=\"spell-description\">\n  <p>\n    <strong>School</strong>&nbsp;enchantment;\n    <strong>Level</strong>&nbsp;druid 1, hunter 1, shaman 1;\n    \n    \n    \n    \n  </p>\n  <p>\n    <strong>Casting Time</strong>&nbsp;1 full-round<br>\n    <strong>Components</strong>&nbsp;V, S, DF<br>\n  </p>\n  <p>\n    <strong>Range</strong>&nbsp;100 feet<br>\n    \n    \n    <strong>Effect</strong>&nbsp;100-ft.-radius spread centered on you<br>\n    <strong>Duration</strong>&nbsp;1 minute/level<br>\n      <strong>Saving Throw</strong>&nbsp;none;&nbsp;\n      <strong>Spell Resistance</strong>&nbsp;no<br>\n  </p>\n  <h2>Description</h2>\n  <p>You call out to nature spirits associated with your spirit (not your wandering spirit) if you are a shaman, or your domain if you are a druid, beckoning them forth to pay attention to your current location. For the duration of the spell, all spells from your spirit magic list or domain list that are cast within the affected area have their caster level increased by 1, and all spellcasters casting such spells receive a +4 insight bonus on their concentration checks for those spells only.</p>\n</div>\n"
    },
    "tags": [],
    "activation": {
      "type": "full"
    },
    "unchainedAction": {
      "activation": {
        "cost": 3,
        "type": "action"
      }
    },
    "range": {
      "value": 100,
      "units": "ft"
    },
    "uses": {
      "per": ""
    },
    "measureTemplate": {
      "size": "0"
    },
    "actionType": "other",
    "damage": {
      "parts": [],
      "critParts": [],
      "nonCritParts": []
    },
    "attackParts": [],
    "ability": {
      "attack": "",
      "damage": ""
    },
    "save": {
      "dc": "0"
    },
    "effectNotes": [],
    "attackNotes": [],
    "links": {
      "children": []
    },
    "flags": {
      "boolean": [],
      "dictionary": []
    },
    "scriptCalls": [],
    "learnedAt": {
      "class": [
        [
          "druid",
          1
        ],
        [
          "shaman",
          1
        ],
        [
          "hunter",
          1
        ]
      ],
      "domain": [],
      "subDomain": [],
      "elementalSchool": [],
      "bloodline": []
    },
    "school": "enc",
    "conditionals": [],
    "components": {
      "verbal": true,
      "somatic": true,
      "divineFocus": 1
    },
    "sr": false,
    "shortDescription": "<p>You call out to nature spirits associated with your spirit (not your wandering spirit) if you are a shaman, or your domain if you are a druid, beckoning them forth to pay attention to your current location. For the duration of the spell, all spells from your spirit magic list or domain list that are cast within the affected area have their caster level increased by 1, and all spellcasters casting such spells receive a +4 insight bonus on their concentration checks for those spells only.</p>",
    "spellDuration": "1 minute/level",
    "spellEffect": "100-ft.-radius spread centered on you"
  },
  "effects": [],
  "folder": null,
  "sort": 0,
  "permission": {
    "default": 0
  },
  "flags": {}
}