{
  "_id": "lvdtkp2dlzp09187",
  "name": "Stave Off Corruption",
  "type": "spell",
  "img": "systems/pf1/icons/misc/magic-swirl.png",
  "data": {
    "description": {
      "value": "<div class=\"spell-description\">\n  <p>\n    <strong>School</strong>&nbsp;abjuration;\n    <strong>Level</strong>&nbsp;cleric/oracle 2, paladin 2;\n    \n    \n    \n    \n  </p>\n  <p>\n    <strong>Casting Time</strong>&nbsp;1 standard<br>\n    <strong>Components</strong>&nbsp;V, S, M (see text)<br>\n  </p>\n  <p>\n    <strong>Range</strong>&nbsp;touch<br>\n    \n    <strong>Targets</strong>&nbsp;one creature<br>\n    \n    <strong>Duration</strong>&nbsp;1 day/2 levels<br>\n      <strong>Saving Throw</strong>&nbsp;Will negates (harmless);&nbsp;\n      <strong>Spell Resistance</strong>&nbsp;yes<br>\n  </p>\n  <h2>Description</h2>\n  <p>You ward the target to slow the advancement of its corruption. The target receives a +2 circumstance bonus on saving throws against the advancement of its corruption, as described in the catalyst section of each corruption. Multiple applications of this spell do not stack, nor does the bonus stack with morale, profane, or sacred bonuses on saving throws against the advancement of the target's corruption.  The material components for this spell vary with the type of corruption. For example, garlic is used for a vampirism corruption, a sprig of wolfsbane is used for a lycanthropy corruption, and so on. The GM can determine appropriate material components, but the components should cost at least 25 gp.</p>\n</div>\n"
    },
    "tags": [],
    "activation": {
      "type": "standard"
    },
    "unchainedAction": {
      "activation": {
        "cost": 2,
        "type": "action"
      }
    },
    "target": {
      "value": "one creature"
    },
    "range": {
      "units": "touch"
    },
    "uses": {
      "per": ""
    },
    "measureTemplate": {
      "size": "0"
    },
    "actionType": "spellsave",
    "damage": {
      "parts": [],
      "critParts": [],
      "nonCritParts": []
    },
    "attackParts": [],
    "ability": {
      "attack": "",
      "damage": ""
    },
    "save": {
      "dc": "0",
      "type": "will",
      "description": "Will negates (harmless)"
    },
    "effectNotes": [],
    "attackNotes": [],
    "links": {
      "children": []
    },
    "flags": {
      "boolean": [],
      "dictionary": []
    },
    "scriptCalls": [],
    "learnedAt": {
      "class": [
        [
          "cleric/oracle",
          2
        ],
        [
          "paladin",
          2
        ]
      ],
      "domain": [],
      "subDomain": [],
      "elementalSchool": [],
      "bloodline": []
    },
    "level": 2,
    "school": "abj",
    "conditionals": [],
    "components": {
      "verbal": true,
      "somatic": true,
      "material": true
    },
    "materials": {
      "value": "see text"
    },
    "shortDescription": "<p>You ward the target to slow the advancement of its corruption. The target receives a +2 circumstance bonus on saving throws against the advancement of its corruption, as described in the catalyst section of each corruption. Multiple applications of this spell do not stack, nor does the bonus stack with morale, profane, or sacred bonuses on saving throws against the advancement of the target's corruption.  The material components for this spell vary with the type of corruption. For example, garlic is used for a vampirism corruption, a sprig of wolfsbane is used for a lycanthropy corruption, and so on. The GM can determine appropriate material components, but the components should cost at least 25 gp.</p>",
    "spellDuration": "1 day/2 levels"
  },
  "effects": [],
  "folder": null,
  "sort": 0,
  "permission": {
    "default": 0
  },
  "flags": {}
}