{
  "_id": "ggt7q1ds0fvxxjgx",
  "name": "Suffocation",
  "type": "spell",
  "img": "systems/pf1/icons/misc/magic-swirl.png",
  "data": {
    "description": {
      "value": "<div class=\"spell-description\">\n  <p>\n    <strong>School</strong>&nbsp;necromancy;\n    <strong>Level</strong>&nbsp;occultist 5, psychic 5, sorcerer/wizard 5, spiritualist 5, witch 5;\n    \n    <strong>Subdomain</strong>&nbsp;Murder 5;\n    \n    \n  </p>\n  <p>\n    <strong>Casting Time</strong>&nbsp;1 standard<br>\n    <strong>Components</strong>&nbsp;V, S, M (a vial containing a bit of the caster&#x27;s breath)<br>\n  </p>\n  <p>\n    <strong>Range</strong>&nbsp;close (25 ft. + 5 ft./2 levels)<br>\n    \n    <strong>Targets</strong>&nbsp;one living creature<br>\n    \n    <strong>Duration</strong>&nbsp;3 rounds<br>\n      <strong>Saving Throw</strong>&nbsp;Fortitude partial;&nbsp;\n      <strong>Spell Resistance</strong>&nbsp;yes<br>\n  </p>\n  <h2>Description</h2>\n  <p>This spell extracts the air from the target's lungs, causing swift suffocation. The target can attempt to resist this spell's effects with a Fortitude save-if he succeeds, he is merely staggered for 1 round as he gasps for breath. If the target fails, he immediately begins to suffocate. On the target's next turn, he falls unconscious and is reduced to 0 hit points. One round later, the target drops to -1 hit points and is dying. One round after that, the target dies. Each round, the target can delay that round's effects from occurring by making a successful Fortitude save, but the spell continues for 3 rounds, and each time a target fails his Fortitude save, he moves one step further along the track to suffocation. This spell only affects living creatures that must breathe. It is impossible to defeat the effects of this spell by simply holding one's breath-if the victim fails the initial saving throw, the air in his lungs is extracted.</p>\n</div>\n"
    },
    "tags": [],
    "activation": {
      "type": "standard"
    },
    "unchainedAction": {
      "activation": {
        "cost": 2,
        "type": "action"
      }
    },
    "target": {
      "value": "one living creature"
    },
    "range": {
      "units": "close"
    },
    "uses": {
      "per": ""
    },
    "measureTemplate": {
      "size": "0"
    },
    "actionType": "spellsave",
    "damage": {
      "parts": [],
      "critParts": [],
      "nonCritParts": []
    },
    "attackParts": [],
    "ability": {
      "attack": "",
      "damage": ""
    },
    "save": {
      "dc": "0",
      "type": "fort",
      "description": "Fortitude partial"
    },
    "effectNotes": [],
    "attackNotes": [],
    "links": {
      "children": []
    },
    "flags": {
      "boolean": [],
      "dictionary": []
    },
    "scriptCalls": [],
    "learnedAt": {
      "class": [
        [
          "sorcerer/wizard",
          5
        ],
        [
          "witch",
          5
        ],
        [
          "psychic",
          5
        ],
        [
          "occultist",
          5
        ],
        [
          "spiritualist",
          5
        ]
      ],
      "domain": [],
      "subDomain": [
        [
          "Murder",
          5
        ]
      ],
      "elementalSchool": [],
      "bloodline": []
    },
    "level": 5,
    "school": "nec",
    "conditionals": [],
    "components": {
      "verbal": true,
      "somatic": true,
      "material": true
    },
    "materials": {
      "value": "a vial containing a bit of the caster's breath"
    },
    "shortDescription": "<p>This spell extracts the air from the target's lungs, causing swift suffocation. The target can attempt to resist this spell's effects with a Fortitude save-if he succeeds, he is merely staggered for 1 round as he gasps for breath. If the target fails, he immediately begins to suffocate. On the target's next turn, he falls unconscious and is reduced to 0 hit points. One round later, the target drops to -1 hit points and is dying. One round after that, the target dies. Each round, the target can delay that round's effects from occurring by making a successful Fortitude save, but the spell continues for 3 rounds, and each time a target fails his Fortitude save, he moves one step further along the track to suffocation. This spell only affects living creatures that must breathe. It is impossible to defeat the effects of this spell by simply holding one's breath-if the victim fails the initial saving throw, the air in his lungs is extracted.</p>",
    "spellDuration": "3 rounds"
  },
  "effects": [],
  "folder": null,
  "sort": 0,
  "permission": {
    "default": 0
  },
  "flags": {}
}