{
  "_id": "qh9fkdjjk48h0tt6",
  "name": "Symbol of Healing",
  "type": "spell",
  "img": "systems/pf1/icons/misc/magic-swirl.png",
  "data": {
    "description": {
      "value": "<div class=\"spell-description\">\n  <p>\n    <strong>School</strong>&nbsp;conjuration&nbsp;(healing);\n    <strong>Level</strong>&nbsp;cleric/oracle 3, occultist 3, paladin 4, witch 4;\n    \n    \n    \n    \n  </p>\n  <p>\n    <strong>Casting Time</strong>&nbsp;10 minutes<br>\n    <strong>Components</strong>&nbsp;V, S, M (mercury and phosphorous, plus powdered diamond and opal worth a total of 500 gp)<br>\n  </p>\n  <p>\n    <strong>Range</strong>&nbsp;0 feet<br>\n    \n    \n    <strong>Effect</strong>&nbsp;one symbol<br>\n    <strong>Duration</strong>&nbsp;see text<br>\n      <strong>Saving Throw</strong>&nbsp;Will half (harmless) (see text);&nbsp;\n      <strong>Spell Resistance</strong>&nbsp;yes<br>\n  </p>\n  <h2>Description</h2>\n  <p>This spell functions as <i>symbol of death</i>, except all creatures within 60 feet of the <i>symbol of healing</i> instead are bathed in positive energy and heal 2d8 points + 1 point of damage per caster level (maximum +15). Undead and other creatures harmed by positive energy instead take 2d8 points of damage + 1 point per caster level (maximum +15); a Will save reduces this damage by half. A creature can only be healed or harmed by the symbol once in any 24-hour period. Once triggered, the symbol remains active for 10 minutes per caster level.</p><p><i>Symbol of healing</i> can be made permanent with a <i>permanency</i> spell by a caster of 10th level or higher for the cost of 10,000 gp.</p>\n</div>\n"
    },
    "tags": [],
    "activation": {
      "cost": 10,
      "type": "minute"
    },
    "unchainedAction": {
      "activation": {
        "cost": 10,
        "type": "minute"
      }
    },
    "range": {
      "value": "0",
      "units": "ft"
    },
    "uses": {
      "per": ""
    },
    "measureTemplate": {
      "size": "0"
    },
    "actionType": "heal",
    "damage": {
      "parts": [],
      "critParts": [],
      "nonCritParts": []
    },
    "attackParts": [],
    "ability": {
      "attack": "",
      "damage": ""
    },
    "save": {
      "dc": "0",
      "type": "will",
      "description": "Will half (harmless) (see text)"
    },
    "effectNotes": [],
    "attackNotes": [],
    "links": {
      "children": []
    },
    "flags": {
      "boolean": [],
      "dictionary": []
    },
    "scriptCalls": [],
    "learnedAt": {
      "class": [
        [
          "cleric/oracle",
          3
        ],
        [
          "paladin",
          4
        ],
        [
          "witch",
          4
        ],
        [
          "occultist",
          3
        ]
      ],
      "domain": [],
      "subDomain": [],
      "elementalSchool": [],
      "bloodline": []
    },
    "level": 3,
    "school": "con",
    "subschool": "healing",
    "conditionals": [],
    "components": {
      "verbal": true,
      "somatic": true,
      "material": true
    },
    "materials": {
      "value": "mercury and phosphorous, plus powdered diamond and opal worth a total of 500 gp",
      "gpValue": 500
    },
    "spellbook": "",
    "preparation": {
      "autoDeductCharges": false,
      "spontaneousPrepared": false
    },
    "shortDescription": "<p>This spell functions as <i>symbol of death</i>, except all creatures within 60 feet of the <i>symbol of healing</i> instead are bathed in positive energy and heal 2d8 points + 1 point of damage per caster level (maximum +15). Undead and other creatures harmed by positive energy instead take 2d8 points of damage + 1 point per caster level (maximum +15); a Will save reduces this damage by half. A creature can only be healed or harmed by the symbol once in any 24-hour period. Once triggered, the symbol remains active for 10 minutes per caster level.</p><p><i>Symbol of healing</i> can be made permanent with a <i>permanency</i> spell by a caster of 10th level or higher for the cost of 10,000 gp.</p>",
    "spellDuration": "see text",
    "spellEffect": "one symbol",
    "spellPoints": {
      "cost": ""
    }
  },
  "effects": [],
  "folder": null,
  "sort": 0,
  "permission": {
    "default": 0
  },
  "flags": {}
}