{
  "_id": "gzgg3o1y238crj50",
  "name": "Thought Shield I",
  "type": "spell",
  "img": "systems/pf1/icons/misc/magic-swirl.png",
  "data": {
    "description": {
      "value": "<div class=\"spell-description\">\n  <p>\n    <strong>School</strong>&nbsp;abjuration;\n    <strong>Level</strong>&nbsp;psychic 2;\n    \n    \n    \n    \n  </p>\n  <p>\n    <strong>Casting Time</strong>&nbsp;1 immediate<br>\n    <strong>Components</strong>&nbsp;V<br>\n  </p>\n  <p>\n    <strong>Range</strong>&nbsp;personal<br>\n    \n    <strong>Targets</strong>&nbsp;you<br>\n    \n    <strong>Duration</strong>&nbsp;1 round<br>\n  </p>\n  <h2>Description</h2>\n  <p>Sensing an intrusion, you throw up a defense to protect your mind from attack or analysis. This grants you a +4 circumstance bonus on Will saving throws against mind-affecting effects. As long as this spell lasts, spells and effects that allow a creature to read your thoughts receive no information from you.</p>\n</div>\n"
    },
    "tags": [],
    "activation": {
      "type": "immediate"
    },
    "unchainedAction": {
      "activation": {
        "type": "reaction"
      }
    },
    "target": {
      "value": "you"
    },
    "range": {
      "units": "personal"
    },
    "uses": {
      "per": ""
    },
    "measureTemplate": {
      "size": "0"
    },
    "actionType": "",
    "damage": {
      "parts": [],
      "critParts": [],
      "nonCritParts": []
    },
    "attackParts": [],
    "ability": {
      "attack": "",
      "damage": ""
    },
    "save": {
      "dc": "0"
    },
    "effectNotes": [],
    "attackNotes": [],
    "links": {
      "children": []
    },
    "flags": {
      "boolean": [],
      "dictionary": []
    },
    "scriptCalls": [],
    "learnedAt": {
      "class": [
        [
          "psychic",
          2
        ]
      ],
      "domain": [],
      "subDomain": [],
      "elementalSchool": [],
      "bloodline": []
    },
    "level": 2,
    "school": "abj",
    "conditionals": [],
    "components": {
      "verbal": true
    },
    "sr": false,
    "shortDescription": "<p>Sensing an intrusion, you throw up a defense to protect your mind from attack or analysis. This grants you a +4 circumstance bonus on Will saving throws against mind-affecting effects. As long as this spell lasts, spells and effects that allow a creature to read your thoughts receive no information from you.</p>",
    "spellDuration": "1 round"
  },
  "effects": [],
  "folder": null,
  "sort": 0,
  "permission": {
    "default": 0
  },
  "flags": {}
}