{
  "_id": "m1rmcpcaixcpz9ib",
  "name": "Tongues",
  "type": "spell",
  "img": "systems/pf1/icons/misc/magic-swirl.png",
  "data": {
    "description": {
      "value": "<div class=\"spell-description\">\n  <p>\n    <strong>School</strong>&nbsp;divination;\n    <strong>Level</strong>&nbsp;adept 3, alchemist 3, bard 2, cleric/oracle 4, inquisitor 2, medium 2, mesmerist 2, psychic 3, shaman 4, sorcerer/wizard 3, spiritualist 3, summoner 3, unchained Summoner 3, witch 3;\n    \n    <strong>Subdomain</strong>&nbsp;Agathion 3, Language 3;\n    \n    \n  </p>\n  <p>\n    <strong>Casting Time</strong>&nbsp;1 standard<br>\n    <strong>Components</strong>&nbsp;V, M/DF (a clay model of a ziggurat)<br>\n  </p>\n  <p>\n    <strong>Range</strong>&nbsp;touch<br>\n    \n    <strong>Targets</strong>&nbsp;creature touched<br>\n    \n    <strong>Duration</strong>&nbsp;10 min./level<br>\n      <strong>Saving Throw</strong>&nbsp;Will negates (harmless);&nbsp;\n      <strong>Spell Resistance</strong>&nbsp;no<br>\n  </p>\n  <h2>Description</h2>\n  <p>This spell grants the creature touched the ability to speak and understand the language of any intelligent creature, whether it is a racial tongue or a regional dialect. The subject can speak only one language at a time, although it may be able to understand several languages. <i>Tongues</i> does not enable the subject to speak with creatures who don't speak. The subject can make itself understood as far as its voice carries. This spell does not predispose any creature addressed toward the subject in any way.</p><p><i>Tongues</i> can be made permanent with a <i>permanency</i> spell.</p>\n</div>\n"
    },
    "tags": [],
    "activation": {
      "type": "standard"
    },
    "unchainedAction": {
      "activation": {
        "cost": 2,
        "type": "action"
      }
    },
    "target": {
      "value": "creature touched"
    },
    "range": {
      "units": "touch"
    },
    "uses": {
      "per": ""
    },
    "measureTemplate": {
      "size": "0"
    },
    "actionType": "spellsave",
    "damage": {
      "parts": [],
      "critParts": [],
      "nonCritParts": []
    },
    "attackParts": [],
    "ability": {
      "attack": "",
      "damage": ""
    },
    "save": {
      "dc": "0",
      "type": "will",
      "description": "Will negates (harmless)"
    },
    "effectNotes": [],
    "attackNotes": [],
    "links": {
      "children": []
    },
    "flags": {
      "boolean": [],
      "dictionary": []
    },
    "scriptCalls": [],
    "learnedAt": {
      "class": [
        [
          "sorcerer/wizard",
          3
        ],
        [
          "cleric/oracle",
          4
        ],
        [
          "bard",
          2
        ],
        [
          "alchemist",
          3
        ],
        [
          "summoner",
          3
        ],
        [
          "witch",
          3
        ],
        [
          "inquisitor",
          2
        ],
        [
          "adept",
          3
        ],
        [
          "shaman",
          4
        ],
        [
          "psychic",
          3
        ],
        [
          "medium",
          2
        ],
        [
          "mesmerist",
          2
        ],
        [
          "spiritualist",
          3
        ],
        [
          "unchained Summoner",
          3
        ]
      ],
      "domain": [],
      "subDomain": [
        [
          "Agathion",
          3
        ],
        [
          "Language",
          3
        ]
      ],
      "elementalSchool": [],
      "bloodline": []
    },
    "level": 3,
    "school": "div",
    "conditionals": [],
    "components": {
      "verbal": true,
      "material": true,
      "divineFocus": 2
    },
    "materials": {
      "value": "a clay model of a ziggurat"
    },
    "sr": false,
    "shortDescription": "<p>This spell grants the creature touched the ability to speak and understand the language of any intelligent creature, whether it is a racial tongue or a regional dialect. The subject can speak only one language at a time, although it may be able to understand several languages. <i>Tongues</i> does not enable the subject to speak with creatures who don't speak. The subject can make itself understood as far as its voice carries. This spell does not predispose any creature addressed toward the subject in any way.</p><p><i>Tongues</i> can be made permanent with a <i>permanency</i> spell.</p>",
    "spellDuration": "10 min./level"
  },
  "effects": [],
  "folder": null,
  "sort": 0,
  "permission": {
    "default": 0
  },
  "flags": {}
}