{
  "_id": "65okoqbsj9yt9nx3",
  "name": "Transplant Visage",
  "type": "spell",
  "img": "systems/pf1/icons/misc/magic-swirl.png",
  "data": {
    "description": {
      "value": "<div class=\"spell-description\">\n  <p>\n    <strong>School</strong>&nbsp;transmutation&nbsp;[evil];\n    <strong>Level</strong>&nbsp;alchemist 5, antipaladin 4, cleric/oracle 4, inquisitor 4, magus 5, sorcerer/wizard 5, witch 5;\n    \n    \n    \n    \n  </p>\n  <p>\n    <strong>Casting Time</strong>&nbsp;1 round<br>\n    <strong>Components</strong>&nbsp;V, S, M (one corpse)<br>\n  </p>\n  <p>\n    <strong>Range</strong>&nbsp;personal<br>\n    \n    <strong>Targets</strong>&nbsp;you<br>\n    \n    <strong>Duration</strong>&nbsp;permanent<br>\n  </p>\n  <h2>Description</h2>\n  <p>This spell allows you to add a creature's stolen face to or remove such a face that you've already applied from your own. Before casting this spell, you must remove the face and eyes of a creature that has been dead no longer than 1 minute per caster level and place it over your own. Once you cast <i>transplant visage</i>, the creature's stolen skin magically melds with your own, making the expressions and eye color on your new face seem perfectly natural. Your new appearance grants you a +10 bonus on Disguise checks. Because the alteration made by <i>transplant visage</i> is permanent, there is no residual magical aura, and your new appearance is not recognized by <i>detect</i> spells. <i>Transplant visage</i> may be cast innumerable times, allowing a single caster to wear layers upon layers of stolen faces. However, only the topmost face is visible at any one time.</p><p><i>Transplant visage</i> may also be used to remove a previously stolen face. This is the only way to remove a face short of using <i>greater polymorph</i>, <i>miracle</i>, or <i>wish</i>. When used in this way, <i>transplant visage</i> c auses t he t opmost f ace t o fl ake o ff a nd crumble into dust. A face so removed may not be reused. If the caster is wearing several stolen faces when the topmost face is removed, the next face down is revealed, and may be used as normal.</p>\n</div>\n"
    },
    "tags": [],
    "activation": {
      "type": "round"
    },
    "unchainedAction": {
      "activation": {
        "cost": 3,
        "type": "action"
      }
    },
    "target": {
      "value": "you"
    },
    "range": {
      "units": "personal"
    },
    "uses": {
      "per": ""
    },
    "measureTemplate": {
      "size": "0"
    },
    "actionType": "",
    "damage": {
      "parts": [],
      "critParts": [],
      "nonCritParts": []
    },
    "attackParts": [],
    "ability": {
      "attack": "",
      "damage": ""
    },
    "save": {
      "dc": "0"
    },
    "effectNotes": [],
    "attackNotes": [],
    "links": {
      "children": []
    },
    "flags": {
      "boolean": [],
      "dictionary": []
    },
    "scriptCalls": [],
    "learnedAt": {
      "class": [
        [
          "sorcerer/wizard",
          5
        ],
        [
          "cleric/oracle",
          4
        ],
        [
          "alchemist",
          5
        ],
        [
          "witch",
          5
        ],
        [
          "inquisitor",
          4
        ],
        [
          "antipaladin",
          4
        ],
        [
          "magus",
          5
        ]
      ],
      "domain": [],
      "subDomain": [],
      "elementalSchool": [],
      "bloodline": []
    },
    "level": 5,
    "school": "trs",
    "types": "evil",
    "conditionals": [],
    "components": {
      "verbal": true,
      "somatic": true,
      "material": true
    },
    "materials": {
      "value": "one corpse"
    },
    "sr": false,
    "shortDescription": "<p>This spell allows you to add a creature's stolen face to or remove such a face that you've already applied from your own. Before casting this spell, you must remove the face and eyes of a creature that has been dead no longer than 1 minute per caster level and place it over your own. Once you cast <i>transplant visage</i>, the creature's stolen skin magically melds with your own, making the expressions and eye color on your new face seem perfectly natural. Your new appearance grants you a +10 bonus on Disguise checks. Because the alteration made by <i>transplant visage</i> is permanent, there is no residual magical aura, and your new appearance is not recognized by <i>detect</i> spells. <i>Transplant visage</i> may be cast innumerable times, allowing a single caster to wear layers upon layers of stolen faces. However, only the topmost face is visible at any one time.</p><p><i>Transplant visage</i> may also be used to remove a previously stolen face. This is the only way to remove a face short of using <i>greater polymorph</i>, <i>miracle</i>, or <i>wish</i>. When used in this way, <i>transplant visage</i> c auses t he t opmost f ace t o fl ake o ff a nd crumble into dust. A face so removed may not be reused. If the caster is wearing several stolen faces when the topmost face is removed, the next face down is revealed, and may be used as normal.</p>",
    "spellDuration": "permanent"
  },
  "effects": [],
  "folder": null,
  "sort": 0,
  "permission": {
    "default": 0
  },
  "flags": {}
}