{
  "_id": "a284vfyjpxla98v0",
  "name": "Transmogrify",
  "type": "spell",
  "img": "systems/pf1/icons/misc/magic-swirl.png",
  "data": {
    "description": {
      "value": "<div class=\"spell-description\">\n  <p>\n    <strong>School</strong>&nbsp;transmutation;\n    <strong>Level</strong>&nbsp;summoner 4, unchained Summoner 4;\n    \n    \n    \n    \n  </p>\n  <p>\n    <strong>Casting Time</strong>&nbsp;1 hour<br>\n    <strong>Components</strong>&nbsp;V, S, M (a flask of quicksilver worth 1,000 gp)<br>\n  </p>\n  <p>\n    <strong>Range</strong>&nbsp;touch<br>\n    \n    <strong>Targets</strong>&nbsp;your eidolon<br>\n    \n    <strong>Duration</strong>&nbsp;instantaneous<br>\n      <strong>Saving Throw</strong>&nbsp;Will negates (harmless);&nbsp;\n      <strong>Spell Resistance</strong>&nbsp;no<br>\n  </p>\n  <h2>Description</h2>\n  <p>Your eidolon's form shifts and transforms. This spell allows you to change any of the eidolon's evolutions by allocating its evolution pool on new evolutions. If you have the aspect or greater aspect ability, this spell also allows you to change the evolution points spent to modify you, including removing or adding points as allowed by those abilities.</p><p>Your eidolon cannot benefit from this spell more than once per day. This spell does not allow you to change your eidolon's base form.</p>\n</div>\n"
    },
    "tags": [],
    "activation": {
      "type": "hour"
    },
    "unchainedAction": {
      "activation": {
        "type": "hour"
      }
    },
    "target": {
      "value": "your eidolon"
    },
    "range": {
      "units": "touch"
    },
    "uses": {
      "per": ""
    },
    "measureTemplate": {
      "size": "0"
    },
    "actionType": "spellsave",
    "damage": {
      "parts": [],
      "critParts": [],
      "nonCritParts": []
    },
    "attackParts": [],
    "ability": {
      "attack": "",
      "damage": ""
    },
    "save": {
      "dc": "0",
      "type": "will",
      "description": "Will negates (harmless)"
    },
    "effectNotes": [],
    "attackNotes": [],
    "links": {
      "children": []
    },
    "flags": {
      "boolean": [],
      "dictionary": []
    },
    "scriptCalls": [],
    "learnedAt": {
      "class": [
        [
          "summoner",
          4
        ],
        [
          "unchained Summoner",
          4
        ]
      ],
      "domain": [],
      "subDomain": [],
      "elementalSchool": [],
      "bloodline": []
    },
    "level": 4,
    "school": "trs",
    "conditionals": [],
    "components": {
      "verbal": true,
      "somatic": true,
      "material": true
    },
    "materials": {
      "value": "a flask of quicksilver worth 1,000 gp",
      "gpValue": 1000
    },
    "spellbook": "",
    "preparation": {
      "autoDeductCharges": false,
      "spontaneousPrepared": false
    },
    "sr": false,
    "shortDescription": "<p>Your eidolon's form shifts and transforms. This spell allows you to change any of the eidolon's evolutions by allocating its evolution pool on new evolutions. If you have the aspect or greater aspect ability, this spell also allows you to change the evolution points spent to modify you, including removing or adding points as allowed by those abilities.</p><p>Your eidolon cannot benefit from this spell more than once per day. This spell does not allow you to change your eidolon's base form.</p>",
    "spellDuration": "instantaneous",
    "spellPoints": {
      "cost": ""
    }
  },
  "effects": [],
  "folder": null,
  "sort": 0,
  "permission": {
    "default": 0
  },
  "flags": {}
}