{
  "_id": "jg2n48yy9pk9mpdr",
  "name": "Transmute Blood To Acid",
  "type": "spell",
  "img": "systems/pf1/icons/misc/magic-swirl.png",
  "data": {
    "description": {
      "value": "<div class=\"spell-description\">\n  <p>\n    <strong>School</strong>&nbsp;transmutation&nbsp;[acid, pain];\n    <strong>Level</strong>&nbsp;psychic 9, sorcerer/wizard 9;\n    \n    \n    \n    \n  </p>\n  <p>\n    <strong>Casting Time</strong>&nbsp;1 standard<br>\n    <strong>Components</strong>&nbsp;V, S, M (a wax doll and a vial of acid worth 10 gp)<br>\n  </p>\n  <p>\n    <strong>Range</strong>&nbsp;close (25 ft. + 5 ft./2 levels)<br>\n    \n    <strong>Targets</strong>&nbsp;one living creature<br>\n    \n    <strong>Duration</strong>&nbsp;concentration (maximum 1 round/5 levels)<br>\n      <strong>Saving Throw</strong>&nbsp;Fortitude half;&nbsp;\n      <strong>Spell Resistance</strong>&nbsp;yes<br>\n  </p>\n  <h2>Description</h2>\n  <p>You transmute blood in the target's body to acid, dealing 1d6 points of acid damage/2 levels (maximum 12d6) each round.</p><p>The creature is staggered and sickened by the debilitating pain. A successful Fortitude save each round halves the damage and negates the staggered condition for 1 round. If this damage reduces the creature to 0 or fewer hit points, it dissolves, leaving only the barest trace of remains. A dissolved creature's equipment is unaffected.</p><p>Anyone who strikes the target with a non-reach melee weapon, natural weapon, or unarmed attack takes 3d6 points of acid damage as the acidic blood sprays on the attacker. If the attack is from a piercing or slashing manufactured weapon, the weapon also takes this damage.</p><p>This spell has no effect on creatures immune to critical hits or bleed effects.</p>\n</div>\n"
    },
    "tags": [],
    "activation": {
      "type": "standard"
    },
    "unchainedAction": {
      "activation": {
        "cost": 2,
        "type": "action"
      }
    },
    "target": {
      "value": "one living creature"
    },
    "range": {
      "units": "close"
    },
    "uses": {
      "per": ""
    },
    "measureTemplate": {
      "size": "0"
    },
    "actionType": "spellsave",
    "damage": {
      "parts": [],
      "critParts": [],
      "nonCritParts": []
    },
    "attackParts": [],
    "ability": {
      "attack": "",
      "damage": ""
    },
    "save": {
      "dc": "0",
      "type": "fort",
      "description": "Fortitude half"
    },
    "effectNotes": [],
    "attackNotes": [],
    "links": {
      "children": []
    },
    "flags": {
      "boolean": [],
      "dictionary": []
    },
    "scriptCalls": [],
    "learnedAt": {
      "class": [
        [
          "sorcerer/wizard",
          9
        ],
        [
          "psychic",
          9
        ]
      ],
      "domain": [],
      "subDomain": [],
      "elementalSchool": [],
      "bloodline": []
    },
    "level": 9,
    "school": "trs",
    "types": "acid, pain",
    "conditionals": [],
    "components": {
      "verbal": true,
      "somatic": true,
      "material": true
    },
    "materials": {
      "value": "a wax doll and a vial of acid worth 10 gp",
      "gpValue": 10
    },
    "spellbook": "",
    "preparation": {
      "autoDeductCharges": false,
      "spontaneousPrepared": false
    },
    "shortDescription": "<p>You transmute blood in the target's body to acid, dealing 1d6 points of acid damage/2 levels (maximum 12d6) each round.</p><p>The creature is staggered and sickened by the debilitating pain. A successful Fortitude save each round halves the damage and negates the staggered condition for 1 round. If this damage reduces the creature to 0 or fewer hit points, it dissolves, leaving only the barest trace of remains. A dissolved creature's equipment is unaffected.</p><p>Anyone who strikes the target with a non-reach melee weapon, natural weapon, or unarmed attack takes 3d6 points of acid damage as the acidic blood sprays on the attacker. If the attack is from a piercing or slashing manufactured weapon, the weapon also takes this damage.</p><p>This spell has no effect on creatures immune to critical hits or bleed effects.</p>",
    "spellDuration": "concentration (maximum 1 round/5 levels)",
    "spellPoints": {
      "cost": ""
    }
  },
  "effects": [],
  "folder": null,
  "sort": 0,
  "permission": {
    "default": 0
  },
  "flags": {}
}