{
  "_id": "huvhdpwdmyf9ehas",
  "name": "Unholy Ice",
  "type": "spell",
  "img": "systems/pf1/icons/misc/magic-swirl.png",
  "data": {
    "description": {
      "value": "<div class=\"spell-description\">\n  <p>\n    <strong>School</strong>&nbsp;transmutation&nbsp;[cold, evil, water];\n    <strong>Level</strong>&nbsp;cleric/oracle 5;\n    \n    \n    \n    \n  </p>\n  <p>\n    <strong>Casting Time</strong>&nbsp;1 standard<br>\n    <strong>Components</strong>&nbsp;V, S, M (a flask of unholy water or 5 pounds of powdered silver worth 25 gp)<br>\n  </p>\n  <p>\n    <strong>Range</strong>&nbsp;medium (100 ft. + 10 ft./level)<br>\n    \n    \n    <strong>Effect</strong>&nbsp;Wall of Ice or flying ice javelins (see text)<br>\n    <strong>Duration</strong>&nbsp;1 minute/level, instantaneous, or until expended (see text)<br>\n      <strong>Saving Throw</strong>&nbsp;Reflex negates or none (see text);&nbsp;\n      <strong>Spell Resistance</strong>&nbsp;yes<br>\n  </p>\n  <h2>Description</h2>\n  <p>This spell functions as <i>holy ice</i>, except it is made of frozen unholy water rather than holy water.</p>\n</div>\n"
    },
    "tags": [],
    "activation": {
      "type": "standard"
    },
    "unchainedAction": {
      "activation": {
        "cost": 2,
        "type": "action"
      }
    },
    "range": {
      "units": "medium"
    },
    "uses": {
      "per": ""
    },
    "measureTemplate": {
      "size": "0"
    },
    "actionType": "spellsave",
    "damage": {
      "parts": [],
      "critParts": [],
      "nonCritParts": []
    },
    "attackParts": [],
    "ability": {
      "attack": "",
      "damage": ""
    },
    "save": {
      "dc": "0",
      "type": "ref",
      "description": "Reflex negates or none (see text)"
    },
    "effectNotes": [],
    "attackNotes": [],
    "links": {
      "children": []
    },
    "flags": {
      "boolean": [],
      "dictionary": []
    },
    "scriptCalls": [],
    "learnedAt": {
      "class": [
        [
          "cleric/oracle",
          5
        ]
      ],
      "domain": [],
      "subDomain": [],
      "elementalSchool": [],
      "bloodline": []
    },
    "level": 5,
    "school": "trs",
    "types": "cold, evil, water",
    "conditionals": [],
    "components": {
      "verbal": true,
      "somatic": true,
      "material": true
    },
    "materials": {
      "value": "a flask of unholy water or 5 pounds of powdered silver worth 25 gp",
      "gpValue": 25
    },
    "spellbook": "",
    "preparation": {
      "autoDeductCharges": false,
      "spontaneousPrepared": false
    },
    "shortDescription": "<p>This spell functions as <i>holy ice</i>, except it is made of frozen unholy water rather than holy water.</p>",
    "spellDuration": "1 minute/level, instantaneous, or until expended (see text)",
    "spellEffect": "Wall of Ice or flying ice javelins (see text)",
    "spellPoints": {
      "cost": ""
    }
  },
  "effects": [],
  "folder": null,
  "sort": 0,
  "permission": {
    "default": 0
  },
  "flags": {}
}