{
  "_id": "b49ketr3vgjnld0c",
  "name": "Virulent Miasma",
  "type": "spell",
  "img": "systems/pf1/icons/misc/magic-swirl.png",
  "data": {
    "description": {
      "value": "<div class=\"spell-description\">\n  <p>\n    <strong>School</strong>&nbsp;necromancy;\n    <strong>Level</strong>&nbsp;antipaladin 2, bloodrager 3, druid 3, hunter 3, sorcerer/wizard 3;\n    \n    \n    \n    \n  </p>\n  <p>\n    <strong>Casting Time</strong>&nbsp;1 standard<br>\n    <strong>Components</strong>&nbsp;V, S, M (a dried scab from a diseased creature)<br>\n  </p>\n  <p>\n    <strong>Range</strong>&nbsp;medium (100 ft. + 10 ft./level)<br>\n    \n    \n    <strong>Effect</strong>&nbsp;cloud spreads in 20-ft. radius, 20 ft. high<br>\n    <strong>Duration</strong>&nbsp;1 round/level<br>\n      <strong>Saving Throw</strong>&nbsp;Fortitude negates (see text);&nbsp;\n      <strong>Spell Resistance</strong>&nbsp;no<br>\n  </p>\n  <h2>Description</h2>\n  <p><i>Virulent miasma</i> creates fog like <i>fog cloud</i>, except that the vapors carry the taint of disease. Living creatures take a -4 penalty on saving throws against disease effects as long as they remain within the cloud and for 1d4+1 rounds after leaving. This effect of the spell allows a Fortitude save to negate it, and it is subject to spell resistance. A creature that succeeds at its saving throw against the fog (or ignores the fog due to spell resistance) is not affected and need not make further saves even if it remains in the fog.</p>\n</div>\n"
    },
    "tags": [],
    "activation": {
      "type": "standard"
    },
    "unchainedAction": {
      "activation": {
        "cost": 2,
        "type": "action"
      }
    },
    "range": {
      "units": "medium"
    },
    "uses": {
      "per": ""
    },
    "measureTemplate": {
      "size": "0"
    },
    "actionType": "spellsave",
    "damage": {
      "parts": [],
      "critParts": [],
      "nonCritParts": []
    },
    "attackParts": [],
    "ability": {
      "attack": "",
      "damage": ""
    },
    "save": {
      "dc": "0",
      "type": "fort",
      "description": "Fortitude negates (see text)"
    },
    "effectNotes": [],
    "attackNotes": [],
    "links": {
      "children": []
    },
    "flags": {
      "boolean": [],
      "dictionary": []
    },
    "scriptCalls": [],
    "learnedAt": {
      "class": [
        [
          "sorcerer/wizard",
          3
        ],
        [
          "druid",
          3
        ],
        [
          "antipaladin",
          2
        ],
        [
          "bloodrager",
          3
        ],
        [
          "hunter",
          3
        ]
      ],
      "domain": [],
      "subDomain": [],
      "elementalSchool": [],
      "bloodline": []
    },
    "level": 3,
    "school": "nec",
    "conditionals": [],
    "components": {
      "verbal": true,
      "somatic": true,
      "material": true
    },
    "materials": {
      "value": "a dried scab from a diseased creature"
    },
    "sr": false,
    "shortDescription": "<p><i>Virulent miasma</i> creates fog like <i>fog cloud</i>, except that the vapors carry the taint of disease. Living creatures take a -4 penalty on saving throws against disease effects as long as they remain within the cloud and for 1d4+1 rounds after leaving. This effect of the spell allows a Fortitude save to negate it, and it is subject to spell resistance. A creature that succeeds at its saving throw against the fog (or ignores the fog due to spell resistance) is not affected and need not make further saves even if it remains in the fog.</p>",
    "spellDuration": "1 round/level",
    "spellEffect": "cloud spreads in 20-ft. radius, 20 ft. high"
  },
  "effects": [],
  "folder": null,
  "sort": 0,
  "permission": {
    "default": 0
  },
  "flags": {}
}