{
  "_id": "006yfbelwtwts8cr",
  "name": "Ward the Faithful",
  "type": "spell",
  "img": "systems/pf1/icons/misc/magic-swirl.png",
  "data": {
    "description": {
      "value": "<div class=\"spell-description\">\n  <p>\n    <strong>School</strong>&nbsp;abjuration;\n    <strong>Level</strong>&nbsp;inquisitor 3;\n    \n    \n    \n    \n  </p>\n  <p>\n    <strong>Casting Time</strong>&nbsp;1 standard<br>\n    <strong>Components</strong>&nbsp;V, S, DF<br>\n  </p>\n  <p>\n    <strong>Range</strong>&nbsp;touch<br>\n    <strong>Area</strong>&nbsp;10-ft.-radius emanation from touched creature<br>\n    \n    \n    <strong>Duration</strong>&nbsp;10 minutes/level<br>\n      <strong>Saving Throw</strong>&nbsp;Will negates (harmless);&nbsp;\n      <strong>Spell Resistance</strong>&nbsp;no<br>\n  </p>\n  <h2>Description</h2>\n  <p>All creatures within the area who worship the same god as you gain a +2 deflection bonus to AC and a +2 resistance bonus on all saves. At 12th level, these bonuses increase to +3. At 18th level, the bonuses increase to +4.</p><p>If you do not worship a specific deity, the bonuses apply to those who share your faith. If you do not have a specific faith or religion, the spell provides benefits only to yourself. Enemies gain the benefits of this spell if they worship the same god or share the same faith as you, even if you view them as heretical.</p>\n</div>\n"
    },
    "tags": [],
    "activation": {
      "type": "standard"
    },
    "unchainedAction": {
      "activation": {
        "cost": 2,
        "type": "action"
      }
    },
    "range": {
      "units": "touch"
    },
    "uses": {
      "per": ""
    },
    "measureTemplate": {
      "size": "0"
    },
    "actionType": "spellsave",
    "damage": {
      "parts": [],
      "critParts": [],
      "nonCritParts": []
    },
    "attackParts": [],
    "ability": {
      "attack": "",
      "damage": ""
    },
    "save": {
      "dc": "0",
      "type": "will",
      "description": "Will negates (harmless)"
    },
    "effectNotes": [],
    "attackNotes": [],
    "links": {
      "children": []
    },
    "flags": {
      "boolean": [],
      "dictionary": []
    },
    "scriptCalls": [],
    "learnedAt": {
      "class": [
        [
          "inquisitor",
          3
        ]
      ],
      "domain": [],
      "subDomain": [],
      "elementalSchool": [],
      "bloodline": []
    },
    "level": 3,
    "school": "abj",
    "conditionals": [],
    "components": {
      "verbal": true,
      "somatic": true,
      "divineFocus": 1
    },
    "sr": false,
    "shortDescription": "<p>All creatures within the area who worship the same god as you gain a +2 deflection bonus to AC and a +2 resistance bonus on all saves. At 12th level, these bonuses increase to +3. At 18th level, the bonuses increase to +4.</p><p>If you do not worship a specific deity, the bonuses apply to those who share your faith. If you do not have a specific faith or religion, the spell provides benefits only to yourself. Enemies gain the benefits of this spell if they worship the same god or share the same faith as you, even if you view them as heretical.</p>",
    "spellDuration": "10 minutes/level",
    "spellArea": "10-ft.-radius emanation from touched creature"
  },
  "effects": [],
  "folder": null,
  "sort": 0,
  "permission": {
    "default": 0
  },
  "flags": {}
}