{
  "_id": "7m5us8d4a9lwh1ap",
  "name": "Water Breathing",
  "type": "spell",
  "img": "systems/pf1/icons/misc/magic-swirl.png",
  "data": {
    "description": {
      "value": "<div class=\"spell-description\">\n  <p>\n    <strong>School</strong>&nbsp;transmutation;\n    <strong>Level</strong>&nbsp;alchemist 3, bloodrager 3, cleric/oracle 3, druid 3, hunter 3, magus 3, psychic 3, shaman 3, sorcerer/wizard 3, summoner 3, unchained Summoner 3;\n    <strong>Domain</strong>&nbsp;Water 3;\n    \n    \n    \n  </p>\n  <p>\n    <strong>Casting Time</strong>&nbsp;1 standard<br>\n    <strong>Components</strong>&nbsp;V, S, M/DF (short reed or piece of straw)<br>\n  </p>\n  <p>\n    <strong>Range</strong>&nbsp;touch<br>\n    \n    <strong>Targets</strong>&nbsp;living creatures touched<br>\n    \n    <strong>Duration</strong>&nbsp;2 hours/level; see text<br>\n      <strong>Saving Throw</strong>&nbsp;Will negates (harmless);&nbsp;\n      <strong>Spell Resistance</strong>&nbsp;yes<br>\n  </p>\n  <h2>Description</h2>\n  <p>The transmuted creatures can breathe water freely. Divide the duration evenly among all the creatures you touch. The spell does not make creatures unable to breathe air.</p>\n</div>\n"
    },
    "tags": [],
    "activation": {
      "type": "standard"
    },
    "unchainedAction": {
      "activation": {
        "cost": 2,
        "type": "action"
      }
    },
    "target": {
      "value": "living creatures touched"
    },
    "range": {
      "units": "touch"
    },
    "uses": {
      "per": ""
    },
    "measureTemplate": {
      "size": "0"
    },
    "actionType": "spellsave",
    "damage": {
      "parts": [],
      "critParts": [],
      "nonCritParts": []
    },
    "attackParts": [],
    "ability": {
      "attack": "",
      "damage": ""
    },
    "save": {
      "dc": "0",
      "type": "will",
      "description": "Will negates (harmless)"
    },
    "effectNotes": [],
    "attackNotes": [],
    "links": {
      "children": []
    },
    "flags": {
      "boolean": [],
      "dictionary": []
    },
    "scriptCalls": [],
    "learnedAt": {
      "class": [
        [
          "sorcerer/wizard",
          3
        ],
        [
          "cleric/oracle",
          3
        ],
        [
          "druid",
          3
        ],
        [
          "alchemist",
          3
        ],
        [
          "summoner",
          3
        ],
        [
          "magus",
          3
        ],
        [
          "bloodrager",
          3
        ],
        [
          "shaman",
          3
        ],
        [
          "psychic",
          3
        ],
        [
          "hunter",
          3
        ],
        [
          "unchained Summoner",
          3
        ]
      ],
      "domain": [
        [
          "Water",
          3
        ]
      ],
      "subDomain": [],
      "elementalSchool": [],
      "bloodline": []
    },
    "level": 3,
    "school": "trs",
    "conditionals": [],
    "components": {
      "verbal": true,
      "somatic": true,
      "material": true,
      "divineFocus": 2
    },
    "materials": {
      "value": "short reed or piece of straw"
    },
    "shortDescription": "<p>The transmuted creatures can breathe water freely. Divide the duration evenly among all the creatures you touch. The spell does not make creatures unable to breathe air.</p>",
    "spellDuration": "2 hours/level; see text"
  },
  "effects": [],
  "folder": null,
  "sort": 0,
  "permission": {
    "default": 0
  },
  "flags": {}
}