{
  "_id": "9fd7mcoint902oyb",
  "name": "Wooden Phalanx",
  "type": "spell",
  "img": "systems/pf1/icons/misc/magic-swirl.png",
  "data": {
    "description": {
      "value": "<div class=\"spell-description\">\n  <p>\n    <strong>School</strong>&nbsp;conjuration&nbsp;(creation);\n    <strong>Level</strong>&nbsp;cleric/oracle 9, sorcerer/wizard 9;\n    \n    <strong>Subdomain</strong>&nbsp;Industry 9;\n    \n    \n  </p>\n  <p>\n    <strong>Casting Time</strong>&nbsp;1 standard<br>\n    <strong>Components</strong>&nbsp;V, S<br>\n  </p>\n  <p>\n    <strong>Range</strong>&nbsp;medium (100 ft. + 10 ft./level)<br>\n    \n    \n    <strong>Effect</strong>&nbsp;three or more wood golems, no two of which can be more than 30 ft. apart (see text)<br>\n    <strong>Duration</strong>&nbsp;1 hour/level (D)<br>\n      <strong>Saving Throw</strong>&nbsp;none;&nbsp;\n      <strong>Spell Resistance</strong>&nbsp;no<br>\n  </p>\n  <h2>Description</h2>\n  <p>You create 1d4+2 wood golems with the advanced template (<i>Bestiary</i> 164, 294). The golems willingly aid you in combat or battle, perform a specific mission, or serve as bodyguards. You can only have one <i>wooden phalanx</i> spell in effect at one time.</p><p>If you cast this spell while another casting is still in effect, the previous casting is dispelled.</p>\n</div>\n"
    },
    "tags": [],
    "activation": {
      "type": "standard"
    },
    "unchainedAction": {
      "activation": {
        "cost": 2,
        "type": "action"
      }
    },
    "range": {
      "units": "medium"
    },
    "uses": {
      "per": ""
    },
    "measureTemplate": {
      "size": "0"
    },
    "actionType": "other",
    "damage": {
      "parts": [],
      "critParts": [],
      "nonCritParts": []
    },
    "attackParts": [],
    "ability": {
      "attack": "",
      "damage": ""
    },
    "save": {
      "dc": "0"
    },
    "effectNotes": [],
    "attackNotes": [],
    "links": {
      "children": []
    },
    "flags": {
      "boolean": [],
      "dictionary": []
    },
    "scriptCalls": [],
    "learnedAt": {
      "class": [
        [
          "sorcerer/wizard",
          9
        ],
        [
          "cleric/oracle",
          9
        ]
      ],
      "domain": [],
      "subDomain": [
        [
          "Industry",
          9
        ]
      ],
      "elementalSchool": [],
      "bloodline": []
    },
    "level": 9,
    "school": "con",
    "subschool": "creation",
    "conditionals": [],
    "components": {
      "verbal": true,
      "somatic": true
    },
    "sr": false,
    "shortDescription": "<p>You create 1d4+2 wood golems with the advanced template (<i>Bestiary</i> 164, 294). The golems willingly aid you in combat or battle, perform a specific mission, or serve as bodyguards. You can only have one <i>wooden phalanx</i> spell in effect at one time.</p><p>If you cast this spell while another casting is still in effect, the previous casting is dispelled.</p>",
    "spellDuration": "1 hour/level (D)",
    "spellEffect": "three or more wood golems, no two of which can be more than 30 ft. apart (see text)"
  },
  "effects": [],
  "folder": null,
  "sort": 0,
  "permission": {
    "default": 0
  },
  "flags": {}
}